<?xml version="1.0" encoding="UTF-8" standalone="no"?>
<!-- Created with Inkscape (http://www.inkscape.org/) -->

<svg
   xmlns:dc="http://purl.org/dc/elements/1.1/"
   xmlns:cc="http://creativecommons.org/ns#"
   xmlns:rdf="http://www.w3.org/1999/02/22-rdf-syntax-ns#"
   xmlns:svg="http://www.w3.org/2000/svg"
   xmlns="http://www.w3.org/2000/svg"
   xmlns:sodipodi="http://sodipodi.sourceforge.net/DTD/sodipodi-0.dtd"
   xmlns:inkscape="http://www.inkscape.org/namespaces/inkscape"
   width="450"
   height="340"
   id="svg3933"
   version="1.1"
   inkscape:version="0.48.4 r9939"
   sodipodi:docname="06_small.svg">
  <defs
     id="defs3935" />
  <sodipodi:namedview
     id="base"
     pagecolor="#ffffff"
     bordercolor="#666666"
     borderopacity="1.0"
     inkscape:pageopacity="0.0"
     inkscape:pageshadow="2"
     inkscape:zoom="0.35"
     inkscape:cx="-99.285714"
     inkscape:cy="520"
     inkscape:document-units="px"
     inkscape:current-layer="layer1"
     showgrid="false"
     inkscape:window-width="1271"
     inkscape:window-height="794"
     inkscape:window-x="146"
     inkscape:window-y="63"
     inkscape:window-maximized="0" />
  <metadata
     id="metadata3938">
    <rdf:RDF>
      <cc:Work
         rdf:about="">
        <dc:format>image/svg+xml</dc:format>
        <dc:type
           rdf:resource="http://purl.org/dc/dcmitype/StillImage" />
        <dc:title></dc:title>
      </cc:Work>
    </rdf:RDF>
  </metadata>
  <g
     inkscape:label="Layer 1"
     inkscape:groupmode="layer"
     id="layer1"
     transform="translate(0,-712.36218)">
    <g
       transform="matrix(0.57534375,0,0,0.57534375,-198.40385,-399.91106)"
       id="04"
       inkscape:label="Hedmark">
      <path
         style="stroke:#ffffff;stroke-width:3;stroke-miterlimit:10"
         id="0402"
         inkscape:label="Kongsvinger"
         inkscape:connector-curvature="0"
         stroke-miterlimit="10"
         d="m 876.436,2489.027 -1.657,-2.783 0.279,-3.289 -2.463,-4.779 v -0.992 l -6.864,-3.588 3.23,-4.078 -2.032,-6.26 -2.51,-2.182 -9.204,-0.223 -9.315,10.402 -13.906,0.82 -0.931,-1.473 -1.124,-6.711 1.761,-3.377 v -4.799 l -0.757,-0.318 -0.757,-0.672 -0.574,-0.957 -0.043,-3.92 1.01,-2.109 -1.766,-5.604 3.518,-4.33 -1.943,-7.24 -8.882,-10.582 8.551,-0.104 13.852,-5.021 9.937,3.135 8.498,8.643 -0.312,-6.668 5.496,-1.752 -2.761,-8.965 4.438,-0.4 2.232,5.764 2.696,-1.094 3.12,3.18 4.208,-2.248 13.331,34.752 -6.346,26.695 -10.285,15.908 -1.739,-2.783 0,0 0.014,0 0,0 z" />
      <path
         style="stroke:#ffffff;stroke-width:3;stroke-miterlimit:10"
         id="0403"
         inkscape:label="Hamar"
         inkscape:connector-curvature="0"
         stroke-miterlimit="10"
         d="m 750.242,2335.945 -3.487,-2.102 -9.651,3.463 -4.719,-8.02 5.229,-2.09 2.144,2.266 4.013,-8.393 -2.635,-24.262 2.969,-9.992 -8.466,-14.824 -5.578,-25.844 25.433,34.1 -0.884,23.182 6.553,18.359 -3.366,12.51 -3.923,3.705 -3.632,-2.058 0,0 0,0 0,0 0,0 z" />
      <path
         style="stroke:#ffffff;stroke-width:3;stroke-miterlimit:10"
         id="0412"
         inkscape:label="Ringsaker"
         inkscape:connector-curvature="0"
         stroke-miterlimit="10"
         d="m 729.817,2350.066 -9.689,-7.422 -11.443,-4.664 -5.28,-9.439 2.548,-9.42 -7.759,-17.043 -18.78,-14.562 -1.962,-5.596 12.469,-4.609 15.966,-31.854 10.055,-6.051 4.725,-6.258 8.719,11.822 5.667,26.918 8.654,15.018 -2.94,9.793 2.635,24.246 -3.722,7.969 -1.744,-2.18 -6.148,2.361 8.271,21.816 -1.266,6.227 -8.976,-7.072 0,0 0,0 0,0 0,0 z" />
      <path
         style="stroke:#ffffff;stroke-width:3;stroke-miterlimit:10"
         id="0415"
         inkscape:label="L√∏ten"
         inkscape:connector-curvature="0"
         stroke-miterlimit="10"
         d="m 788.705,2351.074 -8.103,-4.65 -5.676,-6.561 -6.682,-0.33 -1.171,-1.334 -1.148,-3.916 -7.653,-0.178 3.29,-12.24 -6.568,-18.479 0.956,-22.574 29.376,53.348 0.151,0.648 6.811,2.473 4.34,5.174 -0.601,6.191 2.707,2.979 -2.104,3.809 -7.923,-4.359 h -0.002 l 0,-10e-4 0,0 z" />
      <path
         style="stroke:#ffffff;stroke-width:3;stroke-miterlimit:10"
         id="0417"
         inkscape:label="Stange"
         inkscape:connector-curvature="0"
         stroke-miterlimit="10"
         d="m 765.121,2396.097 -7.898,-4.82 -0.107,-12.021 -17.972,-21.803 1.271,-6.564 -3.418,-13.064 9.695,-3.564 7.177,4.117 4.215,-3.785 7.578,0.107 1.641,5.113 7.521,0.451 4.806,5.145 0.562,1.301 16.389,9.717 3.992,20.199 -3.443,-2.881 -7.704,3.914 1.205,9.4 -9.585,2.967 -10.245,-2.041 -0.304,11.973 -5.374,-3.861 0,0 v 0 l -0.002,0 0,0 z" />
      <path
         style="stroke:#ffffff;stroke-width:3;stroke-miterlimit:10"
         id="0418"
         inkscape:label="Nord-Odal"
         inkscape:connector-curvature="0"
         stroke-miterlimit="10"
         d="m 784.879,2427.007 -5.248,-5.375 -8.746,-21.322 0.249,-11.957 10.06,2.059 9.836,-2.643 -1.135,-10.156 7.186,-3.49 6.755,7.424 1.637,-0.236 6.98,13.523 3.62,-1.379 0.451,6.061 4.188,5.648 -1.534,13.111 -5.312,-2.844 -3.247,4.316 -12.45,-2.777 1.967,11.916 -1.232,1.127 -1.022,-0.693 -4.26,0.145 -3.389,2.916 -5.35,-5.375 0,0 -0.004,0 0,0 0,0 z" />
      <path
         style="stroke:#ffffff;stroke-width:3;stroke-miterlimit:10"
         id="0419"
         inkscape:label="S√∏r-Odal"
         inkscape:connector-curvature="0"
         stroke-miterlimit="10"
         d="m 817.713,2476.164 -1.817,-4.52 -4.86,-1.547 -11.93,-9.857 -2.698,-4.662 1.906,-18.309 -7.681,-4.619 0.814,-1.053 4.625,-2.574 3.271,1.266 0.878,-4.254 -1.657,-8.713 11.921,2.957 3.578,-4.367 5.989,3.584 10.047,11.314 1.875,6.854 -3.412,4.182 1.611,5.916 -1.694,5.088 2.247,2.893 0.727,0.299 -0.071,3.084 -1.834,4.756 1.967,11.799 -7.527,1.025 -1.767,3.451 -2.453,0.518 -2.055,-4.512 0,0 0,0 0,0 0,0 z" />
      <path
         style="stroke:#ffffff;stroke-width:3;stroke-miterlimit:10"
         id="0420"
         inkscape:label="Eidskog"
         inkscape:connector-curvature="0"
         stroke-miterlimit="10"
         d="m 823.927,2521.582 -1.742,-14.355 1.761,-2.439 -2.974,-6.834 3.978,-10.523 -0.998,-0.795 -1.375,-6.232 1.669,-3.379 7.771,-0.965 v -3.506 l 14.19,-1.004 9.127,-10.305 8.96,0.234 1.21,1.111 3.125,6.922 -3.5,4.193 7.162,3.764 -0.065,0.881 2.441,4.738 -0.264,3.266 3.437,5.986 -1.357,3.164 -17.176,16.295 -5.674,0.256 -0.244,0.58 -10.059,-0.096 -2.629,-2.271 -2.641,0.826 -3.71,2.885 -1.594,2.266 -8.828,5.33 0,0 -10e-4,0.01 0,0 0,0 z" />
      <path
         style="stroke:#ffffff;stroke-width:3;stroke-miterlimit:10"
         id="0423"
         inkscape:label="Grue"
         inkscape:connector-curvature="0"
         stroke-miterlimit="10"
         d="m 888.24,2429.332 -6.542,-15.492 -4.353,2.469 -2.727,-3.072 -2.916,1.018 -2.304,-5.76 -4.981,0.453 2.679,9.213 -5.404,1.98 0.345,5.588 -7.818,-7.998 -10.32,-3.281 -13.703,4.996 -9.982,-0.309 -0.75,-0.307 1.497,-13.979 -4.196,-5.947 0.009,-5.764 13.525,-6.148 11.512,0.824 -1.269,-6.309 2.071,-2.225 9.218,1.219 2.583,-1.986 4.04,1.115 4.041,2.574 0.477,1.049 0.473,0.438 13.914,-5.576 7.623,3.818 10.956,-0.439 1.147,1.26 1.61,22.883 -8.329,17.24 -1.524,-0.219 0.829,8.059 -1.434,-1.385 0,0 h 0.003 l 0,0 z" />
      <path
         style="stroke:#ffffff;stroke-width:3;stroke-miterlimit:10"
         id="0425"
         inkscape:label="√Ösnes"
         inkscape:connector-curvature="0"
         stroke-miterlimit="10"
         d="m 810.872,2390.83 -5.159,-9.998 -1.706,0.248 -3.15,-5.113 -0.063,-1.152 12.994,1.854 12.401,-9.104 2.841,-9.895 -2.99,-3.338 -0.221,-1.67 1.974,-3.27 2.193,-0.752 2.108,-9.475 8.807,-7.135 4.104,-0.945 -2.843,-3.033 11.695,-8.643 -2.745,-3.701 -1.685,-4.898 0.971,-0.307 13.533,8.146 3.104,0.115 19.559,39.74 1.111,8.43 8.697,14.023 -11.365,0.543 -7.716,-3.822 -10.822,4.674 -3.694,-0.758 -0.116,-1.113 -8.446,-2.473 -2.3,2.215 -8.905,-1.25 -2.907,2.443 1.136,5.941 -11.036,-0.742 -17.562,7.727 -1.797,-3.512 0,0 0,0 0,0 0,0 z" />
      <path
         style="stroke:#ffffff;stroke-width:3;stroke-miterlimit:10"
         id="0426"
         inkscape:label="V√•ler (Hedmark)"
         inkscape:connector-curvature="0"
         stroke-miterlimit="10"
         d="m 807.126,2375.478 -6.089,-1.074 -4.167,-18.482 2.368,-4.432 -2.601,-3.289 0.33,-5.809 10.359,-1.373 5.272,-3.387 1.003,-4.947 20.027,-11.836 -4.472,-4.328 3.883,-4.113 -0.479,-14.17 1.24,0.504 6.228,0.332 5.956,3.82 -2.666,-7.129 2.099,-3.025 -0.175,-4.771 -3.156,-7.865 5.31,-4.35 18.615,33.674 0.924,8.842 -2.884,0 -14.132,-8.557 -2.112,2.4 5.443,7.121 -11.507,8.848 2.715,2.906 h -1.28 l -2.425,0.686 -8.998,7.26 -2.162,9.428 -4.403,1.816 0.465,4.357 3.095,3.123 -3.229,10.014 -12.413,8.801 -5.984,-0.99 0.002,0 0,0 0,0 z" />
      <path
         style="stroke:#ffffff;stroke-width:3;stroke-miterlimit:10"
         id="0427"
         inkscape:label="Elverum"
         inkscape:connector-curvature="0"
         stroke-miterlimit="10"
         d="m 794.625,2339.464 -3.23,-2.895 -5.668,-2.412 -12.528,-31.689 -10.512,-13.805 15.529,-4.836 11.965,-16.584 4.573,2.387 -2.332,-5.473 9.701,-6.344 2.051,-9.023 7.766,7.902 8.409,15.059 6.242,6.09 2.233,-2.373 h 7.328 l 3.372,-5.32 6.578,3.85 0.994,1.318 -5.782,5.197 3.574,7.723 0.247,4.254 -2.278,3.199 2.328,6.367 -4.974,-3.379 -5.08,0.289 -2.88,-1.203 0.412,14.447 -3.949,4.271 4.42,4.391 -20.052,11.523 -1.042,5.219 -4.848,3.031 -10.262,1.377 -2.305,-2.558 0,0 0,0 0,0 z" />
      <path
         style="stroke:#ffffff;stroke-width:3;stroke-miterlimit:10"
         id="0428"
         inkscape:label="Trysil"
         inkscape:connector-curvature="0"
         stroke-miterlimit="10"
         d="m 850.933,2280.148 -4.396,-6.242 -6.998,-4.238 -3.729,5.621 -7.158,-0.219 -2.075,2.348 -5.87,-5.863 -8.4,-15.031 -7.924,-8.096 16.846,-13.807 -16.051,-47.582 10.388,-38.26 9.106,18.502 27.662,-8.488 15.396,14.9 14.417,-1.623 31.882,40.738 -5.907,32.121 -7.688,11.518 -1.564,16.705 -6.895,3.27 -15.994,-0.174 -21.819,8.682 -3.23,-4.783 10e-4,0 0,0 0,0 z" />
      <path
         style="stroke:#ffffff;stroke-width:3;stroke-miterlimit:10"
         id="0429"
         inkscape:label="√Ömot"
         inkscape:connector-curvature="0"
         stroke-miterlimit="10"
         d="m 758.966,2283.998 -31.851,-43.078 15.74,-0.26 2.999,1.77 4.456,8.867 8.365,-2.154 1.809,0.221 3.987,-1.592 0.95,-0.854 -3.554,-9.951 5.993,-3.889 -9.646,-24.74 46.416,-20.381 16.353,46.43 -17.172,14.121 -1.895,9.025 -9.959,6.469 2.047,4.838 -3.926,-2.221 -13.071,17.225 -14.51,4.238 -3.531,-4.084 0,0 0,0 0,0 0,0 z" />
      <path
         style="stroke:#ffffff;stroke-width:3;stroke-miterlimit:10"
         id="0430"
         inkscape:label="Stor-Elvdal"
         inkscape:connector-curvature="0"
         stroke-miterlimit="10"
         d="m 748.331,2246.953 -2.185,-5.385 v -1.402 l -19.304,0.354 -6.172,-7.852 -4.824,5.547 -17.355,-40.633 2.262,-5.793 -7.83,-41.734 -6.848,-6.654 -7.682,4.531 -8.248,10.818 -10.548,-8.744 -22.973,-7.777 9.502,-26.057 -7.009,-4.512 4.643,-8.533 16.046,6.744 4.336,-8.008 9.253,-2.029 6.851,16.457 16.516,11.102 13.555,16.746 9.981,-6.057 4.32,0.85 18.108,33.33 -1.629,6.344 26.175,54.238 -5.979,4.32 3.608,9.666 -2.767,2.324 -1.738,-0.234 -9.76,2.014 -2.307,-3.982 v 10e-4 l 0.002,0 0,0 z" />
      <path
         style="stroke:#ffffff;stroke-width:3;stroke-miterlimit:10"
         id="0432"
         inkscape:label="Rendalen"
         inkscape:connector-curvature="0"
         stroke-miterlimit="10"
         d="m 757.904,2207.607 -16.323,-29.164 1.674,-6.518 -18.52,-33.496 -4.641,-0.793 -9.425,5.793 -13.443,-16.277 -16.62,-11.238 -6.591,-16.406 8.836,-0.375 4.033,10.342 17.094,-10.646 7.628,0.941 4.157,-3.662 1.291,6.383 3.076,-6.248 -4.549,-9.531 8.157,-3.072 -2.565,-7.578 3.646,-12.086 8.18,-2.295 2.824,-3.307 3.638,2.041 1.306,-5.658 5.238,-4.732 9.69,2.01 3.771,5.572 4.77,-0.559 8.049,1.346 21.803,41.43 2.492,23.115 -8.88,11.662 1.774,9.645 7.74,15.785 13.716,13.525 -6.365,13.732 -45.818,20.475 -0.843,-0.156 0,0 0,0 z" />
      <path
         style="stroke:#ffffff;stroke-width:3;stroke-miterlimit:10"
         id="0434"
         inkscape:label="Engerdal"
         inkscape:connector-curvature="0"
         stroke-miterlimit="10"
         d="m 804.248,2166.228 -6.79,-6.877 -7.478,-15.059 -1.816,-9.553 7.814,-9.465 1.214,-2.693 -2.612,-22.6 -19.795,-39.805 14.209,-2.283 2.718,-5.299 8.19,1.791 4.705,6.295 1.407,-0.355 1.174,-1.811 -1.778,-25.498 -4.874,-8.148 5.313,-8.943 -0.776,-1.359 -0.329,-1.359 19.189,3.936 8.106,7.379 11.347,-4.344 4.984,12.561 -9.664,110.291 13.294,15.438 -27.07,8.352 -9.323,-18.742 -4.568,25.027 -6.791,-6.877 0,0 0,0 0,0 z" />
      <path
         style="stroke:#ffffff;stroke-width:3;stroke-miterlimit:10"
         id="0436"
         inkscape:label="Tolga"
         inkscape:connector-curvature="0"
         stroke-miterlimit="10"
         d="m 772.269,2057.765 -1.855,-1.91 -11.063,0.977 -3.631,-5.365 -9.661,-1.912 -1.312,-2.17 -8.084,3.018 -1.936,-2.742 -6.607,-0.775 -1.243,-1.027 -4.997,-24.744 -1.569,-0.34 -6.173,1.221 -2.183,1.217 -0.327,-0.912 -17.803,-12.037 -2.502,-0.824 -1.704,-4.912 -15.669,-14.17 4.854,-6.791 12.234,-2.688 5.036,-9.629 18.043,14.449 6.029,9.484 0.738,-0.871 3.29,-1.729 0.276,1.195 3.693,4.705 h 4.668 l 0.996,5.584 5.755,2.352 2.301,-2.6 h 7.575 l 4.169,3.223 3.296,16.307 16.364,8.521 4.074,9.463 13.711,11.076 -2.312,5.08 -13.903,2.08 -2.569,-1.807 0,0 v 0 l 10e-4,0 0,0 z" />
      <path
         style="stroke:#ffffff;stroke-width:3;stroke-miterlimit:10"
         id="0437"
         inkscape:label="Tynset"
         inkscape:connector-curvature="0"
         stroke-miterlimit="10"
         d="m 708.356,2077.841 -6.671,-8.303 -3.931,-12.771 1.728,-5.699 -0.577,-0.932 -0.579,-2.018 -10e-4,-1.084 -16.911,0.203 -8.792,-8.992 -3.205,2.768 -7.349,-5.633 -0.742,-1.48 -10.421,-6.424 0.803,-10.9 -6.912,-2.57 -0.088,-1.307 -0.999,-1.17 -4.956,0.469 -9.555,-31.469 12.39,-26.344 16.911,-1.832 25.352,5.672 7.095,-2.078 6.726,5.518 1.208,5.645 -8.645,13.398 -11.528,2.486 -5.487,7.482 15.494,13.904 2.333,5.439 19.984,11.91 0.448,2.324 6.975,-2.92 2.573,0.311 5.426,24.418 1.339,1.381 6.762,1.051 2.526,2.82 7.511,-3.174 0.956,1.791 -5.225,4.812 -0.966,5.416 -3.746,-2.174 -2.976,3.561 -8.186,2.25 -3.799,12.486 2.3,7.566 -7.637,2.502 -6.956,-8.309 0,0 v 0 l 0,0 0,0 z" />
      <path
         style="stroke:#ffffff;stroke-width:3;stroke-miterlimit:10"
         id="0438"
         inkscape:label="Alvdal"
         inkscape:connector-curvature="0"
         stroke-miterlimit="10"
         d="m 652.36,2106.128 -7.166,-3.254 -2.95,-4.668 3.646,-13.879 20.373,-32.688 -4.821,-9.479 0.602,-5.564 7.468,5.055 3.174,-2.762 8.254,8.727 16.986,0.041 v 0.912 l 0.52,1.754 -1.146,6.467 3.965,13.018 18.327,26.486 -2.533,5.242 -1.046,-6.174 -4.527,3.98 -6.757,-0.945 -17.944,10.318 -3.562,-9.973 -19.414,2.738 -4.14,7.785 -7.309,-3.137 0,0 0,0 0,0 z" />
      <path
         style="stroke:#ffffff;stroke-width:3;stroke-miterlimit:10"
         id="0439"
         inkscape:label="Folldal"
         inkscape:connector-curvature="0"
         stroke-miterlimit="10"
         d="m 623.27,2114.042 -7.247,-1.652 2.14,-8.955 -3.062,-12.699 4.647,-5.834 3.379,-0.936 -1.28,-4.07 -14.684,-11.467 -10.886,-3.209 -6.198,-8.936 5.809,-2.775 19.054,-27.191 -2.709,-2.195 1.614,-3.102 5.587,3.096 1.062,-0.73 3.246,-5.795 0.92,-4.096 12.928,-5.93 1.241,4.801 5.391,-0.396 0.175,2.373 6.884,2.523 -0.877,10.859 10.553,6.496 0.706,1.049 -0.646,7.188 4.672,9.172 -20.223,32.471 -3.737,14.213 2.794,4.387 -1.008,0.088 -2.969,4.303 -6.449,3.961 -2.876,-0.221 -0.278,4.807 -7.672,-1.594 0,0 v 0 l -10e-4,0 0,0 z" />
      <path
         style="stroke:#ffffff;stroke-width:3;stroke-miterlimit:10"
         id="0441"
         inkscape:label="Os (Hedmark)"
         inkscape:connector-curvature="0"
         stroke-miterlimit="10"
         d="m 802.617,2057.138 -2.334,-3.166 -3.229,-0.672 -19.289,-12.223 -4.135,-9.578 -16.348,-8.506 -3.267,-16.117 -4.539,-3.617 h -7.707 l -2.331,2.607 -5.261,-2.572 -0.451,-2.283 -2.811,-2.811 h -2.2 l -3.839,-4.994 -0.378,-1.188 -3.752,1.617 -0.6,0.688 -5.691,-9.043 -9.061,-7.221 -7.028,-9.537 1.044,-1.158 -1.31,-5.971 4.547,-7.018 12.619,-3.646 20.294,7.949 1.632,1.447 3.984,14.072 3.666,1.658 1.994,6.748 8.001,3.654 21.884,27.93 10.867,-1.846 1.973,5.949 3.194,0.166 5.051,-6.664 5.723,1.053 1.57,3.061 -5.139,9.004 5.013,8.273 1.892,25.836 -1.77,1.279 -2.479,-3.164 0,0 v 0 l 10e-4,0 0,0 z" />
    </g>
  </g>
</svg>
