<?xml version="1.0" encoding="UTF-8" standalone="no"?>
<!-- Created with Inkscape (http://www.inkscape.org/) -->

<svg
   xmlns:dc="http://purl.org/dc/elements/1.1/"
   xmlns:cc="http://creativecommons.org/ns#"
   xmlns:rdf="http://www.w3.org/1999/02/22-rdf-syntax-ns#"
   xmlns:svg="http://www.w3.org/2000/svg"
   xmlns="http://www.w3.org/2000/svg"
   xmlns:sodipodi="http://sodipodi.sourceforge.net/DTD/sodipodi-0.dtd"
   xmlns:inkscape="http://www.inkscape.org/namespaces/inkscape"
   width="450"
   height="340"
   id="svg3933"
   version="1.1"
   inkscape:version="0.48.4 r9939"
   sodipodi:docname="05_small.svg">
  <defs
     id="defs3935" />
  <sodipodi:namedview
     id="base"
     pagecolor="#ffffff"
     bordercolor="#666666"
     borderopacity="1.0"
     inkscape:pageopacity="0.0"
     inkscape:pageshadow="2"
     inkscape:zoom="0.35"
     inkscape:cx="-99.285714"
     inkscape:cy="520"
     inkscape:document-units="px"
     inkscape:current-layer="layer1"
     showgrid="false"
     inkscape:window-width="1271"
     inkscape:window-height="794"
     inkscape:window-x="146"
     inkscape:window-y="63"
     inkscape:window-maximized="0" />
  <metadata
     id="metadata3938">
    <rdf:RDF>
      <cc:Work
         rdf:about="">
        <dc:format>image/svg+xml</dc:format>
        <dc:type
           rdf:resource="http://purl.org/dc/dcmitype/StillImage" />
        <dc:title></dc:title>
      </cc:Work>
    </rdf:RDF>
  </metadata>
  <g
     inkscape:label="Layer 1"
     inkscape:groupmode="layer"
     id="layer1"
     transform="translate(0,-712.36218)">
    <g
       transform="matrix(0.95,0,0,0.95,-281.39568,-1440.2113)"
       id="06"
       inkscape:label="Buskerud">
      <path
         style="stroke:#ffffff;stroke-width:3;stroke-miterlimit:10"
         id="0602"
         inkscape:label="Drammen"
         inkscape:connector-curvature="0"
         stroke-miterlimit="10"
         d="m 639.926,2565.964 -1.484,-2.369 6.628,-7.525 0.236,-5.598 4.647,-3.395 -0.527,-0.953 -1.044,-0.893 -1.057,-11.471 14.188,13.932 -2.155,0.453 0.33,0.555 4.551,1.951 4.096,4.908 1.631,1.082 -1.327,5.492 -4.407,-0.719 -3.095,1.422 -11.778,-0.836 -2.861,6.133 -5.092,0.197 -1.483,-2.369 0.003,0 0,0 0,0 z" />
      <path
         style="stroke:#ffffff;stroke-width:3;stroke-miterlimit:10"
         id="0604"
         inkscape:label="Kongsberg"
         inkscape:connector-curvature="0"
         stroke-miterlimit="10"
         d="m 600.735,2613.861 -9.601,-14.002 -7.82,0.67 4.013,-10.828 -4.772,-4.855 -6.767,-24.916 -7.356,-1.453 3.412,-17.285 7.038,4.832 2.466,3.885 12.013,0.072 3.513,3.312 3.531,-2.348 1.904,6.439 13.645,9.773 3.341,1.234 24.478,33.596 -4.955,2.951 -6.794,-1.822 -2.387,2.588 -11.116,-2.275 -5.979,2.396 1.763,9.035 -11.715,0.77 -1.853,-1.768 0,0 v 0 l -0.002,0 0,0 z" />
      <path
         style="stroke:#ffffff;stroke-width:3;stroke-miterlimit:10"
         id="0605"
         inkscape:label="Ringerike"
         inkscape:connector-curvature="0"
         stroke-miterlimit="10"
         d="m 685.884,2489.742 -1.707,-6.154 -6.479,0.168 -6.658,-3.594 0.599,-4.227 -5.142,-5.957 -14.775,6.246 -5.195,12.057 -5.45,-0.047 -4.175,-1.742 -5.136,-7.111 0.384,-15.566 -8.691,-0.602 -0.619,-3.324 -6.19,-4.57 -2.801,0.109 -4.496,-9.385 2.282,-4.441 -5.85,-4.697 v -3.148 l 4.104,-1.195 6.217,-5.365 0.84,-4.014 -0.1,-0.389 -5.075,3.721 -1.091,-0.904 -0.688,-1.273 7.55,-6.189 -1.857,-5.805 2.709,-5.35 -2.478,-14.223 2.776,-13.051 1.021,1.936 10.564,-8.357 -3.782,-3.451 10.628,-1.389 9.571,19.455 3.495,2.658 4.919,26.354 12.549,25.518 -1.151,2.535 5.578,6.818 1.832,-1.061 13.879,9.869 5.221,1.242 4.091,6.195 -2.849,3.104 2.824,7.812 -10.659,12.064 -0.54,-1.281 0,0 10e-4,0 0,0 0,0 z" />
      <path
         style="stroke:#ffffff;stroke-width:3;stroke-miterlimit:10"
         id="0612"
         inkscape:label="Hole"
         inkscape:connector-curvature="0"
         stroke-miterlimit="10"
         d="m 671.146,2502.966 -16.082,-12.867 -7.22,-2.83 4.358,-10.701 14.315,-5.926 4.418,5.172 -0.347,4.576 6.857,3.756 6.345,-0.254 1.116,4.492 -3.987,0.33 -1.236,7.133 -7.412,7.639 -1.125,-0.52 0,0 0,0 0,0 z" />
      <path
         style="stroke:#ffffff;stroke-width:3;stroke-miterlimit:10"
         id="0615"
         inkscape:label="Fl√•"
         inkscape:connector-curvature="0"
         stroke-miterlimit="10"
         d="m 575.411,2433.001 -4.606,-3.717 -21.78,-5.715 -4.895,-5.57 13.838,-7.865 11.162,-26.871 5.747,-1.59 0.884,4.672 6.508,3.916 13.146,-0.531 -0.274,5.967 22.453,8.887 0.345,2.385 -2.751,5.246 2.024,5.648 -8.056,6.779 2.395,2.205 4.729,-3.094 -1.258,6.473 -34.442,6.506 -5.169,-3.731 0,0 0,0 0,0 z" />
      <path
         style="stroke:#ffffff;stroke-width:3;stroke-miterlimit:10"
         id="0616"
         inkscape:label="Nes (Buskerud)"
         inkscape:connector-curvature="0"
         stroke-miterlimit="10"
         d="m 539.612,2413.787 -3.875,-3.727 -33.864,-16.791 5.181,-8.961 -2.705,-2.754 8.686,-4.199 7.002,-11.809 8.951,-3.559 7.792,0.236 3.008,6.785 1.238,-0.133 6.466,-5.26 2.327,0.932 15.957,-8.262 4.266,11.609 7.211,7.861 -2.363,5.469 -6.072,1.75 -11.182,26.861 -13.85,7.604 -4.174,-3.652 0,0 0,0 0,0 z" />
      <path
         style="stroke:#ffffff;stroke-width:3;stroke-miterlimit:10"
         id="0617"
         inkscape:label="Gol"
         inkscape:connector-curvature="0"
         stroke-miterlimit="10"
         d="m 511.93,2355.363 -6.228,-13.361 10.884,-20.783 8.576,1.289 34.348,19.562 7.137,7.342 -0.94,6.182 -15.726,8.477 -2.66,-0.934 -6.438,5.357 -0.859,-0.07 -3.576,-6.627 -7.925,-0.129 -8.761,3.508 -1.604,3.547 -6.228,-13.361 0,0 v 10e-4 l 0,0 0,0 z" />
      <path
         style="stroke:#ffffff;stroke-width:3;stroke-miterlimit:10"
         id="0618"
         inkscape:label="Hemsedal"
         inkscape:connector-curvature="0"
         stroke-miterlimit="10"
         d="m 498.367,2341.486 -10.043,-7.32 -7.714,3.938 -0.228,-6.16 -5.124,-3.916 -7.576,-0.285 -0.126,-6.312 -28.71,-5.463 10.815,-16.977 6.789,2.396 0.035,-7.482 3.679,-0.301 2.051,-5.846 -6.245,-3.9 9.291,-6.852 5.734,8.695 23.551,13.012 1.263,5.902 19.224,10.668 7.511,0.775 2.203,5.852 -8.451,-0.908 -10.904,20.693 -7.027,-0.209 h 0.002 l 0,0 z" />
      <path
         style="stroke:#ffffff;stroke-width:3;stroke-miterlimit:10"
         id="0619"
         inkscape:label="√Öl"
         inkscape:connector-curvature="0"
         stroke-miterlimit="10"
         d="m 469.769,2398.591 -1.841,-2.705 0.96,-7.613 4.267,-1.145 -0.981,-3.92 1.8,-3.117 1.395,-6.211 -0.382,-2.074 -7.2,-6.34 -8.148,-3.623 -0.386,-5.879 -8.817,-1.379 -0.026,-3.104 h -4.984 l -5.089,-8.504 -6.342,-1.891 1.279,-4.006 -7.787,-4.264 -2.367,-6.24 -2.108,1.611 -10.972,-6.875 2.459,-5.82 7.531,-5.279 5.483,5.385 39.313,6.119 0.513,6.398 7.658,0.223 4.99,3.855 0.399,6.404 7.913,-4.143 9.435,7.436 7.65,0.363 12.4,26.738 -5.126,8.119 -8.981,4.432 2.95,2.826 -5.745,8.988 -28.924,7.945 -2.189,-2.71 0,0 0,0 0,0 z" />
      <path
         style="stroke:#ffffff;stroke-width:3;stroke-miterlimit:10"
         id="0620"
         inkscape:label="Hol"
         inkscape:connector-curvature="0"
         stroke-miterlimit="10"
         d="m 445.06,2425.23 -1.434,-2.436 -5.767,3.576 -0.123,-6.641 -11.073,-3.539 -15.479,4.57 -10.112,-5.016 4.831,-25.295 -9.1,-7.979 -0.12,-14.693 -9.139,-5.146 -10.074,-0.643 17.354,-16.172 9.17,0.971 2.468,-4.291 -2.23,-6.957 7.962,-13.654 10.792,6.695 1.99,-1.414 2.28,5.861 7.506,4.152 -1.259,4.199 6.605,1.953 5.021,8.48 4.768,-0.068 0.394,3.143 8.565,1.365 0.589,5.834 8.051,3.678 7.162,6.375 0.808,4.799 -3.739,6.254 0.901,3.719 -3.97,1.154 -1.136,7.922 4.226,5.762 13.187,-1.695 2.524,0.703 7.895,6.824 -3.443,2.471 -1.368,5.15 -43.85,12.453 -1.633,-2.428 v 0 l 0,0 0,0 z" />
      <path
         style="stroke:#ffffff;stroke-width:3;stroke-miterlimit:10"
         id="0621"
         inkscape:label="Sigdal"
         inkscape:connector-curvature="0"
         stroke-miterlimit="10"
         d="m 607.116,2515.541 -3.339,-2.186 -8.961,-10.855 -4.071,0.156 -10.087,-4.662 -12.062,-18.166 -6.39,-1.395 -10.637,-23.77 -0.295,-15.016 -3.221,-4.162 1.021,-11.385 21.492,5.537 9.442,7.531 4.583,12.732 -0.873,13.605 27.233,18.467 10.562,19.969 -2.713,3.23 -6.31,-1.26 -0.789,0.594 -2.181,2.922 -2.521,1.988 1.889,6.537 -1.772,-0.412 0,0 v 0 l 0,0 0,0 z" />
      <path
         style="stroke:#ffffff;stroke-width:3;stroke-miterlimit:10"
         id="0622"
         inkscape:label="Kr√∏dsherad"
         inkscape:connector-curvature="0"
         stroke-miterlimit="10"
         d="m 600.811,2474.33 -16.756,-11.061 1.05,-14.223 -4.466,-11.766 24.608,-3.412 0.331,3.441 5.435,4.115 -2.103,4.584 3.799,8.807 9.891,5.393 0.532,10.664 -11.878,10.602 -10.443,-7.144 0,0 0,0 0,0 z" />
      <path
         style="stroke:#ffffff;stroke-width:3;stroke-miterlimit:10"
         id="0623"
         inkscape:label="Modum"
         inkscape:connector-curvature="0"
         stroke-miterlimit="10"
         d="m 617.707,2520.96 -8.018,-4.461 -2.254,-6.977 5.287,-5.174 6.335,1.26 0.822,-0.621 2.134,-2.994 -10.381,-20.039 12.201,-11.123 -0.301,-6.977 8.188,0.293 -0.326,16.227 5.556,6.791 8.286,2.672 2.197,-1.695 7.443,2.316 10.804,9.98 -18.749,7.061 2.282,8.242 -5.732,7.193 -15.418,-2.59 -2.501,1.422 0.102,3.412 -7.957,-4.218 0,0 0,0 z" />
      <path
         style="stroke:#ffffff;stroke-width:3;stroke-miterlimit:10"
         id="0624"
         inkscape:label="√òvre Eiker"
         inkscape:connector-curvature="0"
         stroke-miterlimit="10"
         d="m 624.227,2574.066 -4.678,-5.826 -8.715,-3.342 -8.246,-7.783 -1.779,-6.465 7.704,-2.465 -1.549,-22.932 -3.978,-8.529 2.863,0.086 0.148,-1.209 20.204,10.18 -0.221,-3.693 2.224,-1.361 15.178,3.266 -6.109,6.281 -6.312,14.225 5.899,19 -2.017,9.758 -6.083,6.445 -4.534,-5.637 0,0 10e-4,10e-4 0,0 0,0 z" />
      <path
         style="stroke:#ffffff;stroke-width:3;stroke-miterlimit:10"
         id="0625"
         inkscape:label="Nedre Eiker"
         inkscape:connector-curvature="0"
         stroke-miterlimit="10"
         d="m 637.104,2563.267 -4.616,-16.867 -1.155,-1.965 6.229,-13.961 6.111,-5.705 5.532,21.635 0.37,0.43 -4.577,3.371 -0.207,5.674 -7.126,7.559 -0.554,-0.17 h -0.007 l 0,0 0,0 z" />
      <path
         style="stroke:#ffffff;stroke-width:3;stroke-miterlimit:10"
         id="0626"
         inkscape:label="Lier"
         inkscape:connector-curvature="0"
         stroke-miterlimit="10"
         d="m 668.143,2548.041 -1.205,-2.5 -0.497,0.461 -3.663,0.74 -0.719,0.668 -15.217,-15.012 -3.223,-8.9 6.039,-7.648 -2.436,-8.035 19.025,-6.975 5.92,3.156 1.571,11.953 -0.917,3.162 -1.112,1.707 -1.098,0.824 2.433,8.75 -3.698,20.148 -1.203,-2.499 0,0 0,0 0,0 z" />
      <path
         style="stroke:#ffffff;stroke-width:3;stroke-miterlimit:10"
         id="0627"
         inkscape:label="R√∏yken"
         inkscape:connector-curvature="0"
         stroke-miterlimit="10"
         d="m 682.783,2560.146 -0.067,-0.43 -0.82,-0.186 -2.683,-1.707 -2.785,-4.525 -3.78,-0.104 -2.997,-1.871 1.763,-12.264 4.631,-0.449 3.819,1.262 0.876,1.734 8.782,-2.631 0.522,6.127 0.438,-0.191 0.365,-1.531 0.17,4.844 0.391,0.705 1.287,9.842 -9.598,1.488 -0.31,-0.119 0,0 -0.004,0.01 0,0 0,0 z m 10.972,-4.043 -0.341,-0.85 0.131,-1.156 0.302,1.172 -0.092,0.834 0,0 0,0 0,0 z" />
      <path
         style="stroke:#ffffff;stroke-width:3;stroke-miterlimit:10"
         id="0628"
         inkscape:label="Hurum"
         inkscape:connector-curvature="0"
         stroke-miterlimit="10"
         d="m 685.497,2592.558 -0.501,-0.396 -1.341,0.4 -1.491,-0.57 -1.27,-2.75 2.896,-11.367 -1.18,-4.322 -0.663,-0.311 0.949,-0.949 0.916,-0.488 -0.701,-5.424 0.648,-4.221 -0.474,-0.414 -0.438,-0.771 0.036,-0.357 8.912,-1.533 1.658,0.238 0.5,-0.078 0.253,-0.25 3.226,2.16 0.122,0.664 0.644,0.941 0.718,-0.391 1.493,0.883 1.751,18.609 -4.334,5.574 -6.268,4.461 -0.256,0.668 -0.7,-1.348 -1.114,1.135 -0.193,-0.291 -1.276,-0.117 -1.644,0.936 -0.878,-0.321 0,0 0,0 z" />
      <path
         style="stroke:#ffffff;stroke-width:3;stroke-miterlimit:10"
         id="0631"
         inkscape:label="Flesberg"
         inkscape:connector-curvature="0"
         stroke-miterlimit="10"
         d="m 595.309,2551.324 -1.553,-1.541 h -12.162 l -5.851,-6.469 -22.526,-11.738 -0.367,-10.678 20.194,-7.992 8.73,-13.691 8.37,3.662 4.479,0.082 10.935,12.889 -3.15,0.512 4.272,9.189 1.601,22.393 -11.179,4.797 -1.794,-1.4 0,0 10e-4,-0.015 0,0 0,0 z" />
      <path
         style="stroke:#ffffff;stroke-width:3;stroke-miterlimit:10"
         id="0632"
         inkscape:label="Rollag"
         inkscape:connector-curvature="0"
         stroke-miterlimit="10"
         d="m 552.97,2520.111 -0.619,-9.113 -16.808,-11.02 -2.473,0.545 0.627,-4.799 -2.623,-14.604 11.904,0.791 3.642,-8.557 9.322,-6.965 6.009,12.305 6.39,1.479 12.886,19.174 -8.446,13.223 -19.811,7.541 0,0 0,0 0,0 z" />
      <path
         style="stroke:#ffffff;stroke-width:3;stroke-miterlimit:10"
         id="0633"
         inkscape:label="Nore og Uvdal"
         inkscape:connector-curvature="0"
         stroke-miterlimit="10"
         d="m 536.246,2481.152 -5.342,-0.449 -1.164,-3.084 -24.379,-17.82 -56.715,-1.121 0.937,2.105 -7.128,-1.49 -30.174,15.754 -17.053,-5.285 -15.093,4.984 9.372,-14.924 3.041,-13.623 6.646,-10.049 1.896,-19.814 9.901,4.877 15.539,-4.502 10.702,3.271 0.414,6.977 5.952,-3.758 2.896,4.865 44.307,-12.521 1.028,-4.898 3.957,-3.064 -8.198,-7.268 -5.628,-1.52 19.353,-5.082 34.165,16.656 13.153,13.424 0.695,14.031 1.549,1.969 0.302,14.961 4.476,11.121 -9.395,7.232 -4.105,8.52 -5.907,-0.475 0,0 0,0 z" />
    </g>
  </g>
</svg>
