<?xml version="1.0" encoding="UTF-8" standalone="no"?>
<!-- Created with Inkscape (http://www.inkscape.org/) -->

<svg
   xmlns:dc="http://purl.org/dc/elements/1.1/"
   xmlns:cc="http://creativecommons.org/ns#"
   xmlns:rdf="http://www.w3.org/1999/02/22-rdf-syntax-ns#"
   xmlns:svg="http://www.w3.org/2000/svg"
   xmlns="http://www.w3.org/2000/svg"
   xmlns:sodipodi="http://sodipodi.sourceforge.net/DTD/sodipodi-0.dtd"
   xmlns:inkscape="http://www.inkscape.org/namespaces/inkscape"
   width="450"
   height="340"
   id="svg3933"
   version="1.1"
   inkscape:version="0.48.4 r9939"
   sodipodi:docname="19_small.svg">
  <defs
     id="defs3935" />
  <sodipodi:namedview
     id="base"
     pagecolor="#ffffff"
     bordercolor="#666666"
     borderopacity="1.0"
     inkscape:pageopacity="0.0"
     inkscape:pageshadow="2"
     inkscape:zoom="0.35"
     inkscape:cx="-99.285714"
     inkscape:cy="520"
     inkscape:document-units="px"
     inkscape:current-layer="layer1"
     showgrid="false"
     inkscape:window-width="1271"
     inkscape:window-height="794"
     inkscape:window-x="146"
     inkscape:window-y="63"
     inkscape:window-maximized="0" />
  <metadata
     id="metadata3938">
    <rdf:RDF>
      <cc:Work
         rdf:about="">
        <dc:format>image/svg+xml</dc:format>
        <dc:type
           rdf:resource="http://purl.org/dc/dcmitype/StillImage" />
        <dc:title></dc:title>
      </cc:Work>
    </rdf:RDF>
  </metadata>
  <g
     inkscape:label="Layer 1"
     inkscape:groupmode="layer"
     id="layer1"
     transform="translate(0,-712.36218)">
    <g
       transform="matrix(0.36170508,0,0,0.36170508,-131.67491,507.9553)"
       id="18"
       inkscape:label="Nordland">
      <path
         style="stroke:#ffffff;stroke-width:3;stroke-miterlimit:10"
         id="1804"
         inkscape:label="Bod√∏"
         inkscape:connector-curvature="0"
         stroke-miterlimit="10"
         d="m 982.12,972.752 -2.832,0.063 -0.535,1.051 -1.229,-3.489 -0.9,0.116 1.54,-2.57 2.255,-1.588 0.356,-1.19 15.333,-16.111 11.668,-6.578 6.215,4.65 1.341,2.233 0.103,1.236 -1.605,1.033 -4.613,-0.792 -5.071,-4.652 -1.333,1.336 -0.271,1.532 0.482,1.078 0.601,0.591 1.252,-1.181 1.073,2.297 2.436,2.278 0.46,2.585 -3.199,4.006 -4.351,2.562 -0.821,1.606 3.93,-0.164 11.001,-9.809 1.164,0.917 -0.141,1.826 -7.51,6.914 0.893,5.487 -1.182,-0.093 -9.994,2.528 -4.634,-1.236 -4.805,0.926 -4.017,1.961 -3.06,-1.359 0,0 0,0 0,0 z m 32.042,97.324 -7.627,-14.329 -14.892,-9.299 -1.686,1.59 -4.972,-8.84 -8.861,5.739 -13.675,-6.135 -1.374,-3.679 -1.852,0.165 -1.853,-0.702 13.042,-10.113 -9.974,4.365 -0.979,-2.151 0.832,-2.546 8.498,-5.008 7.698,-1.321 1.251,1.113 0.257,1.374 -5.033,2.682 13.654,-1.25 6.239,-5.044 3.823,-0.576 0.459,1.366 0.824,0.866 2.138,-0.337 6.724,-4.719 0.729,0.676 0.178,2.69 -2.006,1.408 -3.688,12.205 3.537,2.254 4.199,6.572 2.01,-2.292 -4.006,-5.673 -1.901,-0.543 -0.997,-1.645 7.337,-12.431 1.495,-1.207 3.624,-0.197 1.716,0.362 4.489,3.309 3.112,-1.636 0.709,-0.75 6.91,4.777 2.625,0.627 -2.207,5.262 -4.157,3.915 -3.029,12.362 -0.881,1.31 0.809,14.203 -6.49,13.867 -2.949,3.469 -3.829,-6.105 0,0 0,0 0,0 z m -58.82,-54.561 -0.375,-1.105 0.845,-1.104 3.549,-2.661 2.195,-5.722 2.915,-1.732 12.294,-16.002 -1.535,-2.721 -2.583,-0.435 3.284,-1.112 1.025,-5.818 9.796,-0.383 2.758,-1.18 h 2.736 l 2.086,0.783 0.58,0.549 -3.174,9.529 3.5,0.868 v -2.048 l 1.892,-4.826 5.783,-5.687 7.198,-3.936 2.03,6.054 6.798,2.198 0.773,5.923 -9.519,8.041 1.913,4.663 -0.894,0.307 -2.902,3.031 -0.98,1.79 1.511,0.626 1.034,0.051 -17.627,3.423 4.736,0.132 -0.02,1.424 -5.947,4.927 -4.85,0.194 -0.134,-4.986 -1.497,-3.017 -29.219,10.859 0.024,-0.895 0,0 10e-4,0 0,0 0,0 z m -31.856,-31.159 -0.225,-0.788 0.132,-0.466 1.843,-0.752 0.444,1.437 -0.866,0.63 -1.328,-0.061 0,0 0,0 0,0 z m -6.974,5.612 3.23,-4.286 -1.87,3.479 -1.36,0.807 0,0 0,0 0,0 z m 1.161,2.597 0.259,-1.274 3.07,-3.183 -2.024,3.622 -1.305,0.835 0,0 0,0 z m 34.885,18.31 -0.271,-0.774 4.129,-3.886 -1.761,2.934 -2.097,1.726 0,0 0,0 0,0 z m 27.237,8.468 -0.731,-1.449 v -0.784 l 0.622,0.316 5.589,-0.209 1.062,1.714 -1.615,0.715 -2.846,0.242 -2.081,-0.545 0,0 0,0 0,0 z m -54.283,-1.669 -1.63,0.053 0.641,-2.5 2.97,-3.479 3.869,0.96 -5.85,4.966 0,0 0,0 0,0 z m 43.528,-24.955 0.43,-1.311 1.396,-1.629 0.919,0.566 -2.425,2.568 -0.32,-0.194 0,0 0,0 0,0 z m -23.859,0.088 -0.115,-1.517 1.735,-1.265 1.346,-1.962 0.818,-2.329 7.635,-7.981 1.721,2.284 -0.812,2.303 0.368,0.474 1.94,-1.05 0.249,0.345 -2.76,6.211 -5.037,1.625 -2.83,2.301 -3.501,1.002 -0.757,-0.441 0,0 0,0 z m 35.277,-46.865 1.056,-1.291 1.622,-0.83 -1.915,1.912 -0.763,0.209 0,0 0,0 z m -4.41,7.175 0.446,-0.285 2.293,-0.426 -2.996,-1.014 3.156,-0.265 0.588,0.976 -1.108,0.784 -2.379,0.23 0,0 0,0 z" />
      <path
         style="stroke:#ffffff;stroke-width:3;stroke-miterlimit:10"
         id="1805"
         inkscape:label="Narvik"
         inkscape:connector-curvature="0"
         stroke-miterlimit="10"
         d="m 1211.385,838.322 -45.396,-20.209 -5.234,-7.873 0.441,-1.443 -4.487,-8.349 2.071,-9.139 -7.803,-11.525 -6.608,-4.062 -2.016,-9.206 1.588,-0.138 4.573,-2.057 4.156,1.996 2.232,2.688 0.516,1.405 0.496,6.02 3.284,5.045 4.671,2.376 1.183,1.814 -0.616,9.261 1.273,2.394 0.476,2.415 -0.249,2.011 3.294,-1.93 -1.751,-6.418 0.592,-4.679 2.375,1.273 0.211,-0.654 v -2.183 l -4.47,-5.62 -5.552,-4.092 -0.998,-1.447 0.066,-1.817 -3.864,-9.979 3.37,-6.444 1.697,-1.594 2.959,-0.201 6.582,4.436 9.482,2.953 1.863,-1.214 -11.534,-4.11 -5.288,-4.385 -0.582,-1.092 2.988,-2.354 5.288,-1.564 16.346,1.052 8.102,4.897 7.354,-3.37 -8.106,0.333 -11.862,-8.024 -9.228,0.104 -0.574,0.626 -1.915,0.971 -0.536,-3.598 2.823,-6.299 -0.123,-5.335 -2.054,-1.005 -14.753,15.109 -0.918,-0.861 -2.89,-0.072 -1.177,0.79 0.218,-9.59 4.247,-5.913 14.56,-9.013 34.592,-7.132 9.84,13.624 12.204,67.025 -12.169,47.998 -5.258,-2.625 0,0 0,-10e-4 0,0 0,0 z" />
      <path
         style="stroke:#ffffff;stroke-width:3;stroke-miterlimit:10"
         id="1811"
         inkscape:label="Bindal"
         inkscape:connector-curvature="0"
         stroke-miterlimit="10"
         d="m 846.659,1487.004 -2.7,-4.295 -5.788,2.108 -10.271,-2.171 -9.674,6.624 -7.506,-2.945 -0.289,-3.646 -3.987,-4.522 -1.061,0.813 -0.662,2.776 -3.64,0.388 -2.988,-2.989 -0.684,-9.894 -7.962,-1.958 -5.914,1.508 5.688,-8.746 -1.291,-6.634 5.141,-4.348 2.074,2.844 0.183,0.812 -1.435,9.611 0.543,0.708 1.369,1.036 1.146,2.676 1.09,-0.262 1.216,-9.501 1.273,0.174 1.902,1.673 0.573,-1.118 -1.214,-10.815 1.868,-3.308 6.619,-4.97 1.8,1.1 5.804,10.048 -4.302,9.026 0.117,0.736 4.195,-1.45 3.17,0.088 0.603,1.635 -5.111,6.219 -8.193,4.511 -1.755,-0.059 -1.642,0.906 -4.659,-3.198 -1.428,0.598 2.575,1.574 2.209,2.421 0.764,0.346 3.716,-0.386 6.854,-3.458 -0.021,0.775 3.943,-1.661 1.982,-1.627 0.295,-1.18 2.424,-0.737 2.193,-2.102 2.077,0.773 1.605,1.756 2.762,0.565 1.482,-1.048 1.668,-3.702 -0.674,-1.123 -0.888,-0.421 -3.009,3.711 -2.453,-1.146 0.578,-1.075 11.678,-6.725 1.26,0.218 15.517,-17.39 0.642,-1.304 1.622,1.129 0.024,-1.282 -0.283,-1.09 1.37,-2.646 3.546,-3.573 1.559,-0.098 5.522,6.571 5.353,-3.124 -0.557,-4.678 6.087,1.801 9.41,18.895 -5.499,7.898 -2.233,7.09 -4.763,1.344 -2.448,7.443 -4.546,1.098 3.407,5.784 -1.285,2.938 -13.314,2.686 -0.478,6.46 -4.202,-1.565 -7.121,2.502 -2.571,-4.429 0.003,0 0,0 0,0 z m -13.615,-33.261 -7.161,-1.814 -2.954,-3.101 0.666,-3.084 4.171,-3.211 1.081,0.445 2.852,0.297 3.464,-1.601 -1.016,-0.954 -5.087,-1.712 h -0.56 l 1.238,-2.026 -1.926,-2.592 -0.808,0.021 -5.291,1.669 -0.912,-0.829 0.312,-1.414 5.636,-2.742 0.414,-0.976 -0.89,-0.659 3.195,-0.739 -1.402,-2.016 -0.594,-0.268 -3.981,2.862 -0.799,-0.783 -1.409,-0.017 -2.887,1.365 -3.397,5.874 -0.647,-0.104 -1.001,-1.137 5.919,-7.781 0.171,-3.523 0.421,0.163 8.603,-3.351 5.423,4.44 4.206,-2.421 0.415,-0.69 3.745,6.325 8.84,2.129 2.108,2.614 -2.347,3.031 1.93,2.117 -17.467,16.501 -0.424,0.131 -1.85,-0.439 0,0 0,0 0,0 0,0 z m -13.857,-20.6 1.13,-1.534 1.979,-0.479 0.309,0.057 -0.544,0.581 -2.874,1.375 0,0 0,0 0,0 z m -0.595,6.985 0.347,-2.794 0.547,0.771 0.422,1.304 -0.482,1 -0.691,0.466 -0.143,-0.747 0,0 0,0 0,0 z m 6.152,17.184 -4.533,-3.031 1.293,-1.061 7.348,2.936 1.299,-0.724 1.664,-0.273 -0.75,1.086 -3.947,2.661 -0.394,0.124 -1.98,-1.718 0,0 0,0 z m -3.809,-12.81 -0.693,-1.834 1.266,-1.581 1.655,0.938 -0.063,0.838 -1.388,3.106 -0.777,-1.467 0,0 0,0 z" />
      <path
         style="stroke:#ffffff;stroke-width:3;stroke-miterlimit:10"
         id="1812"
         inkscape:label="S√∏mna"
         inkscape:connector-curvature="0"
         stroke-miterlimit="10"
         d="m 793.656,1441.031 -2.02,-1.744 -1.164,-2.387 1.775,-2.566 1.291,0.786 1.442,3.984 1.148,-0.877 4.318,-6.858 1.68,-6.284 -0.902,-0.157 -0.06,-0.517 1.92,-3.612 -0.518,-0.396 -1.916,-0.032 -2.269,-1.391 1.371,-1.782 2.78,-8.527 1.513,-1.631 2.293,1.332 0.791,2.277 1.13,-0.38 -1.357,-3.181 3.095,-1.497 -0.018,0.799 0.183,0.743 9.039,-14.412 3.709,9.578 5.979,4.299 -0.402,7.371 -1.776,1.566 -0.381,1.645 -1.367,-1.516 3.251,-7.229 -0.397,-0.744 -1.201,-0.155 -1.329,0.756 -7.856,8.051 -2.541,1.118 -0.896,-0.047 -0.339,1.138 -1.07,-0.275 -1.234,-1.434 -0.164,-0.927 -0.796,-0.03 -0.29,2.441 2.508,3.815 1.157,0.989 0.033,1.565 -1.946,3.912 -13.291,11.079 -4.915,1.341 0,0 0.009,0 0,0 z" />
      <path
         style="stroke:#ffffff;stroke-width:3;stroke-miterlimit:10"
         id="1813"
         inkscape:label="Br√∏nn√∏y"
         inkscape:connector-curvature="0"
         stroke-miterlimit="10"
         d="m 852.092,1436.366 -0.829,-0.949 2.342,-2.882 -2.285,-2.996 -8.929,-2.312 -3.955,-6.432 -0.903,1.702 -3.633,1.687 -2.654,-2.285 -2.608,-4.896 0.353,-1.499 0.794,-1.153 -0.483,-0.257 -0.482,-0.104 0.25,-7.701 -5.946,-4.251 -3.906,-9.784 -6.687,9.852 -0.353,-0.146 -5.934,3.52 -1.233,-0.6 -0.68,-1.109 1.093,-3.573 5.577,-6.664 3.551,-1.867 4.176,-5.053 -0.971,-0.62 -0.886,-1.572 -0.104,-1.566 -1.44,1.748 -0.351,-1.904 -2.775,3.652 -0.713,-0.285 0.046,-0.558 -1.099,0.625 -0.413,0.48 -0.124,-1.011 1.723,-3.54 -0.554,-0.391 -1.682,1.572 -1.88,0.759 2.722,-6.676 -0.356,-0.374 0.272,-5.043 -0.516,-0.083 -0.656,-0.605 -0.192,-1.637 3.976,-6.477 1.465,0.594 2.043,8.936 8.819,8.995 2.101,6.722 -0.486,1.735 1.577,4.451 3.945,4.969 2.5,-0.218 -4.62,-6.338 -1.201,-3.285 0.303,-1.293 1.228,-0.236 0.15,0.837 -1.117,1.296 4.786,-0.372 0.118,-0.853 -0.354,-0.243 h 0.437 l 2.553,1.748 1.62,6.993 1.529,0.031 -0.68,-4.732 0.493,-1.535 4.454,2.061 0.269,-0.555 0.37,-3.054 9.815,-4.314 -8.869,1.477 -1.843,1.447 -2.208,-1.21 -0.682,-1.093 4.327,-3.798 -5.74,1.952 -3.705,-6.789 1.113,-1.817 3.645,-0.821 0.333,-0.72 -2.635,-0.314 -1.802,-11.16 -0.85,0.443 -0.203,10.085 -3.78,4.765 -1.763,-0.437 -1.609,-2.177 4.943,-9.859 0.207,-2.613 -0.668,0.572 -6.427,11.481 -0.777,-0.297 -3.726,-4.196 5.513,-3.709 1.012,-6.524 -3.495,-1.623 8.552,-4.04 7.602,5.672 5.106,-0.4 -2.973,4.188 5.681,11.138 26.949,-6.153 0.309,14.955 -6.847,14.251 0.361,0.078 8.181,-1.175 3.28,5.012 -1.477,6.186 4.509,3.708 1.138,7.488 5.254,2.607 -8.049,6.193 -6.78,-1.675 0.421,4.803 -4.839,3.163 -5.559,-6.593 -3.125,0.094 9.62,-13.868 -1.027,-2.157 -1.026,-0.3 -17.486,25.5 -0.864,-0.827 0,0 -0.002,0 0,0 0,0 z m -51.874,-37.371 -0.181,-1.438 0.245,0.045 0.21,0.701 -0.166,0.869 -0.108,-0.177 0,0 0,0 0,0 z m -8.816,-8.065 1.038,-0.886 0.753,0.015 -1.806,1.046 0.018,-0.176 -0.003,10e-4 0,0 0,0 z m 22.061,-3.732 0.969,-1.205 -1.056,1.731 0.087,-0.526 0,0 0,0 0,0 z m -7.012,7.062 0.07,-0.559 1.217,-0.883 h 0.259 l -0.979,1.541 -0.567,-0.099 0,0 0,0 0,0 z m -9.972,-11.339 5.082,-7.521 -4.389,7.624 -0.81,0.382 0.117,-0.485 0,0 0,0 0,0 z m -0.388,5.938 -0.284,-0.816 0.578,-1.794 3.49,-3.999 1.438,-0.838 0.602,-0.161 0.392,0.222 0.294,0.986 -4.565,6.096 -1.945,0.304 0,0 0,0 z m 9.18,2.455 0.617,-1.499 -0.238,-0.25 -0.052,-0.789 1.98,-3.355 0.792,1.649 -0.515,1.08 0.498,0.622 -3.082,2.542 0,0 0,0 0,0 z m -3.913,5.652 -0.032,-1.02 0.589,-1.347 0.214,0.918 -0.771,1.449 0,0 0,0 0,0 z m -3.794,5.947 -0.88,-0.891 0.738,-3.39 -0.161,-1.226 -1.428,2.325 -1.577,1.432 -0.698,-3.699 6.158,-8.891 0.176,0.067 -1.897,5.912 0.262,0.256 3.814,-8.928 0.739,-0.454 0.09,1.75 -4.128,10.729 0.227,0.565 -0.318,4.451 -0.352,0.295 -0.767,-0.305 0,0 h 0.002 l 0,0 z m -6.814,0.477 -0.315,-0.274 0.367,-2.043 0.557,-0.178 0.347,-0.243 1.116,1.081 -0.387,0.091 -0.81,1.584 -0.875,-0.018 0,0 0,0 0,0 0,0 z" />
      <path
         style="stroke:#ffffff;stroke-width:3;stroke-miterlimit:10"
         id="1815"
         inkscape:label="Vega"
         inkscape:connector-curvature="0"
         stroke-miterlimit="10"
         d="m 790.476,1331.671 1.608,-1.808 0.143,0.189 -1.287,1.532 -0.464,0.087 0,0 0,0 0,0 z m -11.507,32.143 -1.362,-1.073 -1.156,-0.143 0.072,-0.567 -1.682,-1.598 -2.341,-0.886 -2.17,0.377 -2.449,-0.68 3.598,-13.433 1.883,-3.214 4.039,-2.314 7.901,-0.922 1.993,0.631 0.626,-1.101 0.833,4.762 1.493,2.331 0.744,-0.402 1.638,-3.004 0.852,0.295 3.147,-0.535 1.094,0.23 -0.844,4.328 -2.701,1.176 -0.366,-0.339 -1.463,0.438 -2.723,-1.035 -1.877,-1.775 -0.649,0.48 0.425,1.568 0.432,0.456 0.918,0.37 0.221,2.724 -0.487,1.929 -6.63,9.863 -3.105,1.523 0.093,-0.459 0,0 0.003,-10e-4 0,0 0,0 z m 20.347,-2.946 -0.314,-0.874 -0.398,-0.257 0.494,-0.502 2.589,-7.66 1.382,1.379 -2.251,7.366 -1.585,1.164 0.083,-0.616 0,0 0,0 0,0 0,0 z m -35.158,-11.731 -0.842,-1.022 0.899,-1.377 2.554,1.391 0.201,0.647 -0.982,0.822 -0.987,0.43 -0.843,-0.891 0,0 0,0 0,0 z m 24.736,-31.5 0.231,-1.043 0.537,-0.621 0.158,0.07 -0.621,1.639 -0.305,-0.045 0,0 0,0 0,0 z m 1.034,2.341 0.668,-2.244 0.092,0.433 -0.318,1.152 -0.442,0.659 0,0 0,0 0,0 z" />
      <path
         style="stroke:#ffffff;stroke-width:3;stroke-miterlimit:10"
         id="1816"
         inkscape:label="Vevelstad"
         inkscape:connector-curvature="0"
         stroke-miterlimit="10"
         d="m 811.696,1349.927 0.468,-1.886 0.039,1.1 -0.283,0.937 -0.224,-0.151 0,0 0,0 0,0 z m 36.562,23.177 -4.365,-9.122 3.074,-4.465 -5.474,0.312 -7.743,-5.771 -9.059,4.439 3.602,1.723 -0.974,6.186 -5.764,3.365 -0.683,-2.266 1.58,-3.461 -1.122,0.084 -0.671,-0.254 -2.363,-9.934 11.131,-22.923 3.842,2.499 4.355,5.845 3.428,1.743 0.493,0.677 -2.428,4.133 0.532,1.623 0.732,-1.118 1.014,0.65 1.083,2.336 4.248,0.032 6.036,2.094 0.967,-0.619 -5.806,-2.354 -3.442,-0.417 -1.299,0.28 -1.141,-3.511 1.808,-3.511 0.11,-1.127 -3.205,-1.582 -1.347,-1.466 v -0.806 l -0.637,-0.078 -0.826,-0.626 -0.202,-1.175 -4.592,-4.375 0.5,-3.201 3.429,-5.531 4.447,0.864 5.262,10.625 13.594,1.142 3.884,4.354 -0.94,2.647 7.288,0.648 5.573,26.827 -26.986,6.168 -0.943,-1.603 0,0 0,0 0,0 z m -33.609,-22.785 -1.271,-1.703 9.47,-13.079 1.882,-1.018 -8.251,15.78 -1.83,0.02 0,0 0,0 0,0 0,0 z" />
      <path
         style="stroke:#ffffff;stroke-width:3;stroke-miterlimit:10"
         id="1818"
         inkscape:label="Her√∏y (Nordland)"
         inkscape:connector-curvature="0"
         stroke-miterlimit="10"
         d="m 791.579,1299.369 0.121,-0.893 0.318,0.084 0.197,0.327 -0.637,1.275 v -0.793 l 10e-4,0 0,0 z m 2.95,-0.336 0.345,-2.114 0.365,0.732 -0.259,0.961 -0.451,0.421 0,0 0,0 0,0 z m 11.599,-6.397 3.652,-1.979 -3.173,2.048 -0.335,0.104 -0.144,-0.173 0,0 0,0 0,0 z m -7.877,5.866 -0.217,-0.904 0.147,-0.678 0.957,1.468 -0.289,0.269 -0.598,-0.155 0,0 0,0 0,0 0,0 z m 3.818,-5.403 0.725,-2.234 5.007,-2.772 -5.629,5.118 -0.103,-0.112 0,0 0,0 0,0 z m 2.307,-4.511 0.217,-0.322 0.173,-0.738 -1.492,0.022 3.005,-5.997 0.845,-0.109 1.015,4.696 -1.438,1.398 -2.323,1.047 0,0 v 0 l -0.002,0 0,0 z m 4.458,-4.004 -0.358,-1.077 0.523,-2.895 2.12,-2.552 4.781,-1.625 -0.253,0.495 -4.517,4.944 1.707,0.4 0.133,0.912 -0.32,-0.623 -0.49,-0.132 -1.089,2.184 -0.876,-0.12 -1.004,1.163 -0.357,-1.074 0,0 0,0 0,0 z m 8.501,-8.274 0.79,-1.347 0.588,0.043 -0.478,0.77 -0.9,0.534 0,0 0,0 0,0 z m -0.45,3.049 -0.646,-0.437 1.014,-0.444 0.836,-0.714 0.406,-0.729 0.019,1.609 -0.756,1.021 -0.873,-0.306 0,0 0,0 0,0 z m -9.985,-3.591 0.309,-0.673 -0.458,-2.23 0.242,-0.892 1.753,0.037 -0.549,2.378 -0.629,1.075 -0.666,0.306 -0.002,-10e-4 0,0 0,0 z m -5.432,7.846 0.742,-1.647 -0.127,-0.886 -1.137,-2.567 1.59,-0.691 1.85,2.439 -0.616,2.219 -2.302,1.133 0,0 0,0 0,0 z m -5.407,-4.632 0.066,-1.059 0.928,-0.303 0.386,0.928 -1.38,0.434 0,0 0,0 z m -12.374,-5.901 2.043,-4.928 0.167,0.526 -0.511,1.112 1.71,-0.072 -3.409,3.365 v 0 l 0,0 0,0 z" />
      <path
         style="stroke:#ffffff;stroke-width:3;stroke-miterlimit:10"
         id="1820"
         inkscape:label="Alstahaug"
         inkscape:connector-curvature="0"
         stroke-miterlimit="10"
         d="m 830.152,1321.774 0.511,-3.969 0.328,-0.665 -0.332,-0.354 -0.14,-1.532 2.067,-3.604 1.394,-1.067 -0.816,5.252 0.603,0.179 0.047,1.058 -0.486,1.77 -0.427,0.345 -0.409,-0.286 -0.899,1.535 -1.437,1.339 h -0.004 l 0,0 0,0 z m -25.817,0.106 0.489,-3 0.146,2.391 -0.239,0.643 -0.396,-0.034 0,0 0,0 0,0 z m 14.391,9.144 1.75,-4.026 -0.093,-0.576 0.22,-1.619 -0.082,-0.447 2.863,-3.658 1.248,-0.272 2.204,-2.702 0.223,-0.113 -0.732,6.063 -2.079,3.18 h -1.491 l -4.031,4.17 0,0 0,0 0,0 0,0 z m -11.645,-17.894 0.04,-1.116 0.372,-1.039 0.328,1.2 -0.148,0.902 -0.592,0.053 0,0 0,0 0,0 z m 6.587,-1.267 -0.219,-0.171 0.914,-4.218 0.514,-0.651 0.17,0.079 -0.681,4.612 -0.261,0.362 -0.219,0.158 -0.218,-0.171 0,0 0,0 0,0 z m 5.567,3.733 -0.465,-0.526 -0.48,-3.512 0.464,-2.263 0.528,-0.525 0.53,0.232 0.273,0.23 -0.672,2.442 0.541,1.376 3.299,-3.296 0.691,-0.366 0.162,0.358 0.502,0.335 0.34,-0.023 0.325,-1.37 1.942,-1.484 0.557,0.427 -0.094,0.49 0.221,1.223 -2.845,3.817 -1.054,0.608 -0.752,-0.652 -0.272,0.127 -2.762,2.83 -0.517,0.047 -0.462,-0.525 0,0 0,0 0,0 z m -6.469,1.49 -0.249,-0.305 0.899,-3.699 0.357,0.046 0.558,0.371 -1.295,3.827 -0.27,-0.24 0,0 0,0 0,0 z m -7.099,-5.322 0.11,-4.606 1.218,-1.188 4.655,-8.557 -1.126,-0.467 0.179,-0.32 -0.072,-0.654 -0.278,-0.157 0.73,-1.996 3.272,-1.287 0.876,0.42 0.474,0.441 -1.074,2.63 -0.831,-0.068 -1.603,2.017 -0.132,1.29 -0.513,1.184 -0.274,-0.323 -1.697,1.683 -0.48,2.37 -0.739,1.137 -0.445,0.323 -0.687,2.55 0.126,0.317 -1.116,1.133 -0.188,2.13 h -0.385 l 0,0 0,0 0,0 0,0 z m 15.105,-3.411 1.253,-2.386 7.21,-6.568 -5.777,0.752 -4.774,2.552 -0.795,-0.129 0.191,-1.156 -0.563,-0.991 -0.405,0.262 0.038,-1.083 1.601,-3.861 0.593,-0.702 3.935,-1.177 -0.464,-4.64 2.654,-5.466 8.927,-9.874 2.371,-0.307 0.132,0.465 -0.372,0.73 5.159,-2.104 -5.953,7.899 0.515,0.122 -0.257,0.465 -0.183,1.029 1.455,-0.612 7.713,-6.561 2.73,0.449 0.713,1.298 -7.955,6.132 1.812,3.253 -17.705,21.665 -0.956,-0.26 -2.843,0.803 0,0 0,10e-4 0,0 0,0 z m -13.283,-9.726 0.796,-1.49 -0.688,-0.968 0.385,-1.511 1.618,-0.484 0.225,0.084 -1.143,1.193 0.783,0.405 -1.767,2.798 -0.209,-0.027 0,0 0,0 0,0 z m 4.694,9.66 1.069,-1.708 0.283,-0.105 -0.933,1.454 -0.42,0.361 v 0 l 10e-4,0 0,0 z" />
      <path
         style="stroke:#ffffff;stroke-width:3;stroke-miterlimit:10"
         id="1822"
         inkscape:label="Leirfjord"
         inkscape:connector-curvature="0"
         stroke-miterlimit="10"
         d="m 860.149,1281.691 2.632,-6.859 -0.111,-6.785 1.471,-2.173 6.172,-4.391 0.137,-0.546 -31.412,10.104 0.754,-0.898 9.869,-4.643 -0.366,-1.061 -5,1.839 0.678,-0.518 -0.591,-0.657 -4.448,-0.118 0.71,-2.157 11.642,-11.051 18.743,-6.964 0.173,2.024 0.66,0.683 1.152,-1.607 -0.25,-0.543 0.281,-1.12 11.394,-6.376 0.787,-3.356 6.388,-5.171 5.135,1.126 7.569,-2.887 0.51,4.422 -4.767,3.742 -6.675,16.604 -6.186,5.354 0.827,7.665 -3.718,0.859 -1.666,9.081 -12.188,3.71 -4.509,-2.237 -5.083,5.237 -0.714,-0.332 0,0 0,0 0,0 z m -18.381,2.838 -0.809,-1.543 7.947,-6.213 -1.53,-2.615 12.398,-5.179 -0.081,0.793 -1.486,3.019 2.617,-0.35 0.004,3.272 -5.9,4.528 -5.399,1.851 -0.136,-0.218 -2.233,0.6 -4.581,3.531 -0.809,-1.477 h -0.002 l 0,10e-4 0,0 z" />
      <path
         style="stroke:#ffffff;stroke-width:3;stroke-miterlimit:10"
         id="1824"
         inkscape:label="Vefsn"
         inkscape:connector-curvature="0"
         stroke-miterlimit="10"
         d="m 876.612,1376.188 -5.726,-34.761 -7.101,-0.729 0.731,-2.513 -4.219,-4.441 -12.897,-1.006 -5.601,-10.745 -4.608,-1.023 0.386,-2.35 0.634,-1.195 1.33,-0.993 2.2,-0.494 4.304,7.336 0.528,-0.723 -2.363,-4.578 v -0.543 l 0.618,0.422 2.216,-0.037 -0.287,-1.432 -1.266,-0.593 -2.166,-5.86 -1.025,3.726 -0.541,-0.271 -1.797,-0.229 -2.872,1.752 0.366,-5.924 0.535,-0.409 1.784,-11.711 1.974,-3.542 12.915,-10.812 0.322,0.567 3.077,1.821 0.669,-0.215 5.62,6.829 4.029,-0.174 4.181,3.19 0.787,1.873 2.398,1.797 3.566,-0.522 6.599,12.357 1.33,0.788 0.167,-0.551 -1.851,-2.593 0.099,-1.498 -0.744,-2.888 0.471,-0.55 -2.202,-2.602 -0.63,-3.87 0.356,-1.872 -3.168,-5.059 -0.332,-2.18 -2.552,1.647 -2.948,-0.461 -0.716,-0.89 -6.025,-0.411 -5.409,-4.814 4.207,-4.84 4.504,2.043 12.552,-3.769 1.571,-9.079 3.754,-0.911 -0.847,-8.177 23.115,-19.964 1.223,0.59 1.223,1.329 -2.693,9.427 0.787,2.727 1.447,-1.617 1.47,-4.254 2.971,-3.948 3.333,-1.492 2.082,1.69 1.038,1.536 -1.214,13.482 6.262,11.258 -2.996,19.038 -7.253,-1.857 2.754,9.697 3.913,-0.178 0.516,5.858 7.795,5.853 -2.435,4.092 2.265,5.541 -6.298,3.691 -2.25,4.77 -9.688,-8.187 -3.377,7.478 -5.739,-1.668 -0.13,3.641 -4.428,2.976 -0.706,12.422 -8.844,-4.437 -4.228,1.591 4.303,23.415 6.352,4.317 -0.379,5.323 -20.911,11.98 -0.169,-7.426 0,0 0.002,0 0,0 0,0 z" />
      <path
         style="stroke:#ffffff;stroke-width:3;stroke-miterlimit:10"
         id="1825"
         inkscape:label="Grane"
         inkscape:connector-curvature="0"
         stroke-miterlimit="10"
         d="m 891.046,1455.533 -3.993,-0.203 5.091,-7.266 -9.366,-19.368 8.769,-6.664 -5.694,-3.252 -1.13,-7.16 -4.42,-3.587 1.351,-5.854 -2.897,-5.431 -8.54,1.033 6.693,-13.63 21.308,-12.257 0.323,-5.795 -6.88,-5.062 -3.707,-22.023 3.646,-1.581 9.066,4.875 0.853,-13.028 4.437,-2.954 v -3.465 l 5.558,1.464 3.282,-6.887 9.695,7.931 2.663,15.5 10.904,20.785 -3.977,6.642 13.335,4.105 0.907,4.19 -4.125,5.546 3.828,6.602 -5.731,5.723 1.236,11.727 -2.475,3.631 4.882,3.701 -2.514,6.976 7.604,0.578 -5.697,5.944 -9.293,25.277 -2.986,0.908 -8.681,-1.654 -9.528,4.142 -23.797,-0.159 0,0 0,0 z" />
      <path
         style="stroke:#ffffff;stroke-width:3;stroke-miterlimit:10"
         id="1826"
         inkscape:label="Hattfjelldal"
         inkscape:connector-curvature="0"
         stroke-miterlimit="10"
         d="m 936.905,1451.554 8.854,-24.352 6.253,-6.291 -7.744,-0.733 2.099,-6.83 -4.54,-3.268 2.204,-3.549 -1.331,-12.527 5.902,-5.199 -3.821,-6.602 3.902,-5.321 -0.21,-1.762 -5.9,-5.043 -7.654,-2.101 3.501,-6.348 -10.854,-20.976 -2.631,-15.365 2.202,-4.887 12.707,-5.156 3.882,3.434 5.331,-4.071 h 10.222 l 4.192,-4.229 2.182,-10.846 2.176,-2.775 10.243,-6.505 5.18,5.809 20.572,1.051 1.906,7.003 -0.862,102.103 -9.698,13.614 -2.419,25.854 -14.078,-2.921 -8.273,4.195 -4.562,-1.023 -28.807,6.155 -0.126,-0.538 0,0 0,0 0,0 0,0 z" />
      <path
         style="stroke:#ffffff;stroke-width:3;stroke-miterlimit:10"
         id="1827"
         inkscape:label="D√∏nna"
         inkscape:connector-curvature="0"
         stroke-miterlimit="10"
         d="m 807.316,1234.304 0.827,-0.692 0.65,-0.046 -0.499,0.542 -0.978,0.196 0,0 0,0 0,0 z m -4.622,-2.652 1.971,-1.541 -1.272,1.518 -0.698,0.021 v 0 l -0.001,0 0,0 z m 20.38,20.852 0.092,-0.515 -0.427,-0.905 0.517,-0.762 1.132,-0.855 -1.314,3.037 0,0 0,0 0,0 0,0 z m -11.544,0.412 0.801,-2.291 2.779,-2.454 0.524,1.794 -4.104,2.951 0,0 0,0 0,0 z m 28.442,-3.975 -0.058,-0.504 0.329,-1.394 -0.492,-2.876 -1.249,-2.105 2.697,-1.183 h 2.94 l -2.062,3.957 0.357,1.582 0.643,-2.869 0.893,-0.031 3.629,1.617 1.367,-0.194 -0.466,1.915 -2.414,1.887 -2.286,-0.224 -2.547,0.585 -1.281,-0.163 0,0 0,0 0,0 0,0 z m -13.121,23.004 -0.279,-1.008 0.471,-1.271 4.193,-1.764 0.819,1.079 -3.5,2.754 -1.284,0.347 -0.42,-0.137 0,0 0,0 0,0 z m -17.133,4.165 1.604,-3.254 -0.582,-0.49 0.208,-0.994 1.184,-0.403 2.032,-1.523 0.98,-1.443 0.683,-0.573 -0.795,-0.722 6.682,-5.508 -10.255,3.258 2.512,-3.812 8.509,-3.393 0.812,-0.718 10e-4,-1.214 2.497,-5.507 3.729,-4.222 -1.997,0.673 2.146,-1.568 -0.435,-0.299 -2.501,0.295 -0.237,-0.554 -2.077,-0.99 -5.469,3.877 2.038,-3.688 -0.034,-2.271 -0.748,-0.602 7.321,-3.18 1.671,-2.892 -0.792,0.127 -0.727,-0.132 2.623,-1.41 3.703,8.219 -0.3,6.627 -5.259,3.867 0.583,2.014 1.231,-0.05 2.656,-2.519 0.736,-1.375 1.108,0.465 0.662,0.749 -0.654,0.937 -0.452,1.89 -1.412,1.388 1.828,-0.581 2.552,1.204 0.385,1.749 -0.369,0.778 -5.038,2.856 -2.949,5.235 -19.269,9.925 -0.336,-0.248 h 0.011 l 0,0 z m -3.915,-21.353 4.487,-9.706 0.444,-0.378 1.624,1.148 1.743,-1.613 0.609,1.342 -3.477,2.934 -2.267,3.833 -3.076,2.744 -0.087,-0.304 0,0 0,0 z m -3.397,-25.184 0.767,-1.582 0.187,0.636 -0.177,0.803 -0.777,0.143 0,0 0,0 0,0 z" />
      <path
         style="stroke:#ffffff;stroke-width:3;stroke-miterlimit:10"
         id="1828"
         inkscape:label="Nesna"
         inkscape:connector-curvature="0"
         stroke-miterlimit="10"
         d="m 854.174,1244.271 -0.902,-0.473 2.637,-6.82 5.111,-3.061 0.651,1.646 0.277,4.577 -2.713,2.861 h -0.992 l -3.197,1.384 -0.872,-0.114 0,0 0,0 0,0 z m 13.7,-3.678 -1.228,-1.684 -0.228,-2.951 11.68,-12.533 -0.022,-0.507 -3.785,2.523 0.469,-0.924 6.657,-6.031 5.992,-1.773 2.642,7.633 -21.127,16.755 -1.05,-0.508 0,0 0,0 0,0 0,0 z m -9.424,-10.002 -0.367,-0.223 5.04,-8.858 8.105,-3.435 7.348,0.413 -15.512,11.537 -2.864,0.662 -1.75,-0.096 0,0 0,0 0,0 0,0 z m -12.222,3.831 -0.113,-0.354 -1.528,-1.513 -0.712,-0.379 -0.459,-0.529 0.398,-3.255 -4.217,-0.369 1.658,-3.708 5.206,-6.271 0.264,-0.587 0.637,-0.188 0.824,1.441 0.756,-1.252 2.144,0.873 1.712,-0.105 1.229,1.84 0.438,0.346 -0.427,7.442 -4.253,5.729 -0.203,-0.732 -0.393,-0.386 -2.959,1.962 0,0 -0.002,0 0,0 0,0 z" />
      <path
         style="stroke:#ffffff;stroke-width:3;stroke-miterlimit:10"
         id="1832"
         inkscape:label="Hemnes"
         inkscape:connector-curvature="0"
         stroke-miterlimit="10"
         d="m 941.874,1316.477 -1.809,-1.78 -6.366,1.947 -2.525,-5.871 2.493,-4.161 -7.824,-6.06 -0.54,-6.035 -3.898,0.303 -2.524,-8.806 6.944,1.713 3.133,-19.565 -6.36,-10.919 1.179,-13.355 -1.771,-3.296 1.154,-0.263 4.754,-2.686 2.333,1.95 0.953,0.297 2.59,3.843 0.853,-5.222 -5.532,-4.064 -3.891,0.755 -2.697,1.338 -1.787,-0.895 -1.258,-1.768 -1.891,1.772 -1.459,0.337 1.451,-5.705 -2.031,-2.38 -1.448,-0.714 2.386,-1.315 1.14,0.423 1.767,0.038 0.825,-1.218 7.011,-1.757 2.716,0.319 1.544,0.795 -0.099,1.467 -3.012,6.197 0.659,1.289 1.034,0.123 0.229,-1.477 5.834,-7.273 0.526,-0.122 5.768,7.774 19.439,-3.002 7.922,5.647 0.647,10.013 22.103,2.782 11.041,48.585 -19.897,-0.674 -5.489,-6.128 -8.569,4.385 -4.288,4.747 -2.374,11.545 -3.974,3.963 -9.954,-0.295 -5.274,4.237 -1.887,-1.778 0,0 0,0 z m -47.486,-65.31 6.086,-15.273 4.938,-4.097 -0.544,-3.773 2.253,-2.244 1.513,-0.326 2.018,0.459 1.691,2.846 -1.079,2.252 -6.075,3.638 1.108,0.559 7.781,-2.082 0.343,0.539 -1.124,4.73 -2.683,-1.383 -16.226,14.155 0,0 0,0 0,0 z" />
      <path
         style="stroke:#ffffff;stroke-width:3;stroke-miterlimit:10"
         id="1833"
         inkscape:label="Rana"
         inkscape:connector-curvature="0"
         stroke-miterlimit="10"
         d="m 980.814,1246.039 -9.978,-1.287 -0.77,-9.98 -8.351,-5.745 -19.367,2.992 -5.028,-7.701 0.55,-0.247 1.576,-0.246 5.025,-3.286 -0.23,-0.959 0.149,-1.771 12.937,-11.767 0.644,-1.598 -1.122,-2.093 1.575,0.655 0.979,0.887 0.147,-0.76 -0.577,-1.205 -2.919,-0.817 -7.246,6.426 -8.127,3.083 -2.282,5.082 -1.379,0.911 -8.359,0.789 -11.333,6.018 -2.39,0.375 -3.315,-2.602 4.39,-6.224 -5.791,0.04 0.122,0.734 -0.513,2.136 -12.276,8.393 -6.104,-2.336 h -1.16 l -2.521,-7.454 1.973,-1.197 20.092,-3.217 -0.862,-0.881 -4.147,-2.015 -3.71,0.305 -2.419,-1.833 4.251,-3.331 -2.974,0.19 -20.057,9.614 0.77,-7.451 3.753,-1.018 -3.64,-6.479 2.922,-1.804 -1.005,-2.333 17.369,-14 5.293,1.605 17.141,-7.364 5.177,2.492 0.587,-11.929 -4.503,-3.184 6.149,-16.709 10.609,-1.449 9,-8.765 7.19,1.537 0.927,6.366 10.333,-9.604 1.138,-4.762 5.446,3.311 14.562,-7.691 -0.564,-4.813 6.218,-5.614 5.034,19.748 3.602,1.223 4.347,-4.696 3.493,2.296 1.502,-4.172 7.218,-2.678 -2.786,-17.629 14.134,-2.403 4.272,7.554 -3.769,7.479 0.98,7.25 6.416,8.799 -0.464,6.319 3.528,3.189 6.924,-1.113 15.704,1.981 -11.113,16.905 13.972,38.429 -34.301,29.551 -42.374,8.267 1.298,6.355 -11.587,-1.068 0,0 -0.005,-0.01 0,0 0,0 z" />
      <path
         style="stroke:#ffffff;stroke-width:3;stroke-miterlimit:10"
         id="1834"
         inkscape:label="Lur√∏y"
         inkscape:connector-curvature="0"
         stroke-miterlimit="10"
         d="m 832.64,1217.936 -1.032,-2.297 h -0.22 l 0.208,1.063 0.573,1.166 0.471,0.073 v -0.01 l 0,0 0,0 z m -6.839,-13.162 1.418,-2.259 -0.023,0.937 -0.612,1.047 -0.783,0.275 0,0 0,0 0,0 z m -11.296,-9.265 1.252,-0.688 1.123,-0.237 -2.362,1.237 -0.018,-0.312 h 0.005 l 0,0 z m 59.015,18.964 -0.242,-0.833 2.231,-2.31 0.601,-1.491 -0.465,-0.833 -0.764,-0.226 -4.175,4.134 -7.281,-3.506 -0.573,-2.681 0.207,-2.39 9.075,-6.419 0.912,-2.407 0.271,-4.992 -0.549,-1.768 -4.361,-4.734 0.716,-0.805 2.117,0.47 2.188,-0.534 0.791,-1.48 -4.58,-1.233 -0.851,-1.758 -3.486,-2.026 -1.625,0.016 -4.816,-4.68 -0.229,-1.078 0.228,-0.426 13.593,0 5.192,9.159 -0.836,9.548 6.514,8.162 -1.219,0.649 -0.181,3.885 2.229,3.796 -3.834,0.951 -0.705,7.461 -4.046,0.629 -2.045,-0.245 0,0 -0.002,-0.01 0,0 0,0 z m -20.102,-9.865 -2.048,-0.53 0.856,-1.5 2.166,2.212 -0.974,-0.182 0,0 0,0 0,0 0,0 z m -27.013,6.008 3.525,-3.587 0.756,-0.261 -3.883,3.726 -0.398,0.122 0,0 0,0 0,0 z m -0.492,3.093 4.67,-5.415 0.153,0.47 -3.775,4.353 -1.048,0.592 0,0 0,0 0,0 z m 5.826,-8.542 -0.257,-0.565 0.969,-1.711 0.22,1.458 -0.932,0.818 0,0 0,0 z m -7.995,5.89 4.398,-6.37 1.385,-0.712 -5.884,7.607 0.101,-0.525 0,0 0,0 0,0 z m -0.277,-7.657 0.371,-1.326 0.957,-1.299 0.57,-0.148 1.342,0.378 -3.381,2.983 0.143,-0.588 h -0.002 l 0,0 0,0 z m -17.487,4.442 -0.422,-0.385 2.187,-3.309 1.951,0.779 -0.077,1.888 -0.541,1.322 -3.098,-0.295 0,0 0,0 0,0 z m 56.637,-8.616 -0.092,-3.979 1.693,-3.553 2.566,-2.837 3.634,3.098 0.41,2.91 -0.184,0.755 -6.533,3.579 -1.494,0.027 0,0 0,0 0,0 z m -13.489,2.778 -0.105,-0.441 -2.162,-2.277 -0.543,-0.307 1.711,-1.256 1.456,0.697 1.367,-0.653 0.593,0.369 1.048,1.82 -3.365,2.048 0,0 0,0 0,0 0,0 z m 3.128,-5.385 -3.136,-2.676 -1.371,-3.424 0.388,-2.778 1.887,-1.554 2.527,-0.732 -0.628,9.188 0.696,0.931 0.543,2.068 -0.908,-1.022 0,0 h 0.002 l 0,-10e-4 z m 2.588,-0.291 -0.834,-1.448 0.03,-4.102 1.642,-1.747 -0.281,-4.52 0.516,-0.453 0.688,1.137 1.48,-1.097 -0.988,11.416 -0.671,1.448 -0.566,0.29 -1.016,-0.924 0,0 0,0 0,0 z m -0.221,-15.533 0.502,-2.521 0.522,0.084 1.171,-0.167 0.821,0.372 -2.638,2.341 -0.378,-0.109 0,0 0,0 0,0 z m -3.414,-1.364 0.283,-0.933 1.4,-0.447 -0.039,0.9 -0.826,0.561 -0.818,-0.081 0,0 0,0 0,0 z m -6.275,-7.115 0.031,-1.027 3.841,-1.079 -0.365,0.784 -3.537,2.349 0.03,-1.027 0,0 0,0 0,0 z m -15.563,-5.033 -0.555,-0.098 -1.124,-1.486 0.379,-1.488 1.062,-0.814 -0.714,-0.195 -1.195,-1.194 1.456,-0.513 2.694,-0.102 1.295,0.352 -1.059,3.094 -1.299,1.721 -0.94,0.723 0,0 0,0 0,0 z" />
      <path
         style="stroke:#ffffff;stroke-width:3;stroke-miterlimit:10"
         id="1835"
         inkscape:label="Tr√¶na"
         inkscape:connector-curvature="0"
         stroke-miterlimit="10"
         d="m 784.578,1180.985 0.922,-1.051 0.788,-0.401 0.069,0.507 -1.779,0.945 0,0 0,0 0,0 z m -2.722,-5.295 -0.944,-1.507 0.365,-0.021 2.212,0.838 0.348,0.575 -1.189,0.357 -0.792,-0.242 0,0 0,0 0,0 z m -1.254,5.429 0.221,-1.538 -1.262,-0.642 0.743,-0.057 0.817,0.267 1.759,-1.813 0.059,0.493 0.632,1.577 -2.969,1.713 0,0 0,0 0,0 0,0 z" />
      <path
         style="stroke:#ffffff;stroke-width:3;stroke-miterlimit:10"
         id="1836"
         inkscape:label="R√∏d√∏y"
         inkscape:connector-curvature="0"
         stroke-miterlimit="10"
         d="m 859.146,1153.978 -0.557,-0.714 1.251,-3.897 -1.272,-1.437 2.409,-1.578 0.614,1.26 1.51,-0.939 -0.943,6.785 -1.014,0.645 -1.407,0.188 -0.598,-0.312 0,0 h 0.007 l 0,-10e-4 z m -2.053,-8.135 -0.694,-0.7 2.693,-1.075 1.393,0.183 -0.652,1.396 -2.74,0.196 0,0 0,0 0,0 0,0 z m -5.126,-4.24 0.061,-0.403 1.608,0.131 -1.669,0.272 0,0 0,0 0,0 z m 2.292,-1.759 -0.813,-0.189 0.295,-1.33 1.31,-0.861 0.513,0.831 -0.662,1.493 -0.643,0.056 0,0 0,0 0,0 0,0 z m 2.736,2.812 1.951,-2.714 0.534,0.698 0.14,0.817 -1.097,1.144 -1.528,0.055 0,0 0,0 0,0 z m 7.607,0 -2.016,0.037 0.198,-0.796 0.567,-0.859 -0.763,0.015 -1.307,-1.861 1.174,-3.055 0.703,1.817 1.541,-3.471 -0.122,3.229 0.983,0.5 -0.268,0.551 0.058,3.556 -0.748,0.337 0,0 0,0 0,0 z m 3.512,15.188 -1.428,-6.883 1.893,-2.268 0.542,4.678 -0.882,5.195 -0.125,-0.722 0,0 0,0 0,0 z m 11.672,34.127 -2.724,-3.041 0.926,-9.391 -5.323,-9.384 h -13.858 l -0.866,1.021 0.039,-1.488 3.212,-0.025 2.438,-1.438 1.382,-1.879 2.334,-0.581 2.27,0.361 0.977,1.391 4.201,2.547 0.834,-0.688 2.541,3.545 -0.015,1.373 2.361,5.183 -0.306,1.766 -0.854,1.465 -1.215,1.177 3.1,0.603 0.047,0.477 0.399,0.911 0.353,0.436 10.1,-6.068 -2.005,-0.374 -6.786,1.309 -0.118,-0.526 0.57,-0.606 0.145,-0.587 -0.491,-1.065 -0.171,-1.072 2.332,-3.428 -1.788,-1.258 -2.189,-3.591 2.625,-0.506 3.136,-1.751 0.046,-1.404 6.32,0.34 2.054,-1.748 5.945,-0.166 13.019,5.926 0.049,-0.831 -0.732,-2.059 -2.311,-2.639 -7.609,-3.141 -5.909,-0.012 0.711,-2.065 0.998,-0.703 0.514,0.05 -0.048,-0.876 0.479,-1.271 2.196,-1.146 1.441,-1.355 0.287,-0.68 4.376,-1.6 8.554,-0.142 1.853,-0.852 -2.61,-1.511 -6.688,0.252 -6.438,2.088 -7.985,9.73 -8.637,1.349 -4.55,2.437 -6.469,-2.17 -0.535,-1.563 1.614,-6.213 0.646,0.393 0.796,-0.166 -1.591,-2.674 0.81,-0.371 1.6,-2.349 1.585,2.035 0.539,-0.78 -0.065,-1.238 0.793,-0.244 0.971,0.697 0.77,-1.454 -0.438,-0.713 0.352,-0.253 2.327,-0.087 1.618,-0.607 -0.927,-0.966 -4.623,-0.872 -5.416,3.014 -0.44,0.568 -4.458,-6.159 2.778,-2.73 0.625,-1.427 0.699,-0.279 0.742,0.249 v 0.749 l 2.096,1.136 4.367,-0.605 1.697,0.258 2.729,2.343 1.058,1.885 0.344,-1.15 -0.374,-0.846 0.096,-0.351 0.523,0.313 4.031,-1.834 6.522,1.206 0.633,0.386 -0.383,1.035 0.953,0.44 2.697,0.02 0.099,-0.3 -2.27,-3.638 -2.281,-1.627 -2.731,-0.207 -3.897,-1.685 -10.422,-1.315 -3.963,-3.954 -4.236,-0.146 -0.033,-1.257 4.923,-2.404 3.056,0.522 5.057,-0.741 1.501,2.312 0.368,1.989 22.491,8.525 5.522,-0.568 12.217,6.835 -6.044,17.124 4.581,3.161 -0.379,11.333 -5.057,-2.493 -17.13,7.368 -5.065,-1.723 -17.752,14.049 -2.784,-2.569 h -0.001 l 0,-0.01 z m -19.782,-27.916 -0.222,-2.261 2.199,-2.601 0.515,-1.566 0.395,0.171 0.92,4.108 -2.162,1.984 -1.014,0.236 -0.631,-0.071 0,0 0,0 0,0 z m -11.653,1.942 -0.669,-2.157 0.227,-0.764 0.476,-0.267 v 0.528 l 0.675,1.728 -0.709,0.932 0,0 0,0 0,0 z m -11.476,-10.681 0.017,-0.861 0.508,-0.743 0.695,0.455 -0.018,0.798 -1.199,0.353 -0.003,0 0,0 0,0 z m 15.588,5.308 -1.698,-1.373 1.192,-2.988 0.36,0.053 1.227,0.997 h 0.506 l -0.722,2.779 -0.556,0.822 -0.309,-0.29 0,0 0,0 0,0 z m -25.026,0.355 0.195,-0.729 0.32,-0.431 0.608,-2.419 0.414,-0.728 0.729,-0.445 1.167,-0.096 2.081,2.366 -0.73,2.357 -4.784,0.125 0,0 0,0 0,0 0,0 z m 16.653,5.111 1.716,-0.946 0.552,0.806 -1.173,0.291 -1.095,-0.151 0,0 0,0 0,0 z m 0.047,4.499 -0.371,-2.855 5.487,-0.085 0.883,0.368 -0.451,0.979 -4.884,2.045 -0.664,-0.452 0,0 0,0 0,0 z m 24.519,-44.962 0.194,-0.715 1.156,-0.264 -0.339,0.599 -1.011,0.38 0,0 0,0 0,0 z" />
      <path
         style="stroke:#ffffff;stroke-width:3;stroke-miterlimit:10"
         id="1837"
         inkscape:label="Mel√∏y"
         inkscape:connector-curvature="0"
         stroke-miterlimit="10"
         d="m 888.007,1087.4 -0.199,-0.594 2.418,-1.609 -1.613,2.449 -0.606,-0.246 0,0 0,0 0,0 z m -1.265,4.756 0.24,-1.128 1.219,-1.155 0.438,0.911 -0.096,1.008 -0.496,-0.086 -1.305,0.45 0,0 0,0 0,0 z m 17.006,13.857 -0.856,-0.502 1.952,-0.369 1.011,0.104 -0.533,0.449 -1.574,0.318 0,0 0,0 0,0 z m -13.279,-8.295 -0.857,-0.096 v -0.714 l 2.629,-0.769 1.154,1.253 -1.639,0.708 -1.287,-0.382 0,0 0,0 0,0 z m 0.125,17.706 -0.21,-1.543 2.096,-0.168 1.124,0.333 0.882,0.87 -3.892,0.51 v 0 l 0,0 0,0 z m -6.076,-4.639 -0.592,-1.502 0.225,-0.833 0.536,-0.909 2.242,-1.996 9.796,-3.073 5.454,1.548 -0.77,1.129 -13.68,4.453 -0.641,0.771 -2.57,0.412 0,0 0,0 0,0 z m -11.861,3.049 0.925,-1.766 1.236,0.028 -0.473,1.687 -1.688,0.051 0,0 0,0 0,0 z m 4.379,10.047 7.608,-6.068 0.544,-2.216 2.099,0.964 7.976,0.81 -0.352,1.441 -2.681,2.544 -4.85,1.74 -9.7,0.537 -0.644,0.248 0,0 0,0 0,0 z m 13.193,-33.732 -0.223,-2.412 2.033,-0.351 0.742,1.089 -2.303,2.068 -0.252,-0.395 0,0 h 0.003 l 0,10e-4 z m 12.039,8.142 -0.579,-1.408 1.721,-3.755 1.118,-0.03 0.978,0.352 1.008,0.806 -0.619,1.27 -2.531,2.021 -0.57,1.003 -0.526,-0.259 0,0 0,0 0,0 0,0 z m 4.582,5.852 -1.123,-1.6 0.239,-1.814 1.896,-2.189 0.9,-0.438 1.725,0.679 -0.078,3.365 -3.559,1.997 0,0 0,0 0,0 z m 16.763,37.894 -6.188,-3.47 -6.196,0.567 -22.174,-11.08 0.399,-1.384 8.084,2.021 1.476,-0.571 1.182,0.29 0.242,1.256 1.907,2.72 1.178,0.693 11.697,-1.894 0.843,-0.993 -1.213,-0.748 -1.047,-1.567 14.984,-2.425 0.972,-1.459 -16.539,2.569 -1.378,1.714 -6.583,1.385 -3.59,-4.59 -5.957,-0.817 5.626,-1.349 0.909,0.221 0.396,-0.78 2.878,-2.021 12.335,-0.221 -1.107,-1.055 -14.138,-0.72 -0.863,0.471 -0.889,-0.938 -1.771,-0.608 -0.677,-0.717 -1.812,-4.016 1.729,-1.128 11.543,-2.458 12.184,2.239 0.9,0.452 7.893,-0.406 5.59,-2.134 -1.575,-1.243 -1.342,-0.317 -5.183,0.789 -7.841,-1.101 -3.301,-2.031 -1.318,-3.527 -4.392,3.356 -0.019,-0.825 1.377,-1.041 0.457,-0.633 -0.583,-0.752 0.061,-4.016 -7.002,-7.537 -4.538,0.097 -1.658,0.668 -1.353,0.083 -1.501,-5.772 -2.198,-0.658 -0.088,-3.23 2.025,-0.569 2.046,0.434 0.147,1.14 -0.251,1.007 6.061,-2.801 -0.025,1.936 7.354,3.982 17.853,-1.598 2.624,12.032 6.264,4.169 0.146,2.312 8.327,-0.589 -0.113,0.671 1.939,6.465 2.503,1.505 -0.258,2.724 4.633,0.55 3.928,-5.037 6.605,-0.945 1.351,1.455 0.151,4.097 -2.981,2.75 1.226,2.855 5.928,0.835 -4.064,12.65 -9.934,9.87 -0.84,-6.342 -7.705,-1.647 -9.006,8.819 -9.9,1.277 -6.862,-3.365 0,-10e-4 0,0 0,0 z" />
      <path
         style="stroke:#ffffff;stroke-width:3;stroke-miterlimit:10"
         id="1838"
         inkscape:label="Gildesk√•l"
         inkscape:connector-curvature="0"
         stroke-miterlimit="10"
         d="m 928.365,1065.291 1.267,-6.146 0.569,-1.106 0.137,6.987 -1.058,0.764 -0.919,-0.498 h 0.004 l 0,-10e-4 z m -14.878,-4.714 1.122,-2.408 -0.482,-0.805 -0.279,-1.836 1.775,-1.785 2.527,-0.861 2.514,1.15 1.824,2.565 -0.539,0.665 -8.462,3.315 0,0 0,0 z m 0.601,-20.736 -0.15,-0.541 -0.819,-0.303 -0.226,-0.499 1.648,-0.629 1.309,0.237 -0.562,1.049 -1.2,0.686 0,0 0,0 z m 8.113,9.006 -1.605,-0.442 -0.514,-2.104 3.141,-0.124 2.151,1.343 -0.018,1.427 -3.161,-0.098 0.006,0 0,0 z m 5.248,-4.798 1.807,-5.35 0.996,0.847 -0.132,1.359 -2.671,3.144 0,0 0,0 0,0 0,0 z m 3.448,-5.272 -0.284,-1.52 0.168,-1.052 1.729,-0.111 0.044,0.736 -0.826,2.044 -0.831,-0.096 0,0 0,-10e-4 0,0 0,0 z m 17.466,27.369 -0.982,-1.384 -3.062,-8.763 -7.507,-5.781 -1.473,0.425 -1.481,-0.529 -0.891,-1.037 -0.578,-1.259 0.562,-0.742 2.485,-1.568 2.028,-9.506 7.412,7.087 2.803,-2.325 2.27,-9.067 -0.027,-1.315 3.616,-2.913 0.675,1.081 0.134,2.761 -0.541,1.051 0.808,4.37 -0.988,0.944 -4.247,10.286 0.577,1.684 0.061,3.766 2.297,2.83 -0.54,1.803 0.306,4.263 -2.219,3.317 -1.498,0.523 h 0 l 0,0 z m 4.647,47.975 -1.542,-0.221 0.279,-2.711 -5.05,-3.622 0.671,-5.068 -8.208,0.503 -0.313,-2.726 -6.118,-3.073 -2.729,-12.679 -18.197,1.584 -6.849,-3.709 v -1.783 l 3.656,0.302 7.234,-1.339 1.377,-2.31 -4.019,-1.027 -0.262,-1.04 8.349,-2.215 5.412,-4.558 4.016,-1.865 1.689,0.666 0.132,4.07 -3.154,4.786 -3.086,-1.286 1.919,4.937 1.5,-0.385 2.058,-2.137 2.243,-4.45 1.128,-0.353 1.159,0.464 2.062,-2.171 0.522,-1.089 -3.205,-6.678 -0.385,-5.455 0.254,0.348 0.507,0.277 0.626,-2.618 1.801,-2.159 3.813,5.319 2.929,9.148 1.062,-0.35 0.526,-0.774 0.267,2.289 1.182,0.799 0.865,-1.453 1.019,0.311 2.771,-1.695 2.531,-9.819 -0.681,-1.719 -2.114,-2.137 -0.699,-1.276 3.966,-0.713 1.815,-2.135 -0.989,-0.474 -3.752,0.558 3.55,-5.384 1.612,-7.312 -0.286,-0.629 2.937,-0.215 1.182,3.229 -2.315,8.842 6.209,8.204 -4.833,5.65 -1.873,12.274 3.648,8.751 0.403,17.514 4.946,3.787 -2.611,4.555 -6.174,0.911 -4.366,4.983 -2.017,-0.249 0,0 0,0 z" />
      <path
         style="stroke:#ffffff;stroke-width:3;stroke-miterlimit:10"
         id="1839"
         inkscape:label="Beiarn"
         inkscape:connector-curvature="0"
         stroke-miterlimit="10"
         d="m 1001.263,1134.345 -1.137,-0.299 -5.28,-20.009 -6.586,5.48 0.373,5.802 -14.014,6.57 -5.155,-3.175 3.088,-8.298 -2.617,-0.297 -4.21,-1.868 4.745,-5.635 -3.783,-4.063 2.086,-4.988 -4.943,-3.63 -0.411,-16.937 -3.911,-9.035 1.855,-11.522 4.824,-6.064 -6.021,-8.785 2.4,-8.097 13.74,5.838 8.283,-5.776 5.105,8.978 2.318,-1.155 14.238,8.812 11.049,21.004 -2.583,17.361 4.706,31.348 -1.353,0.95 -5.614,1.641 -1.326,3.517 -1.896,-0.879 -7.97,3.211 0,0 0,0 0,0 0,0 z" />
      <path
         style="stroke:#ffffff;stroke-width:3;stroke-miterlimit:10"
         id="1840"
         inkscape:label="Saltdal"
         inkscape:connector-curvature="0"
         stroke-miterlimit="10"
         d="m 1056.992,1146.164 -7.775,-1.006 -6.686,1.121 -3.221,-2.958 0.208,-6.577 -6.462,-8.697 -0.782,-6.75 3.904,-7.667 -5.144,-8.033 -13.872,2.225 -1.94,-13.673 2.553,-16.785 5.562,-6.724 4.64,-11.682 -0.94,-14.091 0.949,-1.354 3.006,-12.347 9.621,-9.492 2.355,0.863 1.301,2.708 -1.44,8.288 1.399,-0.627 0.954,-0.903 -1.578,5.33 0.876,1.061 5.614,0.293 -1.16,-1.878 -1.482,-0.98 0.434,-0.701 0.21,-1.615 -0.676,-3.733 0.292,-0.917 1.648,-2.348 v -1.847 l -1.368,-4.188 -0.702,-0.734 2.538,-2.498 6.661,0.701 6.627,6.215 1.624,5.863 14.279,5.079 13.468,9.595 13.961,5.059 14.102,-1.419 -21.914,26.235 -33.485,72.629 -8.163,-1.039 0,0 h 0 l 0,0 z" />
      <path
         style="stroke:#ffffff;stroke-width:3;stroke-miterlimit:10"
         id="1841"
         inkscape:label="Fauske"
         inkscape:connector-curvature="0"
         stroke-miterlimit="10"
         d="m 1099.24,1046.651 -7.212,-2.613 -12.623,-9.286 -14.319,-5.099 -0.637,-4.944 -7.69,-7.247 -7.266,-0.72 -1.314,1.342 -3.12,-0.047 -2.781,-1.868 -0.837,-1.638 -1.017,0.47 -1.506,0.115 4.327,-5.593 -1.458,-2.243 -7.297,6.489 -0.779,0.215 -3.47,-0.71 5.569,-2.279 1.366,-1.795 -2.637,-2.393 -4.293,0.179 -1.604,-0.404 -4.527,3.182 h -1.114 l -5.427,-2.707 -3.147,0.746 -1.688,-0.465 2.625,-1.437 0.875,0.146 6.364,-4.421 -1.527,0.133 0.594,-6.784 -7.435,2.336 h -1.706 l -1.504,-4.44 9.258,-6.974 -0.851,-6.615 3.484,-1.811 -1.173,-4.78 5.475,-3.267 2.165,2.3 8.5,-1.351 7.118,8.578 -1.34,6.923 8.813,3.269 1.186,15.467 2.509,1.785 13.186,-13.366 3.4,0.606 1.167,5.238 40.162,0.162 7.922,19.318 -0.902,29.385 -13.379,1.388 -8.485,-2.466 0,0 0,-0.01 0,0 0,0 z" />
      <path
         style="stroke:#ffffff;stroke-width:3;stroke-miterlimit:10"
         id="1845"
         inkscape:label="S√∏rfold"
         inkscape:connector-curvature="0"
         stroke-miterlimit="10"
         d="m 1016.887,939.859 -2.764,0.046 -1.08,-2.56 0.977,-0.374 1.719,0.152 2.372,1.636 -0.131,0.914 -1.093,0.186 0,0 0,0 z m 38.278,65.37 -0.973,-0.748 0.651,-6.229 -1.777,-9.411 -9.008,-3.291 1.286,-6.414 -6.642,-9.089 -9.142,1.186 -2.358,-2.302 -5.923,3.742 1.044,4.599 -3.188,1.307 -6.58,-2.231 -3.171,-11.536 7.44,-6.893 0.118,-2.035 1.664,-1.808 1.103,2.044 -0.045,1.053 2.91,1.045 -0.645,0.949 -4.515,1.767 -1.093,0.999 0.995,0.669 0.952,4.313 -1.441,1.423 -0.482,1.945 0.415,3.94 5.402,-8.296 0.934,-4.583 4.312,-3.18 6.573,0.398 6.325,2.208 2.077,3.042 0.526,3.979 4.317,5.701 3.251,9.751 2.029,0.723 0.796,2.287 2.919,4.226 5.853,3.866 1.724,-2.826 -8.773,-4.484 1.532,-2.592 -2.434,-5.35 0.021,-1.328 4.911,-0.639 4.415,2.778 0.78,1.993 -1.275,5.56 2.403,-3.582 1.514,0.174 1.174,-0.353 -1.478,-4.229 -8.401,-4.043 1,-2.532 -7.169,2.447 -6.019,-6.94 1.186,-2.805 3.083,-2.449 0.931,-1.737 -3.809,1.165 -0.692,-0.854 4.907,-9.394 7.868,-7.666 12.967,-5.345 -0.112,-0.793 -1.125,-0.337 -0.878,0.033 1.191,-1.893 -4.79,2.292 -1.97,0.308 -0.507,0.715 v 0.886 l -5.673,2.136 -14,12.321 -3.778,-3.144 -2.557,-0.191 -1.45,0.587 -1.346,-0.387 -0.393,-0.513 -1.321,0.462 -4.473,0.267 -1.798,-0.421 -1.012,1.117 -4.151,-2.494 -2.148,-2.973 0.712,-2.812 -0.895,-2.793 0.495,-0.304 -0.477,-0.379 1.864,-3.229 -0.577,-0.678 0.058,-0.308 5.234,-0.882 7.992,2.84 2.956,4.462 0.901,-3.884 -0.854,-0.548 -1.099,-1.544 -10.897,-4.23 -1.804,-1.75 -4.608,3.394 -2.931,0.164 5.08,-5.967 7.294,3.25 2.764,-5.752 6.679,5.114 3.564,-4.591 3.13,2.395 5,-6.68 7.525,0.513 -0.544,-7.896 -8.187,-0.909 -1.538,-9.304 9.604,4.465 2.379,0.335 0.365,2.02 5.152,5.744 1.082,-0.033 0.342,-4.199 -0.973,0.356 -1.497,-0.088 -2.644,-6.55 -4.934,-1.727 -1.274,-3.216 0.457,-1.86 10.886,-0.649 8.775,2.17 1.925,9.791 4.554,-5.581 1.811,3.588 0.637,-0.367 -0.837,2.564 7.703,3.592 -0.178,8.717 22.524,20.722 -1.076,2.754 -14.347,4.808 -5.335,21.989 21.435,24.029 -39.231,0.115 -1.404,-5.118 -2.026,-0.519 -2.271,0.247 -12.428,12.803 -1.004,-0.657 0,0 0.01,0 0,0 0,0 z" />
      <path
         style="stroke:#ffffff;stroke-width:3;stroke-miterlimit:10"
         id="1848"
         inkscape:label="Steigen"
         inkscape:connector-curvature="0"
         stroke-miterlimit="10"
         d="m 1015.332,934.122 -0.045,-1.627 3.908,-9.407 7.717,-1.927 0.019,-1.163 -6.844,-0.561 2.956,-6.036 1.749,-1.443 17.285,9.218 -2.1,-3.808 2.696,-1.834 8.238,3.723 0.718,-0.554 -8.012,-5.646 -7.475,0.879 -4.877,-6.062 1.43,-1.069 7.238,-2.816 5.304,0.194 1.404,0.536 1.519,10.018 8.212,0.857 0.432,7.037 -2.925,-0.165 -6.809,3.033 -2.411,3.211 -3.097,-2.325 -3.575,4.649 -6.635,-5.312 -2.99,5.957 -7.107,-3.301 -5.922,5.742 0,0 -10e-4,0.002 0,0 0,0 z m -28.312,-2.953 -3.562,-0.041 -0.104,-1.41 -2.12,-1.479 -0.034,-0.612 11.846,-8.4 -2.537,-1.097 -4.592,0.712 -1.091,-1.408 -2.394,0.195 -0.705,0.735 0.181,-2.048 0.756,-0.614 4.574,-1.627 4.466,0.482 17.332,-6.448 1.589,-1.417 -9.08,2.198 -0.121,-0.341 0.958,-2.067 -0.604,-0.312 -1.138,0.486 -0.615,0.59 -0.931,-1.396 1.607,-2.306 1.326,-0.697 -0.021,-0.621 -16.201,5.775 0.408,-1.554 1.668,-1.404 0.256,-1.259 -1.231,-0.396 -0.202,-1.662 -1.79,-0.175 -2.302,2.014 -0.321,-0.274 -1.352,-0.099 -0.224,-0.645 -1.508,-1.283 1.009,-3.65 0.423,-0.241 -0.31,-0.666 1.604,-2.112 0.439,-1.271 0.49,-0.701 3.259,1.699 3.998,0.279 -0.105,-0.991 0.425,-1.141 2.455,-1.979 4.527,-0.156 4.619,-2.524 0.585,1.404 0.716,-0.243 0.362,0.424 0.316,0.74 1.19,-1.569 5.31,-1.438 -1.939,-1.135 -7.101,0.187 -5.136,2.237 -11.015,1.371 3.257,-2.552 -0.746,-1.573 8.883,-6.025 6.293,-0.376 0.217,0.523 3.428,1.826 6.738,-2.168 -0.229,0.944 -0.554,0.696 1.018,0.863 0.84,-0.467 1.64,-0.053 -3.861,5.564 0.37,2.607 6.803,-11.716 2.987,-2.685 1.021,-0.198 -1.046,2.215 0.271,0.733 1.062,-0.145 6.942,-6.104 6.824,-2.743 1.22,1.126 -0.974,4.512 1.83,-2.855 1.325,-0.118 0.512,-4.642 3.967,-1.403 0.439,-0.57 -0.178,-0.666 3.66,-2.021 1.187,-0.203 -0.203,3.702 3.108,3.304 -4.811,2.446 6.698,10.761 -1.109,3.768 6.409,0.596 7.599,7.085 -2.612,5.386 -10.957,0.776 -0.654,4.405 -7.436,-4.294 -0.364,-0.382 -2.754,0.985 -12.322,-6.216 -0.794,-1.773 V 892 l 0.878,-0.179 1.193,-0.788 0.315,-1.616 -0.756,-2.411 -1.488,-1.956 0.145,3.147 -1.477,1.063 -3.111,-6.521 -0.474,0.511 2.607,6.921 0.788,0.779 -1.354,5.832 -4.189,3.419 -3.103,4.56 -5.082,3.643 0.227,2.296 0.554,0.665 -3.236,6.107 -0.3,-0.375 -0.737,-0.375 -8.522,7.932 -0.245,-0.861 -0.894,-1.029 -1.923,3.144 -6.252,4.263 -2.734,0.943 -4.085,0.058 0,0 0.003,-0.003 0,0 0,0 z m 16.241,2.487 0.459,-1.896 1.581,-2.58 0.715,-0.66 5.137,-1.481 -4.024,6.218 -0.412,-0.484 -2.072,0.376 -1.062,0.861 -0.322,-0.354 0,0 0,0 0,0 z m 14.11,-67.714 -3.869,-0.756 -1.827,0.361 -2.085,-0.608 -2.32,-7.229 0.362,-1.667 2.902,-2.565 -0.024,-2.216 3.73,7.771 2.453,1.345 2.914,5.797 -2.242,-0.232 0,0 h 0.01 l 0,-10e-4 z m -12.839,11.965 0.12,-0.873 -2.062,-0.557 -4.585,0.163 -1.005,-0.3 -2.613,1.074 -0.475,-2.851 -2.208,-3.804 0.825,-1.02 0.851,-0.342 0.18,-3.029 3.715,0.387 2.208,-0.933 2.559,-4.099 2.109,-1.67 -0.593,3.082 -0.62,1.27 3.148,3.605 -0.951,0.881 1.928,0.391 2.067,-0.421 0.586,-0.563 4.254,1.578 0.535,0.559 4.841,-0.773 1.285,2.068 -5.147,4.335 -0.778,-0.72 -7.069,2.537 -2.355,-0.602 -0.75,0.627 0,0 0,0 0,0 0,0 z m -37.945,42.006 0.521,-1.444 1.287,-1.638 -0.582,2.695 -1.226,0.387 0,0 0,0 0,0 0,0 z m 4.658,-17.059 1.751,-2.502 0.42,-0.188 0.95,-0.138 0.491,0.06 -0.364,0.979 -1.062,1.093 -2.186,0.696 0,0 0,0 0,0 z" />
      <path
         style="stroke:#ffffff;stroke-width:3;stroke-miterlimit:10"
         id="1849"
         inkscape:label="Hamar√∏y"
         inkscape:connector-curvature="0"
         stroke-miterlimit="10"
         d="m 1101.822,933.956 -11.133,-10.21 0.166,-8.701 -7.688,-3.465 2.46,-4.639 -2.562,2.024 -1.868,-3.52 -4.352,5.293 -1.798,-9.044 -8.923,-2.751 2.598,-5.44 -8.37,-7.14 -5.661,-0.636 1.012,-3.406 -6.74,-10.66 4.928,-2.468 -3.291,-3.512 0.196,-3.556 1.009,-0.411 6.897,3.023 3.194,6.054 2.319,1.335 0.197,-1.732 -0.563,-2.341 -0.562,-0.728 3.441,-6.384 -3.114,-1.72 0.063,-0.478 1.493,0.258 1.347,0.727 1.385,-0.071 -0.188,-1.839 1.217,0.553 1.173,0.084 -1.012,-1.4 -0.338,-1.894 1.575,-1.439 -0.9,-0.222 -1.616,0.575 -1.116,-1.176 0.908,-2.565 -0.917,-0.573 -1.705,-1.979 -5.882,-1.372 -1.813,-1.206 -4.461,-0.76 -1.469,0.427 0.717,1.646 3.229,10e-4 0.514,0.41 -6.593,0.194 -0.719,-0.729 -9.401,0.546 -1.231,-0.522 -0.969,-3.3 0.18,-0.706 0.659,-0.39 -0.594,-1.034 -5.342,-3.766 -0.32,0.34 0.803,5.079 -1.492,3.239 -0.406,0.426 -6.324,3.318 -0.283,1.717 3.118,2.454 -1.341,2.722 -0.122,1.191 -2.429,-0.095 -0.636,-3.179 -2.712,0.836 -2.526,-0.698 -1.325,-1.517 -1.183,-6.07 4.333,-1.724 -1.061,-1.854 -0.211,-0.846 0.901,-5.36 2.152,-0.317 0.308,-0.841 2.354,-3.33 -0.422,-3.244 5.612,-2.455 1.679,0.642 0.207,1.148 -0.88,3.683 0.596,2.197 1.751,0.195 -0.156,-3.609 0.646,-1.137 0.764,0.775 1.508,0.339 0.967,-1.144 0.244,-0.893 -0.27,-0.987 -0.515,-0.539 0.62,-0.603 0.944,-0.174 0.325,0.72 0.647,0.29 0.886,-0.609 -0.048,-6.22 -0.975,-0.947 -0.839,-0.462 -0.676,0.057 1.577,-1.061 2.893,-0.075 1.71,0.564 -0.577,0.561 -1.448,0.756 3.058,0.778 1.559,1.081 0.462,3.058 -1.41,-0.356 0.143,1.863 0.787,1.47 0.259,1.319 0.562,0.894 0.432,1.537 -0.798,1.909 -0.799,0.6 -5.72,-1.337 -0.554,-0.614 -0.9,1.347 2.454,2.78 0.259,0.845 1.593,1.236 -0.464,0.58 -1.834,1.318 0.219,0.953 2.603,3.049 0.573,-0.814 0.51,-1.455 -0.263,-1.423 -0.646,-0.854 0.78,-1.068 5.197,-1.788 -0.147,-0.609 -0.462,-0.687 0.799,-1.96 0.602,-0.466 0.619,0.585 3.524,1.195 0.141,-3.164 0.374,-0.966 1.215,0.099 1.576,-0.592 2.602,-4.085 -0.453,-0.481 0.017,-1.757 -0.658,-0.354 0.084,-0.341 3.271,-0.435 0.441,-0.554 -2.518,-0.634 -1.87,-1.131 0.338,-0.539 -2.258,-1.952 -0.33,-1.052 0.108,-4.089 1.125,-0.61 1.875,1.479 1.056,0.121 0.93,-0.202 0.767,-0.462 1.557,-2.104 -0.173,-1.661 3.756,1.479 -1.733,6.269 4.276,3.088 1.412,9.871 -3.848,5.693 -5.143,2.59 18.221,19.727 -2.184,1.402 2.89,11.609 -2.496,6.364 7.758,5.416 6.622,16.627 7.513,-3.388 2.707,1.918 1.313,3.058 -0.461,0.798 5.144,4.502 v 3.895 l 4.777,1.443 2.612,-2.139 6.477,9.062 -8.93,24.788 -11.242,-10.101 -0.01,0.005 0,0 0,0 z m -63.161,-75.188 -1.909,-0.16 -0.761,0.2 -2.96,-1.548 -0.69,0.26 -1.526,-0.524 -0.307,-0.677 0.835,0.104 1.928,-1.818 0.536,-1.316 1.212,-0.295 1.879,-1.258 10.186,-2.691 3.746,0.932 0.826,-0.597 8.457,-0.486 3.395,2.11 1.521,4.2 -4.29,3.067 -5.471,-2.256 -5.019,-0.047 -10.004,3.179 -1.584,-0.379 0,0 0,0 0,0 0,0 z m 13.037,-30.306 -1.983,-0.394 -0.507,0.21 -0.522,-0.853 -0.354,-1.587 1.356,-1.288 0.785,-0.324 -0.388,-0.993 2.41,-1.312 0.529,0.307 0.858,0.134 0.332,0.611 -0.813,0.325 -0.43,0.909 0.576,0.948 -0.081,2.693 -0.436,0.647 0.39,0.294 0.071,0.285 -1.793,-0.612 0,0 0,0 0,0 z m -24.523,23.248 -1.624,-0.788 1.372,-0.262 2.046,1.166 -1.794,-0.116 0,0 0,0 0,0 0,0 z m 1.696,10.03 0.398,-1.378 1.016,-1.017 1.312,0.635 0.808,0.94 -0.675,0.511 -2.859,0.309 0,0 0,0 z" />
      <path
         style="stroke:#ffffff;stroke-width:3;stroke-miterlimit:10"
         id="1850"
         inkscape:label="Tysfjord"
         inkscape:connector-curvature="0"
         stroke-miterlimit="10"
         d="m 1092.456,841.724 -2.263,-0.095 -0.238,-0.626 -0.999,-0.862 -1.057,-0.093 -1.013,0.233 -4.416,-1.137 0.71,-2.184 5.729,-5.147 4.285,3.221 -0.162,6.708 -0.127,0.24 -0.449,-0.258 0,0 0,0 0,0 z m -1.632,-30.821 2.529,-1.672 0.959,-0.216 -0.273,0.484 -1.177,0.939 -1.47,0.512 -0.568,-0.047 0,0 0,0 0,0 z m -21.578,4.139 2.368,-1.915 -0.506,1.154 -0.815,0.814 -1.047,-0.053 0,0 0,0 0,0 z m 40.029,-4.357 -6.119,-2.396 -1.531,-2.388 v -0.978 l -1.245,-1.238 0.905,-3.041 -0.845,-0.21 -1.403,2.932 -1.709,1.104 -4.729,0.205 -5.93,2.932 -3.035,0.56 -1.212,-0.425 -1.763,0.886 -2.209,-3.672 1.28,-0.841 4.535,-0.335 7.499,-3.591 -1.247,-3.991 -0.89,-0.304 -3.943,2.879 -0.777,-0.397 -0.795,-0.852 -0.422,-0.812 -7.856,-2.093 7.847,-1.489 6.699,2.082 6.744,5.173 6.397,-1.464 4.51,4.446 -1.213,3.871 5.613,3.683 -3.156,-0.236 0,0 0,0 0,0 z m 9.789,103.667 -3.558,-4.729 -2.767,2.286 -4.162,-1.293 -0.034,-3.845 -5.172,-4.344 1.588,-2.012 -5.712,-4.345 -7.221,3.461 -6.318,-15.965 -7.75,-5.581 2.464,-6.322 -2.81,-11.306 2.146,-1.576 -18.207,-19.744 5.044,-2.386 3.934,-5.854 -1.458,-10.176 -4.144,-3.103 1.65,-6.516 -4.265,-2.186 -1.888,-6.093 0.218,-1.227 0.764,-0.591 1.027,-0.279 6.594,0.753 -0.065,5.282 -0.454,0.847 0.794,0.604 1.112,0.223 2.336,1.214 1.15,1.328 -0.98,0.066 -5.256,3.588 0.825,1.771 0.882,0.996 0.539,-0.498 3.272,-0.498 0.147,-0.773 1.193,-1.637 -0.273,-0.975 1.696,1.148 0.858,3.735 -0.891,16.712 0.477,0.329 -2.934,8.081 0.641,0.491 1.157,-0.029 14.05,14.33 -0.071,13.886 2.288,1.603 2.516,-1.176 17.91,13.47 1.97,0.247 1.163,-1.048 -5.977,-3.154 0.494,-2.895 -0.989,-1.75 -15.413,-6.671 -1.075,0.128 1.036,-14.143 -1.125,-1.59 0.439,-0.673 0.787,-0.185 -3.164,-3.192 -2.235,0.07 -0.644,-1.149 -2.694,-2.166 1.372,-0.368 1.449,0.151 0.289,-0.687 -0.062,-1.564 0.605,-0.457 1.329,0.663 17.817,20.871 1.463,-0.097 -2.025,-3.238 1.043,-3.754 -0.788,-0.771 -3.678,1.12 -9.402,-14.301 1.27,-0.384 1.992,0.862 1.91,-0.163 0.28,-0.985 10.107,12.072 1.597,-0.434 1.158,-2.861 -3.589,0.759 -1.294,-2.227 0.015,-3.436 1.857,-4.483 -0.534,-0.632 -11.766,-1.472 -0.251,-2.629 2.552,-6.75 1.058,-0.067 1.741,-2.013 1.198,-4.961 6.048,6.62 8.059,0.026 2.405,2.844 0.515,-0.124 1.126,-1.964 -2.7,-1.554 1.418,-0.497 4.542,-0.23 0.247,-0.896 -0.789,0.037 -0.581,-0.212 -12.008,-0.542 -3.834,-4.916 -1.259,-0.741 -3.713,-0.232 -2.18,1.584 -0.507,1.752 -4.277,5.207 -0.952,-0.239 -3.772,-2.523 -1.16,-1.646 -0.329,-2.366 -3.652,-0.977 1.306,-2.803 3.187,1.462 2.231,-1.969 0.557,-3.594 1.146,-0.938 4.371,5.951 0.449,-0.473 -0.607,-4.08 -3.684,-2.918 4.536,-0.449 3.844,2.384 -0.633,-5.07 -1.84,-0.077 -3.067,-1.349 2.573,-0.25 7.174,3.299 2.264,0.124 2.579,-1.002 0.458,-0.559 5.014,3.306 1.092,5.541 9.139,2.313 0.169,-1.4 10.312,-2.752 23.146,15.914 -0.473,1.307 -32.405,33.016 -6.337,50.504 -3.333,-4.594 h 0.017 l 0,0.007 z" />
      <path
         style="stroke:#ffffff;stroke-width:3;stroke-miterlimit:10"
         id="1851"
         inkscape:label="L√∏dingen"
         inkscape:connector-curvature="0"
         stroke-miterlimit="10"
         d="m 1050.064,770.625 -0.032,-1.261 0.561,1.204 -0.529,0.057 0,0 0,0 z m -18.085,23.431 -0.729,-0.324 h -0.544 l 0.477,-1.111 1.969,-1.385 -0.446,-0.579 -3.739,-0.964 -0.292,-0.354 -1.738,0.851 -0.758,-0.666 -0.61,-0.928 -0.322,-2.101 -2.258,1.831 -0.288,0.952 -1.287,-0.498 -0.396,-1.699 -0.863,0.381 -0.14,0.48 -1.412,-0.903 -1.237,0.036 -1.071,0.568 -0.466,0.646 -1.971,0.961 -2.403,-1.922 0.414,-0.903 h 0.994 l 1.352,-0.584 0.393,-1.45 -0.384,-0.752 0.793,-2.606 6.504,-7.414 6.229,-13.278 2.797,-1.405 -2.546,-1.688 -0.199,-2.161 -1.763,-1.467 -1.919,-0.093 2.681,2.521 -9.93,17.305 -1.873,0.431 -0.872,-1.449 h -0.458 l -0.356,4.435 -1.518,1.674 -1.121,0.469 -5.068,6.34 -2.814,-0.286 -2.028,0.384 0.032,1.233 0.304,0.39 0.377,-0.349 1.678,-0.243 1.736,0.221 0.84,1.951 -0.313,1.044 -6.935,0.121 0.63,-5.92 7.249,-5.691 3.067,-8.747 8.069,-0.881 -2.479,-17.208 14.185,-3.524 5.616,10.749 -3.379,7.122 2.661,1.66 11.449,-19.483 4.558,-0.889 3.549,-15.561 5.243,6.146 -0.37,7.222 4.243,1.969 4.194,-2.053 -0.073,0.503 0.438,3.41 0.932,1.163 -1.391,-0.447 -1.121,4.164 -0.571,0.585 0.845,1.581 -0.147,1.271 -0.695,1.723 -4.103,5.194 -0.011,7.684 -2.558,3.209 -0.471,-0.24 -2.322,0.764 -0.422,1.449 -0.785,0.677 -2.875,0.374 -0.263,-0.894 0.221,-10.262 1.402,-1.759 -0.438,-0.627 -0.306,-2.689 -1.202,-1.425 -0.916,-7.05 -0.579,-1.331 -0.577,-0.539 1.479,12.165 -1.179,4.02 -1.263,0.259 -0.759,-0.235 -3.525,-4.47 -0.629,0.318 2.002,3.956 2.878,2.074 0.793,3.007 -2.313,1.643 -0.193,0.577 -0.592,-0.938 -0.289,-0.218 -1.635,-5.167 -2.235,4.717 0.224,2.795 1.391,1.36 -0.596,0.998 -2.313,1.471 -2.244,0.651 1.308,1.778 1.141,0.016 1.264,-0.555 -1.099,1.75 0.438,2.26 -0.54,0.404 -1.071,2.521 -0.602,0.498 -1.517,0.324 -1.163,1.046 -0.079,0.821 -0.271,0.518 1.308,1.141 0.248,0.55 -1.68,0.941 -3.667,-0.062 -0.02,0.004 0,0 0,0 z m -24.432,3.55 0.641,-2.784 2.416,-1.408 0.437,0.316 -0.135,0.771 -3.245,3.53 -0.114,-0.425 0,0 0,0 0,0 z" />
      <path
         style="stroke:#ffffff;stroke-width:3;stroke-miterlimit:10"
         id="1852"
         inkscape:label="Tjeldsund"
         inkscape:connector-curvature="0"
         stroke-miterlimit="10"
         d="m 1098.008,759.162 0.946,-1.151 0.064,-5.794 -0.612,-1.036 -5.065,-3.777 0.398,-2.888 -0.598,-3.652 1.475,-0.9 1.253,-1.43 0.33,-1.047 1.184,-0.622 2.321,1.223 2.063,2.072 -1.598,3.005 1.594,4.272 0.952,10.892 -1.249,0.049 -0.627,-0.354 -0.854,0.559 -1.977,0.579 0,0 0,0 0,0 z m -37.198,-13.738 -1.956,-0.88 0.365,-6.891 3.207,-5.542 13.538,-7.205 3.604,5.544 10.04,3.3 1.34,3.464 -2.489,-0.979 -6.385,0.972 -2.82,2.405 -3.146,-0.94 -1.439,0.51 -4.585,6.676 -1.393,-0.741 -0.915,-1.506 -0.318,-1.144 -2.926,-1.198 2.29,2.854 -4.057,2.183 -1.955,-0.882 0,0 0,0 z m 10.891,29.154 -0.802,-1.353 -1.271,-0.467 -0.261,-1.044 0.16,-1.021 -2.649,-0.825 2.148,-3.007 0.999,0.62 0.546,-2.059 3.332,-2.316 3.959,-1.12 -0.717,-0.829 -7.53,0.479 0.229,-2.729 0.915,-1.598 -0.048,-3.138 1.126,-2.419 0.551,-0.607 -0.227,-0.565 0.066,-1.021 1.416,-1.892 0.778,-0.416 1.818,-5.308 9.497,-2.888 6.318,4.993 0.496,0.666 -0.447,1.088 0.732,3.117 3.689,3.217 0.907,1.735 -1.533,1.543 -3.821,1.684 -0.372,0.774 2.917,2.282 -0.158,2.233 -3.574,3.535 -5.627,-0.938 -0.272,1.056 -3.132,0.277 -0.76,-0.226 -1.714,1.204 0.259,0.364 -0.278,0.561 -6.384,6.086 -1.287,0.268 h 0.01 l 0,0.004 z" />
      <path
         style="stroke:#ffffff;stroke-width:3;stroke-miterlimit:10"
         id="1853"
         inkscape:label="Evenes"
         inkscape:connector-curvature="0"
         stroke-miterlimit="10"
         d="m 1103.002,757.659 -0.856,-10.146 10.382,-2.969 9.711,-13.54 34.531,-2.316 -3.855,5.621 -0.076,10.32 2.989,-1.984 2.05,1.695 -3.377,3.551 -17.438,5.524 0.611,-2.993 1.362,-1.868 1.083,-0.317 1.695,-1.301 -3.359,-4.805 -5.221,-1.9 -0.748,-1.014 -3.909,3.352 0.107,0.833 -3.663,7.473 -14.847,5.116 -2.133,-0.168 -3.232,1.488 -0.772,-0.153 -0.585,0.55 -0.452,-0.042 0,0 0,-0.007 0,0 0,0 z m 24.811,-8.927 2.731,-3.604 0.992,0.866 -0.29,0.924 -2.134,2.172 -1.299,-0.358 0,0 0,0 0,0 z" />
      <path
         style="stroke:#ffffff;stroke-width:3;stroke-miterlimit:10"
         id="1854"
         inkscape:label="Ballangen"
         inkscape:connector-curvature="0"
         stroke-miterlimit="10"
         d="m 1155.062,829.062 -16.413,-11.291 -10.793,1.428 v 0.969 l -4.355,0.705 -4.097,-1.222 -1.26,-5.405 -10.853,-7.203 1.145,-3.759 -4.919,-4.795 -6.519,1.559 -13.293,-7.323 -8.936,1.634 1.564,-7.517 0.612,0.469 4.568,-2.598 0.269,0.875 -0.42,1.816 3.699,0.057 1.062,-0.468 1.8,0.749 0.855,1.502 1.334,1.313 1.77,0.355 -0.264,-1.39 0.422,-1.576 5.27,2.351 -1.272,0.302 -0.349,1.545 8.023,1.491 7.854,8.538 0.382,2.811 2.65,3.766 9.301,6.15 3.035,0.443 2.516,-0.614 -15.403,-9.987 0.276,-1.683 -0.322,-2.526 -1.879,-1.781 -0.649,-1.578 0.792,-1.092 0.077,-2.529 -0.79,-0.539 -0.558,-0.775 -20.843,-6.673 0.318,-0.43 1.273,-0.828 -3.267,-1.316 -1.841,0.192 -2.159,-0.826 -1.466,-4.141 0.137,-1.096 0.817,-1.408 8.187,-2.894 9.189,-6.377 1.316,-0.194 -0.615,3.071 1.92,-2.352 0.985,-2.429 0.825,-0.537 h 1.043 l 3.261,0.918 1.572,1.253 4.886,-3.445 2.03,0.939 0.451,0.942 1.453,1.53 8.41,2.349 0.43,1.953 -3.338,7.946 10.428,-5.513 1.79,-0.305 1.998,-2.84 0.54,-2.485 0.829,-0.446 2.369,9.725 6.604,3.587 7.559,11.599 -1.909,8.789 4.466,8.386 -0.966,3.696 5.47,2.585 -3.523,18.327 -6.56,-4.427 0,0 0,-0.002 0,0 0,0 z m -88.685,-42.816 -0.026,-1.471 3.638,-3.779 2.519,-0.255 3.146,1.073 0.052,0.688 -3.442,2.443 -5.887,1.301 0,0 0,0 z" />
      <path
         style="stroke:#ffffff;stroke-width:3;stroke-miterlimit:10"
         id="1856"
         inkscape:label="R√∏st"
         inkscape:connector-curvature="0"
         stroke-miterlimit="10"
         d="m 774.93,975.184 0.751,-2.877 3.194,0.388 -0.12,1.021 -2.71,1.782 -1.117,-0.312 0,0 0.002,-0.002 0,0 0,0 z m -11.81,12.8 1.283,-2.131 0.666,-0.339 -1.051,2.07 -0.898,0.4 0,0 0,0 0,0 z m 6.6,-4.101 -0.227,-1.285 0.759,-1.029 0.696,-0.052 -0.111,0.824 -1.117,1.542 0,0 0,0 0,0 z" />
      <path
         style="stroke:#ffffff;stroke-width:3;stroke-miterlimit:10"
         id="1857"
         inkscape:label="V√¶r√∏y"
         inkscape:connector-curvature="0"
         stroke-miterlimit="10"
         d="m 812.46,949.041 -0.938,-3.91 9.343,-8.854 0.955,0.098 0.973,0.714 -0.952,3.541 2.301,3.075 -1.288,-0.452 -0.829,-0.704 -0.4,4.646 -1.133,-3.964 -1.059,-1.081 -0.902,0.085 -0.765,0.54 0.26,2.202 -0.366,-0.235 -2.6,-0.665 -1.009,1.515 0.077,1.545 0.319,0.617 -0.442,0.455 -0.162,0.922 0.28,0.467 h -0.696 l -0.967,-0.557 0,0 0,0 z m 12.316,-22.593 -0.411,-1.039 1.236,-1.951 0.33,2.833 -0.432,0.69 -0.717,-0.533 h -0.006 l 0,0 0,0 z" />
      <path
         style="stroke:#ffffff;stroke-width:3;stroke-miterlimit:10"
         id="1859"
         inkscape:label="Flakstad"
         inkscape:connector-curvature="0"
         stroke-miterlimit="10"
         d="m 854.398,877.33 -8.173,0.103 -5.104,-12.374 -0.464,-0.393 0.564,-0.538 0.972,-2.896 2.229,-3.109 1.745,0.322 0.534,-1.021 0.257,-1.44 -1.763,-4.943 1.508,-0.47 0.775,0.254 0.729,-0.456 2.168,1.475 0.326,1.163 2.896,-0.778 0.597,0.931 -3.007,4.063 -1.451,3.963 0.473,0.118 1.675,-2.042 0.839,-0.027 -3.227,4.456 -1.796,0.57 -0.046,1.683 -3.125,-0.41 -0.039,0.532 2.789,2.911 5.174,-5.316 1.903,4.351 -0.797,5.99 1.488,3.48 -0.649,-0.152 0,0 0,0 z m 3.521,-4.399 0.47,-2.813 0.229,1.428 -0.292,1.905 -0.423,0.537 0.016,-1.057 0,0 0,0 0,0 z m 2.81,-1.83 -1.477,-10.605 -0.812,-1.13 -1.004,10.149 -0.774,1.185 -1.743,-3.194 -1.041,-4.375 1.567,-6.73 2.252,-0.353 -0.796,-2.136 0.551,-2.698 -0.233,-0.488 3.447,-0.745 1.069,-0.638 0.568,-0.723 1.816,2.076 -1.81,3.686 3.236,1.568 -0.42,-9.022 -1.771,-0.95 -1.431,-2.066 1.02,-5.665 0.957,-1.449 4.442,0.392 1.285,1.439 1.83,0.828 2.166,1.96 -3.105,17.727 0.377,1.962 -0.466,2.5 -1.229,1.146 -2.218,-2.427 -0.344,1.04 0.371,1.364 -2.155,3.49 -3.633,3.23 -0.492,-0.348 0,0 0,0 z" />
      <path
         style="stroke:#ffffff;stroke-width:3;stroke-miterlimit:10"
         id="1860"
         inkscape:label="Vestv√•g√∏y"
         inkscape:connector-curvature="0"
         stroke-miterlimit="10"
         d="m 902.166,801.326 1.406,-1.205 0.225,-0.421 0.254,0.484 0.06,0.561 -1.945,0.581 0,0 0,0 0,0 z m -24.291,57.244 -2.243,-4.099 -1.103,-1.115 1.599,-6.773 7.332,-10.642 2.716,-0.392 -1.302,-1.363 0.221,-1.854 h -0.471 l -7.343,7.733 h -1.676 l 1.815,-3.601 0.981,-0.198 0.891,0.138 0.934,-0.39 -1.364,-0.736 -4.833,-0.829 4.567,-1.735 0.542,-1.204 -0.416,-1.058 -3.744,-0.604 4.602,-5.019 7.899,-2.626 0.248,-0.782 -3.365,-0.644 2.292,-1.424 -0.224,-0.319 -9.959,1.787 0.846,-1.574 3.06,-2.745 0.997,-4.221 5.845,-5.008 0.792,0.104 1.857,1.116 1.366,1.893 0.232,1.448 0.897,1.862 0.732,-0.651 0.101,-1.713 0.33,-0.139 1.07,-1.374 1.705,0.745 0.764,0.887 0.576,0.13 1.591,-1.002 0.836,0.086 0.584,-0.522 -1.095,-2.854 0.453,0.089 1.344,-0.572 2.082,-4.428 1.554,0.129 1.068,-1.078 -0.326,-1.323 -0.464,-0.828 4.853,-1.104 0.509,0.519 3.071,7.135 -0.614,2.063 1.529,3.706 -1.087,0.267 -1.17,0.79 1.109,1.834 2.295,1.018 -0.713,-1.276 1.666,-0.361 -0.788,-1.747 2.286,-1.633 2.665,-0.372 4.393,4.846 -2.343,4.413 -0.558,3.963 -0.375,0.461 -0.344,-1.389 -1.287,-1.821 -2.937,7.25 -0.387,0.349 -0.558,-0.14 -0.176,1.112 -0.395,0.319 -2.934,-1.872 -1.417,1.359 -0.443,-0.392 -4.388,3.444 -0.278,-0.418 -0.749,-4.682 -0.55,0.907 -0.089,0.85 -3.594,0.765 3.003,1.377 -0.312,0.327 -0.65,1.812 -4.146,3.387 1.161,0.882 3.983,-0.152 0.369,1.013 -0.653,-0.253 -0.819,0.245 -0.186,1.562 0.648,0.691 0.676,0.171 0.556,2.009 -0.481,0.707 -0.731,0.617 -4.821,1.555 -1.769,-5.654 -0.549,-0.611 -2.555,7.083 1.795,1.973 -0.435,1.918 0.475,1.258 -0.492,0.765 -1.173,0.499 -0.643,0.51 -0.681,-2.282 -4.129,1.308 0.915,-2.28 -0.656,-0.323 -1.081,0.255 -0.424,0.468 v -2.503 l 1.353,-1.412 -0.558,-0.716 -0.914,-2.602 -0.814,-0.076 0.248,-0.987 -0.556,-0.329 -4.993,2.023 -0.21,1.109 0.16,0.532 1.069,0.628 0.391,0.611 -0.332,2.064 h 1.453 l 0.232,4.425 -0.508,0.117 -1.358,-0.312 -1.388,0.43 -0.607,0.861 0.231,0.431 2.023,-0.446 -3.175,3.857 -1.562,0.589 0,0 0.025,-0.002 0,0 z" />
      <path
         style="stroke:#ffffff;stroke-width:3;stroke-miterlimit:10"
         id="1865"
         inkscape:label="V√•gan"
         inkscape:connector-curvature="0"
         stroke-miterlimit="10"
         d="m 930.31,831.381 -0.412,-0.713 2.384,-3.455 -0.954,0.091 -0.928,-0.326 0.537,-1.296 v -1.151 l -1.343,-3.396 1.001,-2.404 7.264,-2.776 4.044,-3.259 -2.288,0.607 -2.167,1.487 -2.146,0.531 -0.913,-3.071 0.501,-2.064 0.503,-0.557 3.62,0.674 0.024,-1.21 -3.282,-2.771 -0.096,-4.919 1.925,-4.774 2.195,0.735 4.292,6.94 0.583,-0.049 -0.126,-1.335 -1.578,-2.567 2.633,-0.508 0.271,-1.293 -0.492,-2.937 1.179,0.98 0.576,2.884 1.19,0.5 0.632,-0.149 0.389,-0.368 -1.429,-6.623 -1.261,-0.954 -0.68,0.072 0.111,0.514 1.654,1.673 -2.822,0.135 -0.418,-0.623 -0.136,-0.943 0.577,-0.487 -0.724,-0.829 -0.614,-0.254 0.778,-1.454 -2.59,-1.275 1.175,-0.78 -0.637,-1.208 7.002,-3.106 1.288,0.998 2.36,5.579 0.42,0.104 0.153,-0.509 -0.063,-1.388 0.377,-0.144 2.934,3.737 9.634,-2.534 8.429,4.608 -0.345,3.43 5.172,0.454 -2.749,4.021 -1.749,0.915 -6.83,7.915 -0.495,-0.473 -0.705,-1.852 1.867,-8.851 2.823,-3.32 -2.862,-0.099 -0.52,-0.758 -0.314,-2.629 -3.021,-1.533 -0.221,0.411 0.642,4.6 -0.379,0.783 0.017,2.286 0.762,0.369 -1.57,6.53 -3.852,0.586 -0.423,0.355 1.003,1.506 3.252,0.015 0.184,1.754 -1.259,5.508 -0.444,-0.538 -0.134,-0.738 -0.455,-0.246 -0.45,1.514 -0.71,-1.442 -4.364,1.204 0.599,0.644 -1.047,1.774 -1.498,-2.67 -0.811,-0.396 -2.244,1.587 0.148,0.84 2.063,-0.861 0.223,0.509 -0.045,1.805 -2.878,2.282 -0.636,1.366 -0.722,0.594 -3.02,0.651 -0.55,0.524 0.074,-1.693 -0.844,-0.27 -1.304,0.562 -0.233,0.962 0.073,1.087 -0.38,0.771 -2.388,0.702 -1.668,-3.898 -0.34,1.168 0.479,2.74 -0.08,0.672 0.333,1.824 -8.759,3.146 -0.945,-0.481 0,0 -0.007,-0.008 0,0 0,0 z m -6.331,-18.782 -1.347,-2.061 0.66,-1.066 0.146,-4.701 -3.725,1.562 -1.027,0.082 -0.769,-0.717 -1.212,-3.521 1.376,0.62 1.405,-0.846 -0.486,-1.001 -0.865,-0.61 0.085,-0.722 1.16,-1.411 2.567,-0.502 0.595,-0.452 5.915,4.071 1.273,0.194 4.136,7.128 0.404,0.195 -0.853,0.132 -2.934,4.626 -3.127,0.336 -3.238,-3.685 -0.571,0.491 2.022,3.464 -1.59,-1.606 0,0 0,0 0,0 z m 64.429,-5.29 -0.791,-3.09 0.248,-2.035 -1.282,-3.772 2.51,-3.506 h 3.26 l 6.039,-4.896 6.87,0.252 -0.508,1.171 -1.66,1.497 -1.873,3.111 -0.281,-0.195 -0.038,-0.552 -1.582,-0.624 -1.525,1.409 0.332,0.886 -0.403,0.865 -1.964,2.089 -0.809,-0.404 -1.149,-0.093 -1.057,0.445 -0.444,1.097 2.912,0.547 -6.118,6.229 -0.687,-0.431 0,0 0,0 0,0 0,0 z m -22.708,24.053 1.122,-2.203 0.59,-0.432 0.336,0.56 1.096,0.727 -2.823,1.867 -0.321,-0.519 0,0 0,0 z m 5.246,-7.79 -2.301,-0.695 -0.09,-0.324 1.494,-4.435 4.62,0.306 1.34,1.782 -0.866,0.103 -0.401,-0.635 -2.01,3.855 -1.787,0.038 10e-4,0.005 0,0 0,0 z m 7.756,-7.146 -0.668,-0.776 -0.962,-0.074 -0.486,0.47 -0.707,-0.548 -1.729,-0.226 -0.341,-0.321 -0.227,-4.069 3.614,-7.267 3.169,-3.049 1.779,-0.937 2.438,2.099 0.682,1.431 -2.994,2.676 0.578,0.346 0.57,0.955 -1.018,4.369 -0.657,0.548 -1.004,0.309 -1.053,0.896 -0.393,3.358 -0.591,-0.19 0,0 0,0 0,0 0,0 z" />
      <path
         style="stroke:#ffffff;stroke-width:3;stroke-miterlimit:10"
         id="1866"
         inkscape:label="Hadsel"
         inkscape:connector-curvature="0"
         stroke-miterlimit="10"
         d="m 974.387,777.585 0.285,-2.067 0.295,-0.086 0.493,0.312 -0.255,1.18 -0.818,0.661 0,0 0,0 0,0 z m 14.139,13.084 -0.354,-2.234 1.294,-0.702 0.105,1.35 -0.664,1.782 -0.378,-0.195 h -0.003 l 0,-10e-4 0,0 z m -10.977,6.496 -2.723,-0.245 0.406,-3.731 -8.794,-4.365 -9.769,2.478 -2.242,-3.646 0.384,-0.232 0.295,-1.84 -3.266,-3.801 -0.788,-0.481 1.039,-1.71 5.26,-3.373 3.352,0.744 1.412,3.567 -0.307,1.558 -0.539,0.852 1.122,1.223 2.096,1.045 -0.062,-2.166 -1.299,-3.952 0.716,-2.747 1.397,-1.058 1.185,-0.162 0.361,0.459 3.768,-0.219 2.132,1.409 0.415,-0.353 0.413,7.347 -3.682,4.555 1.335,-0.33 3.84,-3.867 2.449,-0.531 0.832,0.193 -1.865,-4.307 -0.388,-0.279 1.353,-3.981 -0.451,-1.585 -0.558,-0.815 0.688,-1.396 -0.517,-0.418 -0.102,-0.905 1.241,1.096 -0.02,0.566 3.629,-0.378 0.9,0.216 2.466,2.348 1.003,-1.748 4.903,-4.58 3.715,-0.41 3.366,-2.206 0.898,0.081 0.096,0.226 -0.336,0.424 0.243,0.55 0.497,0.394 -9.245,19.244 -2.084,-0.417 -0.854,-1.192 -0.451,-0.112 -0.604,1.224 -0.643,5.21 -4.917,6.754 -2.701,-0.225 0,0 0,0 0,0 0,0 z m 17.949,-33.08 -0.388,-1.252 1.717,-0.823 1.88,0.039 0.459,0.911 -3.668,1.125 0,0 0,0 0,0 0,0 z m -6.08,29.95 3.166,-4.445 v -1.508 l 2.652,-6.943 0.871,-0.877 -0.975,-0.937 1.843,-3.939 0.697,-0.753 0.589,-1.458 2.438,-2.932 -0.189,-1.441 0.672,-2.765 1.236,-0.457 2.258,0.609 1.751,-1.896 -5.469,-4.547 -0.369,-0.952 1.654,-0.086 0.458,-0.337 -0.664,-1.19 -0.771,-0.771 1.177,-1.17 0.471,-0.239 1.112,1.856 2.368,2.255 3.612,0.116 0.683,0.313 0.568,-1.707 -1.532,-0.708 -3.058,0.693 -1.195,-1.467 -0.89,-2.079 -2.008,-1.497 -5.507,0.294 1.33,-7.729 -0.283,-0.9 4.255,-1.022 5.426,1.021 6.864,6.567 2.527,17.244 -8.214,0.879 -2.92,8.76 -7.344,5.707 -0.615,6.094 -5.962,4.93 h -3.074 l 0.361,-0.586 0,0 0,0 0,0 0,0 z m -5.415,-49.597 -4.456,-0.897 -5.096,0.736 -2.955,-0.363 -0.206,-2.776 -0.179,-0.385 h 1.031 l 0.032,-1.617 -0.99,-1.07 -2.336,0.855 -0.362,-0.446 -0.354,-1.651 -1.737,-1.692 -0.541,0.516 10e-4,-1.393 2.198,-1.487 0.635,-1.039 3.126,-1.477 -0.627,0.634 -0.351,1.099 5.999,-3.993 0.719,-0.103 1.368,1.743 0.36,-0.386 -0.859,-2.643 2.315,-0.723 3.048,0.152 0.122,-0.313 1.038,0.368 -1.431,8.284 8.729,-5.363 4.331,5.005 -2.396,2.571 -2.198,0.415 -7.978,7.439 0,0 0,0 z m -5.242,3.402 -1.339,-0.816 0.35,-0.361 1.287,0.255 0.518,0.604 -0.816,0.318 0,0 0,0 0,0 z m -14.855,15.668 -1.077,-1.318 0.798,-1.172 -8.692,-7.81 -1.026,-1.95 0.782,-1.955 2.793,-2.459 2.311,-0.809 2.718,1.343 3.172,-0.682 4.48,0.9 1.401,0.737 1.471,-1.039 3.487,1.065 0.867,0.735 3.696,0.288 1.583,0.711 0.59,0.709 -0.516,3.463 -6.714,7.341 -11.264,1.54 -0.468,0.451 -0.392,-0.089 0,0 0,0 0,0 z" />
      <path
         style="stroke:#ffffff;stroke-width:3;stroke-miterlimit:10"
         id="1867"
         inkscape:label="B√∏ (Nordland)"
         inkscape:connector-curvature="0"
         stroke-miterlimit="10"
         d="m 943.728,743.851 -0.585,-1.351 -0.433,-0.195 -0.444,1.387 -0.845,-0.262 0.084,-0.604 -0.874,-0.289 -0.991,0.241 0.798,-1.681 -0.293,-0.152 -0.281,-0.553 -0.563,-0.619 -0.36,-0.067 0.333,-0.701 -0.201,-1.737 -0.379,-0.609 -0.389,-1.466 0.721,-1.438 -0.391,-0.292 v -0.49 l 0.415,-0.188 1.61,-1.828 -0.32,-1.949 0.975,-1.507 v -0.902 l -0.646,-0.221 -1.109,0.86 -1.385,3.963 -1.776,0.397 -0.779,-0.923 0.064,-1.343 1.66,-0.311 -0.659,-1.004 -1.876,-0.578 -1.41,-0.046 1.069,-1.429 2.103,-1.343 2.217,0.256 1.412,-0.236 -0.642,-0.872 -0.98,-0.746 -0.271,-0.461 -0.465,0.271 -0.602,0.104 -0.122,-0.387 0.173,-1.929 4.057,-3.085 1.703,-0.442 0.479,0.222 0.581,0.485 0.355,0.553 2.591,-2.242 1.679,-0.039 -0.236,-0.825 -0.304,-0.355 -3.179,0.651 -1.923,-1.633 -2.285,0.211 -0.655,-0.416 -0.725,-1.771 -0.74,-0.266 -0.652,-4.006 1.032,0.375 1.809,-1.246 0.561,-0.076 3.13,-4.782 -0.868,-0.718 0.72,-1.684 0.705,0.34 0.639,0.565 2.02,3.205 -0.089,5.789 0.461,0.337 -0.009,4.88 0.741,-0.271 0.14,0.486 1.302,2.08 0.15,0.747 2.489,-2.328 0.262,-0.551 -0.265,-0.276 -0.673,-0.11 -0.795,0.278 -0.779,-0.097 -1.045,-1.237 -0.012,-3.235 0.441,-0.082 0.571,-3.287 0.201,-0.367 h 1.035 l 0.963,-0.726 -1.914,-1.092 -0.531,-2.097 -0.422,-0.624 0.241,-4.606 4.411,-1.895 0.835,0.184 -0.507,1.916 0.365,0.251 0.354,0.493 -0.097,0.898 0.378,2.221 -0.238,0.328 0.522,0.547 -1.17,7.358 0.973,-0.129 0.508,-0.293 0.34,0.334 0.193,0.735 -0.13,1.598 0.166,0.906 2.209,-1.989 0.503,-1.957 6.616,1.045 2.72,6.557 -3.346,-0.775 -0.266,3.433 -0.348,0.415 -0.239,0.9 0.198,0.886 -0.324,1.735 -0.38,0.126 -0.587,5.335 0.308,0.518 0.022,0.989 -2.61,-0.287 -0.903,0.715 -1.113,-0.514 0.586,-2.132 0.557,-0.777 -0.5,-1.835 -1.644,0.901 -0.049,-3.364 -0.844,0.511 -0.72,-0.585 0.026,-1.578 -0.566,-0.63 -0.661,1.646 0.52,5.373 -0.44,0.492 0.221,1.901 0.382,0.52 -0.277,1.107 -0.436,0.587 -0.64,-0.975 -1.025,0.898 -0.979,-1.142 -0.625,0.285 -0.381,0.801 1.002,1.562 0.553,0.148 0.842,0.969 0.08,0.715 1.066,0.583 -3.184,4.04 -0.414,-0.578 -1.482,-0.431 -3.423,3.817 -1.441,0.476 -0.896,0.662 -0.646,0.177 -0.465,-0.135 0,0 0.02,0.005 0,0 z m -13.074,2.681 -0.073,-0.558 1.11,-1.021 -0.621,1.511 -0.416,0.068 0,0 0,0 0,0 z m 1.107,-2.798 -0.403,-1.423 1.322,-1.916 -0.919,3.339 0,0 0,0 z" />
      <path
         style="stroke:#ffffff;stroke-width:3;stroke-miterlimit:10"
         id="1868"
         inkscape:label="√òksnes"
         inkscape:connector-curvature="0"
         stroke-miterlimit="10"
         d="m 997.79,677.158 -0.066,-0.375 2.397,-0.661 -0.973,0.765 -1.195,0.433 -0.163,-0.162 0,0 0,0 0,0 z m -33.829,10.994 0.873,-0.889 0.67,-0.154 -0.593,0.706 -0.95,0.337 0,0 0,0 0,0 z m 0.384,5.185 0.116,-0.719 0.376,-0.538 0.591,0.216 -0.261,1.096 -0.822,-0.055 0,0 0,0 0,0 0,0 z m 4.549,7.394 -0.243,-0.183 1.786,-2.933 0.21,0.094 -1.047,2.527 -0.706,0.495 0,0 0,0 0,0 z m -4.514,0.265 0.16,-0.662 -2.041,-3.533 v -0.859 l 0.61,-1.048 2.078,0.417 0.746,-0.097 0.11,2.215 0.726,1.343 0.171,1.444 -1.63,0.933 -0.928,-0.15 -0.002,-0.003 0,0 0,0 z m -5.648,4.151 -0.485,-1.098 2.239,-3.321 1.345,-1.018 1.276,1.514 -2.212,2.938 -2.163,0.985 0,0 0,0 0,0 z m 0.272,-5.848 -0.694,-0.52 1.217,-3.4 -0.237,-1.679 -0.637,-0.356 1.125,-1.954 0.137,-0.605 1.098,2.033 0.582,0.526 -0.414,0.834 -0.023,3.967 -0.649,0.666 -1.505,0.488 0,0 0,0 0,0 z m 8.318,-13.665 -3.081,-1.09 1.73,-5.696 -1.114,-1.519 -0.097,-0.47 0.378,-0.247 0.706,-1.047 0.384,-1.236 1.796,-0.7 2.724,2.356 1.837,-1.409 0.803,0.482 1.289,2.153 0.801,7.122 -6.896,1.987 -1.26,-0.686 0,0 0,0 0,0 z m 1.432,28.603 -2.538,-4.928 -5.245,-1.343 1.491,-2.082 3.96,-2.516 2.432,-0.479 1.209,4.523 0.294,0.496 0.867,5.922 1.813,-8.811 1.462,-0.945 2.727,1.363 0.618,-0.273 -4.943,-4.34 2.309,-3.034 -4.699,-4.513 0.129,-2.385 3.372,-3.36 0.918,0.407 3.653,5.864 0.441,5.042 0.972,1.602 0.928,-1.661 -0.729,-8.637 1.507,-1.536 1.912,0.942 2.171,2.282 1.614,3.985 1.109,0.697 0.495,-0.976 -2.184,-6.729 -5.346,-3.054 0.61,-1.239 0.449,-4.671 h -0.641 l -2.389,2.436 -0.098,-4.076 1.803,-0.029 1.083,0.783 0.472,-1.194 -5.652,-5.542 -0.959,-8.499 0.405,-1.395 -0.595,-0.611 -0.596,-1.079 3.137,-1.082 1.692,-1.146 1.538,-2.44 2.908,-1.085 0.918,0.215 1.732,1.571 0.372,6.008 -1.715,2.904 -3.158,3.007 0.844,0.324 1.34,-0.14 1.882,-2.114 0.863,0.542 -0.491,0.655 2.988,2.087 1.498,-1.185 0.752,-0.32 1.296,0.056 0.381,-0.987 1.503,-0.714 0.765,-0.098 0.546,0.359 0.132,1.507 -0.572,1.889 -1.413,1.643 -2.278,-1.305 -1.81,-0.264 0.239,1.504 -1.01,-0.363 -1.57,0.104 0.277,1.43 4.941,2.737 2.227,-1.363 2.645,-0.072 -0.625,0.251 -1.631,1.618 -0.201,1.759 2.368,1.779 0.219,1.691 -1.18,5.85 -0.666,0.838 -0.631,4.071 0.723,1.929 0.798,0.821 -3.856,3.21 -0.556,3.958 -6.453,-0.239 -1.243,0.856 -2.407,0.639 -1.293,-0.028 -7.101,11.239 -3.039,1.311 -1.8,0.234 -1.442,-2.061 0.006,0.003 0,0 z" />
      <path
         style="stroke:#ffffff;stroke-width:3;stroke-miterlimit:10"
         id="1870"
         inkscape:label="Sortland"
         inkscape:connector-curvature="0"
         stroke-miterlimit="10"
         d="m 1011.422,747.126 -6.141,-5.975 3.537,-3.259 2.282,-0.161 1.26,-3.619 0.37,-0.456 2.98,2.894 1.553,0.001 0.428,-0.423 -3.812,-3.497 1.074,-0.579 8.768,-1.643 1.607,4.267 0.354,-0.763 0.677,-0.742 1.785,-0.277 0.365,-0.437 -10.351,-5.579 -2.536,-2.867 0.795,-1.411 -3.978,-7.566 1.032,-3.127 3.809,0.747 8.666,-3.699 3.98,5.562 1.945,1.532 0.774,-0.435 -4.695,-7.69 -0.147,-1.063 -1.255,-0.152 -8.175,3.829 -2.314,-2.709 -1.542,-0.976 -1.177,-2.429 0.903,-3.66 -0.677,-1.374 -0.65,-0.569 -0.248,-3.487 -0.47,-1.086 3.559,-0.564 0.978,1.247 1.454,-0.714 0.222,-1.924 0.84,-0.676 7.708,0.97 2.925,1.494 0.969,1.376 0.654,5.862 2.851,1.036 2.902,-6.177 -3.342,-3.785 2.583,-2.103 2.366,0.134 1.053,-14.1 -1.092,-3.143 -0.498,-10.766 -1.226,-1.193 0.621,-0.529 1.755,-0.431 2.547,1.445 0.5,0.981 0.144,6.426 4.396,5.193 -4.161,23.236 -4.378,7.194 -2.54,2.104 1.711,0.473 3.887,-2.004 -0.103,-0.673 5.963,-6.59 0.91,-3.153 1.159,-0.729 2.166,0.076 1.536,3.31 -0.063,6.151 -7.572,4.846 -0.41,3.5 -6.82,0.811 1.76,6.57 -1.978,6.029 -8.474,3.99 2.827,6.837 -5.568,6.247 2.093,4.818 -13.794,3.212 -3.797,-3.435 0,0 10e-4,-10e-4 0,0 0,0 z m -27.446,-13.609 1.253,-7.675 -0.741,-0.291 -0.805,-0.699 0.708,-0.051 0.779,-0.961 -0.477,-1.229 2.407,-4.875 0.896,-0.38 1.357,1.463 2.896,1.346 1.03,-0.123 -2.776,-2.598 0.354,-1.822 -0.957,-1.597 -0.183,-5.337 -3.334,-0.922 -0.977,0.219 0.193,0.469 -1.132,-0.195 -3.193,-1.613 -0.229,0.406 0.261,0.783 3.334,4.341 0.685,0.257 -0.235,0.447 -0.661,0.342 -0.381,-0.391 -4.911,7.907 -0.479,-0.336 -0.383,-1.03 -0.829,-0.725 -0.481,-0.205 0.989,-1.705 -0.1,-1.462 -1.242,-2.247 5.775,-9.253 1.971,0.271 2.864,-1.644 6.653,0.188 0.575,-4.041 3.993,-3.335 -1.85,-2.073 0.499,-0.172 1.13,-1.085 3.176,-7.448 0.709,0.238 2.314,1.89 1.138,0.26 1.1,2.016 -1.601,6.302 1.069,0.886 -0.314,0.746 -1.631,1.541 -5.965,0.525 2.965,2.273 0.843,3.707 -2.688,2.356 3.672,1.188 2.973,0.12 2.601,1.463 1.689,1.713 1.15,7.142 -2.058,4.823 -12.594,10.067 -4.511,-5.122 -8.285,4.945 0,0 v 0.002 l 0.002,0 0,0 z m -17.028,-5.386 -0.553,-3.483 0.525,-3.311 -0.228,-1.746 -0.497,-0.289 0.079,-3.292 3.222,0.715 5.091,-0.637 0.618,-0.914 0.935,-0.603 0.209,1.312 -2.188,3.919 0.504,0.512 0.344,1.362 -2.674,3.331 -2.038,-1.469 -0.742,-1.107 -1.789,5.466 -0.717,0.689 -0.101,-0.455 0,0 0,0 z" />
      <path
         style="stroke:#ffffff;stroke-width:3;stroke-miterlimit:10"
         id="1871"
         inkscape:label="Andenes"
         inkscape:connector-curvature="0"
         stroke-miterlimit="10"
         d="m 1009.967,680.88 -2.562,-2.554 0.04,-12.998 -0.997,-3.293 0.017,-2.139 0.967,-1.815 0.93,-5.48 1.703,-0.89 1.255,-8.312 2.488,-3.688 -0.442,-0.711 -0.113,-1.02 0.646,-2.845 3.438,-5.165 2.862,-0.809 0.146,-0.786 0.476,-0.788 1.378,-0.346 2.033,-1.725 1.144,-0.116 2.203,-1.49 2.432,-4.283 0.205,-4.368 2.259,-2.371 -0.875,-3.185 -0.548,-0.437 0.717,-1.065 0.272,-2.202 -1.17,-0.253 -0.727,0.144 0.607,-0.625 0.271,-1.818 9.338,-8.91 -0.599,-1.869 2.673,-0.072 1.835,-0.796 4.455,-5.098 4.289,6.139 1.038,5.031 -4.521,17.347 0.666,0.846 0.739,2.594 -0.861,3.06 -11.054,18.496 -0.685,3.518 -1.583,1.572 0.249,3.284 -6.534,4.697 -1.951,2.428 -4.223,1.645 -0.851,1.29 -0.4,-0.499 -1.732,3.872 -0.378,-0.72 -1.04,-4.787 -5.682,-1.54 4.116,6.399 -0.3,8.292 -4.439,11.444 -1.131,1.255 -2.476,-1.485 -0.013,0 0,0 0,0 z m 22.722,20.476 -2.397,-7.444 -12.403,-9.115 1.262,-5.938 2.467,0.053 -0.787,-5.253 1.752,-7.24 -0.314,-0.852 -0.525,-0.183 5.48,-2.734 0.755,-0.796 1.656,0.385 1.504,1.346 6.291,-1.314 1.179,27.081 -3.812,1.757 -1.423,1.208 3.326,4.046 -2.679,5.427 -1.331,-0.435 0,0 -10e-4,10e-4 0,0 0,0 z" />
      <path
         style="stroke:#ffffff;stroke-width:3;stroke-miterlimit:10"
         id="1874"
         inkscape:label="Moskenes"
         inkscape:connector-curvature="0"
         stroke-miterlimit="10"
         d="m 828.027,908.791 0.84,-1.072 -0.526,-0.476 -0.348,-1.111 2.118,-1.488 -0.021,-1.027 -0.398,-0.695 0.617,-0.257 0.902,-1.11 -0.541,-4.316 0.241,-1.319 -0.354,-2.264 3.105,-4.749 -0.477,-1.569 -0.471,-0.742 0.607,-0.577 0.978,-1.896 -0.531,-4.006 1.439,-2.808 2.211,0.536 0.6,-0.887 0.033,-9.358 0.543,0.286 1.579,-0.23 0.178,-2.744 0.438,0.312 4.772,12.477 8.87,0.006 -0.312,1.424 -2.233,3.036 -1.289,0.053 -1.33,-2.132 -1.209,0.596 -1.058,1.795 -1.822,-0.979 -1.684,-4.562 -1.556,-1.819 -0.819,1.155 1.904,5.037 -2.775,-1.494 0.118,1.61 0.49,0.585 -0.649,1.166 -0.421,1.963 2.382,-1.408 4.629,1.266 1.144,-0.378 0.895,0.148 -1.61,1.498 0.338,0.658 0.582,-0.18 0.544,0.027 -1.176,2.041 -2.31,0.747 1.278,1.595 -0.397,1.274 -0.787,0.646 -0.874,0.041 0.247,2.434 -4.59,2.588 -0.686,0.118 -0.213,0.387 -1.768,0.433 -0.56,1.027 -2.036,1.41 0.278,0.769 -1.901,4.623 -2.943,1.779 -2.224,0.11 0,0 -10e-4,-0.003 0,0 0,0 z" />
    </g>
  </g>
</svg>
