<?xml version="1.0" encoding="UTF-8" standalone="no"?>
<!-- Created with Inkscape (http://www.inkscape.org/) -->

<svg
   xmlns:dc="http://purl.org/dc/elements/1.1/"
   xmlns:cc="http://creativecommons.org/ns#"
   xmlns:rdf="http://www.w3.org/1999/02/22-rdf-syntax-ns#"
   xmlns:svg="http://www.w3.org/2000/svg"
   xmlns="http://www.w3.org/2000/svg"
   xmlns:sodipodi="http://sodipodi.sourceforge.net/DTD/sodipodi-0.dtd"
   xmlns:inkscape="http://www.inkscape.org/namespaces/inkscape"
   width="400"
   height="340"
   id="svg3927"
   version="1.1"
   inkscape:version="0.48.4 r9939"
   sodipodi:docname="20.svg">
  <defs
     id="defs3929" />
  <sodipodi:namedview
     id="base"
     pagecolor="#ffffff"
     bordercolor="#666666"
     borderopacity="1.0"
     inkscape:pageopacity="0.0"
     inkscape:pageshadow="2"
     inkscape:zoom="0.35"
     inkscape:cx="191.0372"
     inkscape:cy="520"
     inkscape:document-units="px"
     inkscape:current-layer="layer1"
     showgrid="false"
     inkscape:window-width="844"
     inkscape:window-height="652"
     inkscape:window-x="436"
     inkscape:window-y="101"
     inkscape:window-maximized="0"
     width="744.09px" />
  <metadata
     id="metadata3932">
    <rdf:RDF>
      <cc:Work
         rdf:about="">
        <dc:format>image/svg+xml</dc:format>
        <dc:type
           rdf:resource="http://purl.org/dc/dcmitype/StillImage" />
        <dc:title></dc:title>
      </cc:Work>
    </rdf:RDF>
  </metadata>
  <g
     inkscape:label="Layer 1"
     inkscape:groupmode="layer"
     id="layer1"
     transform="translate(0,-712.36207)">
    <g
       transform="matrix(0.5,0,0,0.5,-659.50789,712.15164)"
       id="20"
       inkscape:label="Finnmark">
      <path
         style="stroke:#ffffff;stroke-width:3;stroke-miterlimit:10"
         id="2002"
         inkscape:label="Vard√∏"
         inkscape:connector-curvature="0"
         stroke-miterlimit="10"
         d="m 2026.094,134.326 -2.895,-5.268 4.045,5.554 -1.15,-0.286 0,0 0,0 0,0 z m -43.699,42.239 -15.732,-3.833 29.161,-47.903 2.033,7.348 1.935,-0.278 1.963,0.463 0.929,0.632 1.587,-3.629 5.733,-5.369 1.707,0.438 1.587,1.061 0.804,1.617 6.191,4.217 8.625,17.628 1.589,1.487 -0.498,1.616 -11.561,9.021 -2.42,0.36 -0.365,1.104 -6.025,4.754 -8.535,3.528 -2.818,4.588 -0.124,4.926 -15.766,-3.776 0,0 0,0 z" />
      <path
         style="stroke:#ffffff;stroke-width:3;stroke-miterlimit:10"
         id="2003"
         inkscape:label="Vads√∏"
         inkscape:connector-curvature="0"
         stroke-miterlimit="10"
         d="m 1961.79,225.083 -0.693,-1.286 0.551,0.084 0.811,1.267 -0.668,-0.063 v -0.002 l -10e-4,0 0,0 z m 21.529,-9.587 -0.168,-0.584 -0.526,-0.859 -0.422,-0.379 4.406,-0.497 0.51,0.341 0.404,0.509 -4.204,1.469 0,0 0,0 0,0 z m -63.784,11.625 0.204,-6.882 -7.193,-13.75 0.409,-16.711 -4.748,-14.109 -12.502,3.811 -7.66,-3.056 3.631,-1.708 0.41,-9.363 7.171,-7.45 17.021,4.41 11.594,6.953 6.423,0.318 -2.723,6.227 34.261,-2.765 31.268,7.654 -4.057,2.902 -1.918,2.945 -0.441,2.208 2.986,4.536 1.406,1 -0.12,1.864 -8.813,10.467 -1.845,1.231 -2.732,5.952 -13.792,8.573 -27.166,1.823 -3.195,1.865 -3.487,0.499 -4.072,-0.688 -10.312,1.246 0,0 -0.01,-0.002 0,0 0,0 z" />
      <path
         style="opacity:0.98999999;stroke:#ffffff;stroke-width:3;stroke-miterlimit:10"
         id="2004"
         inkscape:label="Hammerfest"
         inkscape:connector-curvature="0"
         stroke-miterlimit="10"
         enable-background="new    "
         d="m 1505.006,233.347 1.782,-1.331 1.112,0.237 -0.116,0.723 -2.778,0.371 0,0 0,0 0,0 z m -40.786,36.53 -0.236,-5.116 1.188,8.869 -0.952,-3.753 0,0 0,0 0,0 z m 4.51,-65.081 -0.709,-2.007 2.43,0.147 0.738,-0.426 2.075,-0.023 0.354,1.833 -4.888,0.476 0,0 0,0 0,0 z m -0.026,16.417 0.079,-2.058 0.678,0.254 0.557,1.969 -0.731,1.715 -0.583,-1.88 0,0 0,0 0,0 z m -1.277,47.752 0,-3.167 -0.531,-0.511 -2.353,-0.809 -0.508,0.241 3.732,-8.789 1.387,0.24 2.963,-2.412 1.82,-2.611 -4.704,-5.749 -1.062,-0.107 0.857,-4.251 -4.115,-4.722 2.194,-4.216 -9.36,-5.856 -0.215,-1.869 0.519,-2.471 1.098,1.299 0.545,2.605 0.894,1.109 0.902,-1.27 2.26,-0.507 0.517,4.011 3.948,-1.289 2.185,1.137 -2.546,6.187 2.704,-0.125 2.688,2.642 3.896,-0.295 -1.163,-3.599 0.67,-0.47 1.423,-0.47 0.466,-1.231 -0.597,-1.167 -0.113,-4.733 3.212,-0.42 0.194,-1.936 1.172,-2.151 3.316,0.65 0.037,-1.08 -4.806,-1.856 -0.218,-1.108 -0.966,-0.799 -1.708,-0.412 -5.044,-3.333 0.895,-2.513 3.76,1.416 0.17,-1.466 -0.929,-1.268 -2.385,-1.635 1.513,-0.15 2.097,0.436 6.35,4.195 0.118,-1.739 -3.141,-6.062 0.857,0.164 7.603,6.741 1.477,-0.465 -0.952,-1.41 1.461,-0.097 1.246,-0.938 -2.45,-3.142 0.099,-2.045 -1.34,-1.874 -0.904,-7.018 0.452,-0.4 3.968,2.979 1.208,3.254 4.271,-1.525 -0.196,1.603 0.361,0.718 2.12,1.106 -0.129,1.572 2.372,0.638 1.119,0.986 0.158,1.179 -1.735,1.28 -4.061,-0.664 -1.656,2.286 5.048,1.224 -1.185,1.294 -1.636,0.563 0.531,1.654 -0.314,3.654 -0.854,1.47 -4.127,-2.267 2.247,6.148 0.667,0.351 -1.447,1.516 -0.68,-0.628 -2.059,-0.08 0.443,1.315 -0.788,1.582 0.314,1.614 1.61,1.108 -0.696,1.049 -3.123,0.79 v 0.803 l -4.357,-3.172 -0.732,3.614 1.403,1.825 -0.646,1.163 -0.32,1.542 1.472,-0.47 1.415,1.58 -0.593,2.799 -3.932,1.732 -1.837,1.758 3.68,0.423 0.63,0.914 -1.272,9.455 -0.764,-0.562 -1.379,-1.99 -3.844,-2.601 -0.955,0.821 3.598,5.898 -2.113,0.886 -5.168,-1.262 -1.027,0.659 -0.345,1.076 1.767,1.768 0.975,-0.338 1.976,4.901 -2.054,1.497 -2.574,0.023 -1.74,3.021 -2.621,0.345 -1.584,1.478 -0.395,-2.417 0,0 0,0.002 0,0 0,0 z m 12.44,23.198 -2.148,-1.706 4.451,1.116 4.141,-1.311 -6.076,-3.285 -1.162,-3.767 4.343,-5.834 0.192,-1.756 1.033,0.098 0.424,-1.627 -0.195,-2.153 5.26,-5.975 4.133,2.673 0.927,1.129 -0.035,-4.481 1.739,-1.083 -0.875,-1.206 -3.244,-1.021 -1.086,-1.088 -0.024,-2.249 0.945,-0.324 3.281,-0.066 0.922,0.735 4.593,7.693 0.321,4.307 1.744,1.515 0.979,-2.52 0.479,-9.438 -1.321,0.632 -1.384,-0.313 -2.228,-3.886 1.46,-0.593 9.029,2.5 -0.11,-1.273 -2.01,-2.216 1.115,-2.59 1.263,-1.204 1.942,0.697 3.124,2.222 2.346,0.684 -0.246,-1.148 -5.185,-3.594 0.742,-1.122 -1.833,-2.579 -2.062,-0.817 -0.038,-2.114 0.76,-2.349 -4.251,1.278 -3.183,-1.604 6.541,-2.833 1.732,0.354 4.688,-0.43 0.916,-0.367 0.159,4.379 1.817,1.104 0.835,0.183 0.308,0.774 -1.542,7.786 0.932,1.039 0.218,1.883 0.147,0.371 -0.397,0.516 0.192,0.929 2.695,2.648 0.569,2.271 -0.636,3.027 -15.786,16.009 -12.13,-1.22 -2.723,11.347 -8.742,2.206 -2.785,-0.963 0,0 0,0 0,0 z m 45.971,-50.148 -3.738,-2.562 -0.468,0.813 -0.637,0.432 -0.636,-0.216 3.182,-7.927 -0.318,-0.731 -1.457,-0.647 -1.088,0.023 2.361,-4.389 -2.68,-0.012 -2.703,-4.839 0.539,-8.207 0.948,-2.121 5.759,-1.531 2.229,1.482 0.865,1.864 1.217,1.188 0.374,-0.051 -1.826,3.032 -0.136,1.037 -0.265,0.583 1.353,0.355 1.459,-0.971 2.031,-3.658 7.789,0.305 2.844,1.692 2.625,0.74 3.855,4.752 -10.537,17.555 -11.288,4.133 -1.652,-2.121 0,0 -10e-4,-0.003 0,0 0,0 z m -20.965,8.351 2.963,-2.815 0.763,0.977 -3.572,2.819 -0.154,-0.981 0,0 0,0 0,0 z" />
      <path
         style="stroke:#ffffff;stroke-width:3;stroke-miterlimit:10"
         id="2011"
         inkscape:label="Kautokeino"
         inkscape:connector-curvature="0"
         stroke-miterlimit="10"
         d="m 1579.744,632.223 -5.683,-4.794 -18.354,3.974 -21.977,-6.83 -10.505,7.076 -7.03,-19.793 -16.393,-19.976 -1.327,-3.496 -17.736,-19.932 23.148,-7.153 9.957,-9.618 0.072,-7.065 0.801,-2.104 -3.52,-15.755 -18.798,-22.271 -1.61,-0.124 -8.171,-21.893 14.57,-9.385 15.147,-2.4 -1.029,-2.634 -0.199,-5.352 1.256,-1.275 -0.811,-11.239 6.48,-9.777 -4.657,-3.426 1.19,-2.922 20.223,-5.102 15.309,-8.92 58.459,-5.577 8.251,10.987 1.961,-1.503 5.771,7.528 1.991,1.052 -2.318,20.723 3.26,6.745 -1.719,6.742 -3.873,1.585 1.196,5.047 6.944,3.219 11.406,20.944 25.163,13.213 11.002,22.081 25.616,8.854 5.614,9.577 10.619,-0.239 13.789,-5.264 -6.428,7.978 -6.242,18.017 5.031,25.898 -1.239,5.658 -6.231,3.413 -0.83,-0.038 -0.645,0.192 -2.249,2.204 -0.537,4.173 1.094,6.797 -1.539,-0.091 -10.667,-13.361 -41.183,-7.517 -7.336,-3.512 -2.058,-0.24 -2.69,-7.216 -5.624,3.039 -8.939,-7.494 h -8.626 l -6.541,5.365 -1.881,24.072 -15.656,6.426 -17.2,16.995 -5.271,-4.276 0,0 0,-0.01 0,0 0,0 z" />
      <path
         style="stroke:#ffffff;stroke-width:3;stroke-miterlimit:10"
         id="2012"
         inkscape:label="Alta"
         inkscape:connector-curvature="0"
         stroke-miterlimit="10"
         d="m 1507.679,441.648 -10.065,-4.548 -0.231,-0.303 -3.632,-1.743 -7.167,-13.779 -3.485,-1.5 -2.102,-2.087 3.357,-9.835 0.052,-1.656 -6.792,-3.59 3.018,-6.769 -2.044,-2.583 -7.547,-0.245 -11.629,-4.245 -6.236,-8.197 -0.317,-2.857 3.313,-15.376 13.333,-6.126 2.892,2.065 4.145,-2.133 -0.179,-1.383 -2.373,-1.847 -2.761,-9.147 -8.604,-5.655 -2.89,-5.363 -1.706,-0.697 0.112,-1.866 1.555,-2.407 1.791,0.646 1.902,-0.335 0.383,0.055 0.521,0.54 0.432,3.118 2.029,-0.817 1.053,-1.065 1.727,0.519 1.67,1.115 -1.376,3.298 1.123,0.031 4.144,-3.799 20.182,-1.054 2.41,3.102 -0.903,5.071 -2.005,-0.071 0.188,2.657 -4.318,7.642 0.058,1.237 0.591,0.574 -18.728,10.833 -5.909,0.531 -9.347,11.13 1.835,1.743 1.01,-0.422 4.242,-5.361 29.955,-16.974 6.932,-9.1 3.512,17.594 -0.6,0.447 -0.553,0.829 5.018,3.618 2.285,0.47 1.259,-3.325 0.708,0.741 3.629,8.574 1.826,0.1 1.034,1.106 0.313,1.313 -0.133,0.48 -5.894,6.828 -0.035,3.219 0.757,-0.253 3.907,-5.298 0.197,0.664 0.015,1.485 2.773,-1.503 0.94,-2.112 1.381,-1.44 1.058,-0.547 2.707,-3.626 0.612,-3.212 1.872,-1.263 1.291,0.878 4.641,-0.209 0.417,0.742 3.04,-1.078 1.43,-1.468 1.615,-0.669 1.418,-3.438 0.433,-5.205 -6.355,-0.288 -6.007,2.032 -7.7,-2.328 -9.243,-6.559 5.652,-4.358 6.359,-1.584 2.09,-2.394 -1.29,-3.768 -5.935,-4.092 -1.457,-2.102 -0.07,-1.059 6.076,-2.523 -0.518,-0.462 -0.865,-0.258 -7.582,0.098 -3.819,-2.068 -1.464,-1.45 0.7,-1.534 11.034,-3.914 4.557,-3.905 3.478,-1.011 -2.861,-0.677 -5.228,0.511 -0.051,0.427 -6.834,2.48 -1.868,-0.122 -0.041,-1.089 1.764,-1.56 8.267,-3.298 -3.635,-1.819 3.028,-2.373 7.858,-1.75 3.648,-3.478 -5.063,1.09 -4.021,-0.845 1.09,-2.812 16.729,0.097 5.952,15.216 17.454,19.739 1.461,3.648 1.086,15.587 2.155,1.477 10.116,0.824 2.804,-1.102 22.274,60.006 -51.646,3.884 -24.629,11.134 -14.406,1.952 -8.774,11.22 -0.741,-0.258 -0.011,0.004 0,0 0,0 z m -29.65,-118.147 -9.995,0.084 -1.784,-0.993 -0.41,-0.888 -3.865,0.003 -1.004,-0.408 0.623,-1.489 5.205,0.958 5.167,-4.607 -3.026,-19.304 0.484,0.284 3.079,10.997 0.781,0.397 -0.194,-1.204 0.901,-3.021 -1.455,-6.612 0.805,-1.634 1.991,0.104 1.021,0.834 0.355,2.341 -0.301,1.093 0.606,0.544 0.504,3.12 3.662,3.485 0.275,-3.265 0.516,0.193 1.879,0.026 0.947,0.683 0.475,1.872 -0.093,1.516 0.127,0.502 1.872,-1.423 1.532,-2.63 0.919,-0.334 0.348,0.695 -1.066,7.03 1.565,-0.787 0.841,-0.994 1.721,0.993 4.616,6.906 -0.638,3.376 -18.988,1.555 0,0 0,0.002 0,0 0,0 z m 25.468,-11.435 -3.872,-2.114 -2.222,-5.075 1.304,-14.354 -1.26,-2.664 -3.186,12.663 -1.828,1.257 -1.211,-1.347 -1.057,-2.354 -0.737,1.595 0.303,0.987 -1.365,-0.123 -4.515,-2.711 -0.865,-4.231 8.804,-2.176 2.644,-11.474 27.832,6.813 0.02,1.225 -2.542,3.76 0.405,0.535 -0.521,0.748 -8.048,3.705 0.339,0.365 0.217,1.548 3.868,0.62 -0.211,4.631 -1.969,1.987 -0.874,0.408 -4.434,5.27 -2.433,0.878 -2.584,-0.372 0,0 0,0 0,0 0,0 z m 11.426,27.844 -1.223,-2.472 0.481,-0.362 6.438,-0.386 0.908,0.28 -3.314,0.694 0.037,0.923 -0.808,1.76 -2.519,-0.437 0,0 0,0 0,0 0,0 z m -13.954,98.795 -7.886,-3.845 -5.536,-12.985 -7.068,-3.021 4.123,-12.414 -7.324,-3.897 3.302,-6.569 -2.645,-3.284 -6.225,0.671 -13.442,-4.893 -5.85,-8.825 3.021,-16.794 13.185,-7.425 3.824,2.85 4.625,-2.539 -3.649,-3.137 -2.306,-9.069 -10.256,-6.38 -0.286,-3.963 -2.976,-1.274 1.463,-4.479 5.319,1.108 0.752,3.458 1.55,-1.02 1.055,-1.206 1.843,0.548 1.755,1.346 -0.785,1.807 0.783,1.02 1.361,-0.703 2.791,-2.98 18.228,-0.952 2.906,1.325 1.254,1.325 -0.66,4.749 -0.915,1.17 -1.179,-0.234 -0.11,2.741 -4.269,8.68 0.953,0.39 -17.77,10.737 -6.831,0.531 -9.588,10.92 0.664,1.499 1.319,0.834 8.15,-8.288 28.136,-15.948 0.478,-1.464 5.018,-6.322 3.985,16.014 -1.017,3.369 1.872,1.768 4.737,2.095 1.411,-3.761 4.893,9.918 2.105,-0.447 0.558,2.658 -0.216,0.584 -4.638,4.646 -1.335,2.518 0.169,2.789 4.812,-5.9 -0.125,1.263 0.666,1.35 4.206,-5.314 1.432,-0.866 1.47,-1.574 1.129,-2.155 0.752,-4.504 0.617,-0.16 9.58,2.076 0.894,-1.21 2.178,-1.494 2.564,-5.636 -1.334,-4.26 -9.257,2.184 -0.856,0.63 -8.815,-2.527 -6.987,-4.983 -1.185,-2.282 3.137,-2.479 9.706,-3.785 0.844,-3.05 -0.139,-0.53 -8.069,-6.05 -0.771,-1.004 -0.188,-1.097 1.373,-1.271 4.782,-2.057 -0.826,-0.426 -7.453,0.196 -1.713,-0.564 -4.461,-3.465 0.475,-0.806 0.693,-0.632 19.168,-9.25 -7.085,0.201 -6.426,2.966 -2.334,0.332 -1.416,-0.242 0.201,-1.538 3.948,-2.602 5.688,-1.529 -1.604,-1.338 -1.756,-0.584 0.496,-0.945 2.229,-1.579 2.68,-0.887 3.118,-0.016 2.026,-0.842 3.944,-3.643 -4.755,1.287 -2.229,-0.312 -2.024,-1.539 0.836,-1.867 -1.65,-0.458 -2.435,2.88 0.549,-6.469 3.432,-5.9 15.273,4.664 7.13,19.65 19.473,22.057 1.354,18.906 11.958,1.11 3.163,-1.289 22.436,60.165 -53.245,4.103 -20.594,10.694 -17.998,2.42 -7.917,11.284 -7.597,-3.462 0.01,0.004 0,0 0,0 z" />
      <path
         style="opacity:0.98999999;stroke:#ffffff;stroke-width:3;stroke-miterlimit:10"
         id="2014"
         inkscape:label="Loppa"
         inkscape:connector-curvature="0"
         stroke-miterlimit="10"
         enable-background="new    "
         d="m 1459.461,320.625 -5.472,-0.964 -5.486,-7.396 1.241,-0.473 4.058,3.402 1.608,3.097 5.479,1.354 -0.186,0.854 -1.242,0.126 0,0 0,0 0,0 z m -51.693,14.863 -2.304,-2.962 -1.812,-13.971 -0.781,-1.757 0.216,-5.919 7.479,5.839 1.296,3.467 -0.439,9.53 -2.82,6.715 -0.835,-0.942 0,0 0,0 z m -22.222,-7.998 -0.783,-2.002 0.329,-1.238 -0.7,-0.315 -1.12,-1.189 -0.231,-2.342 0.792,-0.888 0.217,-1.457 -0.328,-1.82 0.134,-1.331 0.534,0.06 4.044,9.803 -2.923,3.162 0.035,-0.443 0,0 0,0 0,0 z m 61.967,37.849 -5.647,-7.619 -1.217,-8.969 -9.595,6.169 -4.278,-0.98 -0.35,10.062 -2.805,2.736 -7.588,-2.868 -0.861,-2.799 -7.914,-4.265 -0.544,-4.611 -13.973,3.705 -18.672,-5.179 0.677,-0.086 1.744,-1.276 4.684,-6.146 1.105,0.346 1.265,-0.035 1.178,-2.515 3.254,-2.556 1.531,1.928 1.101,7.139 6.208,5.634 -0.228,-1.073 -0.815,-0.604 0.223,-0.853 0.605,-0.476 -1.333,-1.137 -1.463,-2.369 -2.11,-13.238 -0.762,-1.061 0.332,-1.101 2.021,-2.675 1.721,-1.007 1.381,1.857 -0.506,2.625 -0.436,0.64 5.766,4.604 0.544,1.057 0.882,-0.442 6.668,4.425 1.142,1.472 0.262,1.195 0.382,0.463 0.542,-0.568 2.437,-0.022 4.103,7.815 1.65,0.599 3.442,5.437 0.532,-0.656 -0.878,-5.724 -3.398,-3.178 -0.615,-3.908 2.543,-1.198 -7.26,-4.022 -0.943,-1.807 7.91,-16.947 1.81,-1.527 1.842,0.08 1.108,2.748 -1.982,6.196 0.338,1.322 6.291,-9.044 1.034,0.728 2.71,14.792 1.507,-0.541 0.585,-0.983 -0.401,-2.505 0.58,-4.049 0.604,-0.664 -0.26,-1.335 3.566,-2.417 2.628,-0.56 3.331,0.766 0.76,1.376 0.277,7.452 -1.991,3.833 1.611,0.06 1.671,2.558 0.311,9.743 0.948,2.141 -0.197,0.741 -1.346,0.751 -1.712,1.943 1.541,0.624 4.684,-1.842 1.642,-0.016 1.101,0.308 1.165,-1.095 0.071,-0.874 4.182,-1.03 7.532,2.637 0.512,0.584 1.191,-1.101 0.896,0.507 1.731,-0.133 -9.95,-5.61 -10.014,0.377 0.527,-2.144 -1.253,-12.676 0.874,-0.131 0.453,-1.047 -1.069,-4.492 0.537,-0.21 5.259,-0.379 -1.351,5.011 3.205,1.385 v 3.81 l 10.454,6.463 2.21,8.516 3.528,3.277 -3.992,2.071 -3.73,-2.795 -13.541,7.087 -1.936,10.571 -5.737,-7.197 0,0 0.011,10e-4 0,0 z m -64.742,-32.017 -0.488,-1.182 0.507,-1.185 1.968,0.922 -0.247,1.303 -1.74,0.142 0,0 0,0 z" />
      <path
         style="opacity:0.98999999;stroke:#ffffff;stroke-width:3;stroke-miterlimit:10"
         id="2015"
         inkscape:label="Gamvik"
         inkscape:connector-curvature="0"
         stroke-miterlimit="10"
         enable-background="new    "
         d="m 1463.851,273.066 -1.323,-5.426 0.407,-2.196 1.412,8.158 -0.496,-0.536 0,0 0,0 z m -3.428,45.994 -4.727,-1.126 -3.261,-6.452 h -1.836 l -1.211,-1.638 3.143,-1.207 1.183,0.34 4.318,3.914 -0.185,-1.562 -3.039,-6.232 1.187,-1.132 4.093,1.725 0.586,-5.34 1.032,-0.348 1.687,5.843 1.237,-7.203 3.739,5.95 -0.804,-7.792 0.927,-0.052 2.974,18.743 -5.45,4.729 -5.593,-1.16 0,0 0,0 0,0 z m -32.673,-30.417 -2.679,-0.691 -0.226,-0.369 1.199,-0.668 1.26,-1.273 -1.436,-4.707 6.643,-9.803 -0.545,-2.427 -2.158,-0.127 -0.887,-0.396 4.96,-6.609 -1.251,-1.517 -6.452,0.762 -1.323,0.548 -3.309,3.335 -0.469,1.691 -1.163,0.797 -2.658,-1.752 -0.736,3.338 -3.162,-1.682 -0.544,-3.247 0.917,-0.616 0.925,0.049 0.732,-3.185 -1.708,-1.092 -2.029,0.744 -0.536,0.805 -0.259,-0.689 -1.345,-0.689 -1.458,-1.765 -0.111,-2.383 0.773,-1.308 1.227,-0.023 1.444,1.414 7.936,-0.194 0.802,1.426 0.336,1.433 7.165,-3.438 -1.511,-3.933 -2.332,-2.234 15.275,6.304 -3.034,-5.376 0.133,-1.57 -1.16,-1.84 -1.667,-1.079 0.31,-7.659 2.851,4.167 0.685,0.393 1.132,0.146 0.279,0.755 1.898,1.939 1.195,0.493 1.356,-0.532 0.796,-0.67 -0.239,-1.126 -0.946,-0.735 -0.613,-1.377 -0.7,-0.74 1.927,-1.472 0.687,-3.447 0.681,0.305 3.315,3.14 0.634,-0.783 1.122,-0.489 0.01,1.878 1.283,0.177 0.835,-0.47 0.058,1.19 1.287,0.985 -1.939,1.414 -0.478,1.137 -0.633,0.321 -1.235,1.146 -0.712,1.426 1.21,3.208 1.109,1.143 3.363,-2.941 -1.442,-0.432 v -0.583 l 1.9,-0.317 2.345,-1.432 1.065,3.694 3.268,4.658 0.185,-0.992 -1.034,-3.063 -0.716,-0.478 0.701,-0.655 0.916,-1.832 1.229,-1.036 1.478,0.089 1.623,-0.931 1.233,-1.792 -2.479,-0.382 -2.956,-3.547 -0.497,-3.727 -1.463,-0.499 -1.319,0.773 0.184,-0.426 -0.789,-3.762 0.108,-1.529 -1.521,1.068 -0.323,0.9 -2.185,-2.226 -0.812,-1.577 2.523,-3.165 1.401,-1 10.1,8.964 -2.289,4.012 4.573,5.345 -1.237,3.655 1.17,0.59 4.442,5.212 -3.18,4.638 -2.992,-0.37 -3.874,8.587 -1.395,0.709 -0.937,0.883 -0.664,-0.701 -1.113,-0.334 -0.067,2.107 -2.172,-0.785 2.183,8.121 -2.807,-1.555 0.205,4.25 -2.737,0.425 -1.599,-0.249 -3.619,-4.051 -0.448,2.26 1.211,3.548 0.041,1.174 -2.774,1.953 -1.034,-1.449 -0.202,-2.22 -0.716,-1.355 -1.193,-0.015 -1.809,4.958 -2.468,0.97 -2.823,-7.656 -1.166,2.707 -0.336,6.071 -1.238,1.593 -4.445,0.931 0.09,0.952 0.893,0.535 0.081,0.638 -2.382,0.253 0,0 v 0.014 l 0,0 0,0 z" />
      <path
         style="stroke:#ffffff;stroke-width:3;stroke-miterlimit:10"
         id="2017"
         inkscape:label="Kvalsund"
         inkscape:connector-curvature="0"
         stroke-miterlimit="10"
         d="m 1535.804,255.139 -1.16,-0.412 -6.782,-8.977 -0.015,-1.105 11.293,-4.267 8.301,-14.937 2.247,-0.686 1.535,0.114 0.371,1.611 1.972,1.262 -0.632,1.252 2.25,1.207 -0.394,3.328 -4.907,10.57 0.519,5.652 -3.713,3.653 -10.883,1.736 0,-10e-4 0,0 0,0 z m 24.261,68.301 -9.56,-10.801 -7.331,-19.928 -15.315,-4.928 11.085,-18.608 1.417,0.153 -1.008,-5.043 5.081,-7.348 2.645,-2.008 4.727,-1.652 1.269,-1.248 2.649,0.254 2.476,1.295 10.316,0.932 1.449,-0.445 5.188,5.146 0.368,-1.756 -3.87,-6.479 -5.79,-3.667 -9.216,-1.9 v -1.404 l 3.572,-13.033 1.068,0.062 1.069,-0.503 -1.994,-11.546 1.142,-0.442 0.571,-1.761 -0.102,-2.345 0.663,-1.292 0.866,-0.204 1.062,0.212 0.788,-2.43 1.134,1.889 2.155,-0.427 1.06,0.429 3.07,-0.991 3.031,2.803 4.545,1.508 6.496,6.749 3.311,-3.12 0.304,-3.873 -0.956,-1.699 -0.572,-0.564 5.896,-1.47 15.136,2.97 -7.597,41.796 2.54,1.913 -3.289,12.165 -8.093,7.115 -10.482,49.613 -13.357,6.711 -9.611,-10.8 h -0.01 l 0,0 0,0 z m -47.218,-40.439 -5.591,-2.019 15.482,-16.044 0.532,-5.456 0.994,-0.117 2.997,1.449 0.827,1.378 -0.584,0.217 -0.062,1.78 2.599,6.764 0.113,1.888 -6.268,10.829 -2.443,1.021 -2.683,-0.662 0.015,0.816 -5.928,-1.844 0,0 0,0 0,0 z" />
      <path
         style="opacity:0.98999999;stroke:#ffffff;stroke-width:3;stroke-miterlimit:10"
         id="2018"
         inkscape:label="M√•s√∏y"
         inkscape:connector-curvature="0"
         stroke-miterlimit="10"
         enable-background="new    "
         d="m 1546.154,181.768 0.372,-1.359 5.086,-4.307 -2.981,4.197 -2.477,1.469 0,0 0,0 z m -15.491,-9.169 -1.031,-1.094 -2.964,-0.452 -1.067,-0.688 0.882,-0.93 0.273,-1.406 -0.76,-0.412 -2.255,-0.481 -1.466,-1.938 0.635,-1.622 6.112,-5.4 -9,2.381 -2.681,-1.451 0.954,-0.32 3.978,-4.067 -1.237,-0.981 0.343,-2.729 2.657,0.171 2.551,-0.659 -0.209,-0.82 1.777,0.145 4.506,4.183 7.334,-0.605 -4.356,1.403 -0.621,0.59 -2.345,1.24 -1.196,1.844 -0.498,3.27 0.214,0.837 7.185,-2.471 3.353,-0.125 1.458,0.519 -0.734,0.367 -1.082,1.331 0.95,0.705 -0.473,1.563 -2.073,2.845 -4.156,0.953 -0.084,0.989 0.281,1.378 -1.105,1.478 -4.048,0.461 0,0 v -0.002 l 0,0 0,0 z m 35.528,-26.284 -2.228,-0.63 -1.745,-1.466 0.889,-1.018 6.383,1.71 -0.28,1.347 -1.433,0.495 -1.586,-0.438 0,0 0,0 z m 4.897,-8.786 -3.703,-1.788 -2.371,-0.17 -1.472,-0.711 -0.617,-1.971 1.821,-5.214 1.909,0.175 0.74,2.134 0.968,0.793 1.141,-0.035 1.252,-0.383 0.296,-0.84 -0.199,-1.059 -4.666,-5.152 2.235,-0.894 1.98,0.806 1.397,1.347 1.069,-0.089 1.909,-1.964 0.637,-0.295 0.636,0.266 -1.203,2.73 0.49,1.646 -0.03,1.029 -2.139,2.159 1.655,3.674 -0.016,2.958 -1.762,1.372 -1.957,-0.524 0,0 0,0 0,0 0,0 z m 17.701,2.866 -0.318,-0.403 1.024,-0.651 0.096,-1.151 -3.251,-2.145 -0.54,-3.795 0.052,-0.324 0.382,-0.47 4.865,0.783 0.872,-0.626 0.473,1.018 -0.204,4.692 -1.397,2.437 -2.054,0.635 0,0 0,0 0,0 z m 13.196,72.463 -7.001,-1.373 -6.848,1.633 -6.199,-5.872 2.966,-2.465 -4.079,-1.602 -1.591,0.433 -0.711,1.086 -1.019,-0.121 0.973,-1.942 -1.421,-0.235 -2.222,-1.501 -0.258,-3.479 -1.545,-0.046 -2.908,1.311 -6.721,0.728 -1.034,-0.464 0.318,-0.782 -1.149,-0.961 -4.377,-0.134 -3.312,-3.35 0.112,-4.354 -2.034,-3.447 -1.282,-0.938 3.158,-5.451 0.292,0.304 2.466,0.551 -0.062,-0.855 -1.345,-0.75 -0.478,-1.488 2.804,-1.128 1.468,1.436 0.382,1.786 1.266,0.804 1.008,-0.484 1.315,1.333 0.635,2.773 12.52,5.112 1.406,-1.134 v -4.213 l -2.691,-2.429 -1.545,-0.179 0.267,-0.814 0.637,-0.288 -3.337,-5.216 0.208,-1.387 1.795,-1.501 3.085,-0.157 1.874,0.419 1.455,-1.961 -1.687,-1.487 -10.144,-2.067 1.784,-1.784 0.75,-2.859 -1.91,0.5 -2.129,-1.704 -0.884,-2.483 1.276,-2.161 4.441,-2.329 -5.207,0.583 -1.275,-0.426 0.118,-1.683 5.696,-4.834 1.187,0.511 0.991,4.753 4.176,-6.514 2.03,5.261 5.25,4.744 0.696,1.194 0.697,0.639 h -0.855 l -1.807,1.886 1.89,0.168 2.37,-1.271 0.748,-0.876 0.397,-0.992 1.197,-0.216 0.116,3.094 1.234,-0.896 1.113,-1.563 -0.288,-2.448 -0.879,-1.54 0.739,-3.468 -0.526,-4.091 1.191,-0.539 1.775,0.078 3.501,4.062 -5.806,15.796 0.036,1.586 1.4,-0.811 7.925,-0.453 -0.833,-1.943 -0.318,-3.227 1.341,-4.841 2.038,-2.281 v -1.101 l 3.908,4.098 1.704,0.068 4.227,4.212 3.888,11.271 1.484,1.951 1.821,-4.102 1.835,0.452 1.642,0.983 -0.302,-9.078 -1.236,-0.34 -0.196,-0.967 0.62,-1.654 -0.037,-1.707 0.887,-1.848 -1.624,-3.856 -7.775,-8.617 0.34,-4.684 1.694,0.093 0.676,1.28 1.09,0.466 2.107,-0.615 7.046,3.853 0.727,12.641 -4.234,5.443 4.111,6.76 -2.188,13.979 -15.334,32.145 -7.674,-1.406 0,0 0,0.004 0,0 0,0 z m -79.393,-65.428 -1.169,-0.783 -1.636,-3.006 0.902,-1.065 3.264,2.745 1.602,-0.016 0.683,-0.849 -1.645,-4.736 1.734,-0.412 2.138,0.527 1.137,-1.644 1.346,-0.607 0.952,0.695 0.031,1.518 -2.975,4.347 0.985,1.062 0.986,0.408 -0.87,0.673 -5.397,1.3 -2.068,-0.157 0,0 0,0 0,0 z" />
      <path
         style="stroke:#ffffff;stroke-width:3;stroke-miterlimit:10"
         id="2019"
         inkscape:label="Nordkapp"
         inkscape:connector-curvature="0"
         stroke-miterlimit="10"
         d="m 1676.044,185.737 0.178,-4.082 -1.131,-4.458 1.131,-3.322 0.892,0.212 1.438,1.466 0.69,-7.799 -0.557,-1.819 -0.427,-0.61 0.898,-1.509 2.882,-2.773 13.707,-39.684 2.372,-1.302 3.989,-3.929 -0.292,20.354 -14.115,38.615 1.607,5.388 -6.326,6.01 -6.704,0.584 -0.232,-1.342 0,0 0,0 0,0 z m -17.57,-12.985 -0.536,-0.317 0.874,-0.902 1.748,-0.471 -0.291,0.843 -0.851,0.831 -0.944,0.016 0,0 0,0 0,0 0,0 z m -29.802,-31.02 -4.89,-4.455 -5.953,-2.95 6.946,-8.524 0.321,-1.334 -4.909,-0.599 -7.505,6.404 -4.661,0.33 -1.034,-3.893 1.115,-0.807 -2.156,-0.845 -0.529,-1.196 0.917,-1.85 1.298,-1.023 0.069,-1.504 -3.012,-2.381 -0.514,-1.083 0.623,-0.377 8.614,-1.192 1.451,0.271 1.28,-0.873 -2.109,-5.146 1.058,0.391 2.644,-0.015 3.644,-1.356 1.744,3.994 2.353,-2.866 7.374,4.504 1.606,0.181 0.268,-2.313 -11.223,-7.083 -0.875,-1.24 0.519,-0.429 -5.019,-2.704 -0.381,-1.585 2.875,0.567 3.797,-5.577 0.995,-0.286 1.692,4.532 0.829,0.079 0.896,-0.548 1.761,-3.445 0.828,-0.626 2.679,-0.437 0.37,11.566 1.086,0.144 0.306,0.626 3.118,-3.938 0.122,1.596 0.53,1.403 1.685,-0.714 2.79,-4.792 1.566,3.001 0.87,-3.354 1.692,-2.38 4.484,3.385 -2.206,5.603 -3.875,2.463 -1.536,1.74 -3.388,2.096 0.501,1.081 2.504,0.547 1.012,4.278 1.598,-1.75 0.716,-0.439 0.955,0.193 0.238,0.462 1.24,0.787 1.447,1.602 -3.482,1.041 -0.796,0.761 0.79,1.796 1.671,0.512 8.77,-2.781 1.556,-6.79 4.572,-4.799 1.139,-0.662 1.968,4.906 -3.655,8.716 -5.159,4.916 -0.514,0.274 -0.603,1.202 -2.768,-1.133 -0.657,-2.39 -0.792,0.134 -1.566,1.028 -0.369,4.651 -7.251,1.286 -5.277,-0.622 -1.443,5.229 1.12,1.385 1.938,0.412 -0.5,1.228 -6.398,1.93 0.215,0.928 -3.234,2.176 -2.531,-1.257 0,0 0.01,0.006 0,0 0,0 z m -1.064,9.845 -0.393,-7.798 2.899,2.186 1.294,2.41 -3.794,6.992 v -3.791 h -0.01 l 0,0.001 0,0 z m 14.306,33.526 -16.241,-3.043 2.016,-14.166 -3.499,-7.041 0.657,-0.175 1.481,0.015 2.688,1.535 1.261,-3.97 0.596,0.079 0.622,0.633 5.97,-12.097 2.092,-0.821 3.481,0.71 -0.295,1.291 0.168,1.371 3.943,4.019 1.138,-6.581 4.194,-2.925 0.076,0.626 1.731,0.019 0.719,0.235 -1.728,4.16 0.287,1.716 0.766,-0.18 3.177,-1.858 -5.614,11.981 -0.276,1.749 1.088,4.306 -1.104,1.634 -1.114,0.96 -2.227,0.533 -1.985,1.719 -2.273,6.263 1.591,0.823 2.001,-0.861 2.126,-2.347 0.67,0.862 0.439,4.217 -0.403,0.87 -0.613,-1.175 -1.163,-1.165 -4.209,6.912 -2.234,-0.833 0,0 0,0 0,0 0,0 z" />
      <path
         style="stroke:#ffffff;stroke-width:3;stroke-miterlimit:10"
         id="2020"
         inkscape:label="Porsanger"
         inkscape:connector-curvature="0"
         stroke-miterlimit="10"
         d="m 1601.05,384.551 -14.849,-31.408 -14.854,-0.056 -1.254,-18.43 12.836,-6.692 10.567,-49.167 8.513,-7.551 3.403,-12.094 -5.442,-4.87 v -1.998 l 25.508,-69.693 15.978,2.897 1.312,2.106 -2.169,4.414 -4.959,4.727 0.218,1.295 -15.296,37.488 1.378,0.768 1.184,1.299 1.735,3.451 10.238,-1.93 1.11,0.573 0.192,0.388 -0.407,1.167 0.017,1.594 -1.885,7.329 5.495,1.717 -0.263,1.94 -2.841,0.148 -2.264,-1.776 -5.002,13.299 0.605,0.049 1.997,-0.943 0.207,0.298 -1.121,7.21 4.242,-2.381 2.296,-2.444 1.136,0.622 1.041,1.589 0.466,2.555 -0.79,2.983 -0.591,0.596 -1.033,-0.098 -0.796,0.402 -0.31,4.377 -7.954,11.856 3.209,11.381 -1.134,2.593 -0.161,1.788 5.521,13.998 0.786,-0.596 2.354,1.093 1.102,1.572 0.295,1.107 1.909,0.611 0.987,-1.317 -0.051,-4.431 -2.096,-2.682 -2.029,-0.928 -1.107,-7.497 0.634,-3.378 1.256,0.251 1.886,-1.622 0.415,0.229 -0.358,5.026 2.532,-0.44 1.817,-2.162 0.789,0.244 0.231,1.254 -0.964,0.55 -0.533,0.871 -1.398,1.192 -0.777,2.309 4.562,6.148 3.968,-0.492 3.646,-7.185 -0.285,-18.838 2.387,-1.854 2.324,-12.847 3.815,-7.514 -0.657,-0.338 -0.379,-2.086 0.855,-4.519 -4.061,1.844 -5.455,-1.606 -0.22,-1.709 1.285,-1.756 0.356,-1.589 -0.386,-1.99 1.419,-2.667 0.688,-4.258 2.922,-0.899 0.387,-1.205 -0.631,-1.402 16.027,-45.595 0.12,-13.11 6.504,-0.574 9.027,21.328 1.777,17.883 -2.525,13.691 3.706,17.703 10.036,15.995 -3.579,9.93 2.291,3.947 -2.056,12.732 9.47,21.12 -6.024,7.807 -12.433,46.024 -16.377,7.783 -20.021,2.196 -29.389,-7.457 -24.845,8.772 -0.95,-2.034 -0.01,-0.001 0,0 0,0 z m 43.439,-95.234 0.119,-0.602 2.024,-2.004 -0.784,1.372 -1.359,1.234 0,0 0,0 0,0 z m -12.474,1.986 1.147,-1.682 0.676,0.839 -1.149,1.015 -0.674,-0.172 0,0 0,0 z m 15.964,-8.915 0.395,-7.601 0.738,-2.01 0.694,-0.894 0.192,0.18 2.36,0.825 0.664,2.804 -1.108,3.154 -3.156,3.67 -0.779,-0.128 0,0 0,0 0,0 z m -21.522,-46.707 -3.109,-1.226 5.614,-5.003 3.63,-0.987 0.606,1.813 -1.999,3.998 -4.742,1.405 0,0 0,0 z m 35.031,-45.587 -1.985,-4.241 2.403,-3.544 1.919,-1.11 1.416,2.105 1.022,0.667 -1.651,4.796 -1.71,1.783 -1.414,-0.456 0,0 0,0 0,0 z" />
      <path
         style="stroke:#ffffff;stroke-width:3;stroke-miterlimit:10"
         id="2021"
         inkscape:label="Karasjok"
         inkscape:connector-curvature="0"
         stroke-miterlimit="10"
         d="m 1706.45,545.997 -2.761,-4.739 -26.009,-8.939 -10.415,-22.113 -25.481,-13.177 -11.306,-21.003 -7.025,-2.979 -0.424,-1.907 1.345,-3.219 1.768,-0.665 2.067,-7.323 -3.632,-6.203 2.679,-21.803 -4.43,-2.156 -3.93,-6.665 -1.77,1.636 -8.046,-10.509 -6.939,-27.069 24.905,-8.596 29.114,7.297 19.942,-2.16 16.988,-7.912 10.87,-35.102 3.835,0.218 v 2.98 l 2.981,2.418 4.917,0.811 3.019,1.372 8.607,-3.607 3.298,5.482 9.226,-2.554 0.472,0.223 0.809,4.379 -6.33,15.705 -6.415,5.198 -3.452,11.533 1.752,0.979 2.422,0.514 3.751,6.446 0.201,5.929 -1.008,4.246 -2.638,3.118 0.292,4.261 1.716,1.134 0.605,21.424 0.642,1.635 1.972,2.152 1.148,0.315 0.748,7.885 -1.96,3.271 -0.687,2.902 1.878,14.198 -0.817,4.027 3.046,11.59 4.891,7.631 3.054,13.22 2.751,3.729 0.646,2.294 3.681,6.05 -3.897,26.109 -0.897,1.562 -3.151,1.36 -4.758,-1.238 -0.62,-0.596 -21.157,9.736 -9.325,-10e-4 -2.761,-4.739 0,0 0,0.005 0,0 0,0 z" />
      <path
         style="stroke:#ffffff;stroke-width:3;stroke-miterlimit:10"
         id="2022"
         inkscape:label="Lebesby"
         inkscape:connector-curvature="0"
         stroke-miterlimit="10"
         d="m 1741.454,199.711 1.045,-1.049 0.984,0.669 -0.556,0.342 -1.473,0.038 0,0 0,0 0,0 z m -2.677,-14.489 0.408,-1.586 -0.706,-1.073 0.733,0.209 0.662,0.64 -0.934,2.038 -0.163,-0.228 0,0 0,0 0,0 z m -3.157,20.137 -2.515,-1.034 2.176,-1.076 0.584,0.455 0.584,1.216 -0.261,0.761 -0.568,-0.322 0,0 0,0 z m -9.17,18.318 -0.168,-1.991 0.958,-2.741 1.642,-1.298 -1.363,3.52 0.339,1.661 -0.208,0.801 -1.2,0.048 0,0 0,0 0,0 z m 17.868,-83.026 0.459,-2.325 1.118,0.195 0.666,2.325 -1.125,1.465 -1.118,-1.66 0,0 0,0 0,0 z m -37.248,170.292 -4.61,-11.281 1.828,-12.047 -2.155,-4.175 3.549,-9.862 -10.101,-15.882 -3.759,-17.717 2.54,-13.731 -1.825,-18.082 -9.064,-21.231 6.377,-6.319 -1.61,-5.619 14.204,-38.52 0.243,-19.633 2.347,2.876 3.444,8.893 -0.25,13.088 0.649,1.48 3.898,-3.329 1.39,15.749 -3.384,11.354 -10.117,11.243 -2.896,6.045 11.287,-7.311 2.779,0.248 2.106,-1.204 0.159,-1.53 1.303,-1.248 0.812,-0.147 -0.402,1.377 6.165,35.765 1.414,0.775 0.843,2.325 -1.206,3.517 1.712,13.204 -0.74,4.53 1.4,3.584 2.092,-1.139 1.373,-6.226 0.997,-0.503 2.846,0.049 0.027,-2.193 -2.559,-2.643 0.113,-2.526 1.537,-1.511 2.25,0.295 0.788,0.404 2.475,-0.736 1.285,-6.465 -0.439,-3.967 -2.308,-2.891 1.013,-0.652 2.201,-0.257 0.273,-1.826 0.675,-0.574 0.675,1.162 2.28,0.61 4.021,-1.565 0.502,-0.649 0.208,0.997 -0.563,2.448 1.03,1.38 2.04,0.24 1.285,-1.38 1.629,-3.356 2.99,-1.367 2.437,1 1.252,-1.415 -12.666,-9.763 -0.889,-2.072 1.396,-0.86 -1.516,-3.569 -2.08,-1.661 -0.237,-1.439 2.801,-6.257 -0.092,-1.428 0.759,0.474 12.172,1.797 4.643,-0.613 -15.268,-6.353 1.204,-5.989 1.238,-1.345 2.194,0.567 -0.57,-1.434 -7.503,-3.485 -1.771,0.234 0.204,-9.292 0.584,-0.739 6.642,-2.28 1.8,0.283 2.859,1.532 2.473,-2.98 0.236,-1.589 -5.444,-1.853 -2.461,-10.864 1.209,-2.123 2.088,-0.77 21.807,-0.045 -15.795,-3.567 2.865,-3.597 0.752,-2.222 -6.438,-3.139 -1.684,0.634 -0.979,0.828 -2.393,1.016 0.876,-2.558 v -5.374 l -1.323,-0.257 -1.421,3.774 -2.588,3.281 -6.251,1.241 -5.466,-1.334 -3.633,-4.587 -0.206,-6.104 1.082,-2.769 11.472,3.299 1.841,-0.65 -13.33,-10.765 2.299,-6.364 1.014,-0.367 6.445,2.545 9.867,-0.323 2.476,8.342 2.661,1.625 0.813,-3.682 -2.125,-7.813 -8.73,-11.073 1.129,-4.525 4.634,-2.965 1.253,-2.833 -0.584,-3.621 5.031,7.77 -1.772,9.475 22.698,46.924 -11.66,37.233 1.563,15.407 14.64,28.886 2.399,21.619 -18.846,22.917 3.414,11.249 -46.583,29.73 5.761,15.411 -6.726,7.017 -11.726,2.369 -5.287,-10.112 h -0.01 l 0,-0.004 0,0 z" />
      <path
         style="opacity:0.98999999;stroke:#ffffff;stroke-width:3;stroke-miterlimit:10"
         id="2023"
         inkscape:label="Gamvik"
         inkscape:connector-curvature="0"
         stroke-miterlimit="10"
         enable-background="new    "
         d="m 1777.746,195.358 -7.268,-14.733 -1.477,-13.797 11.828,-37.649 -22.312,-46.587 1.25,-10.067 -3.283,-5.779 4.863,0.047 -0.804,9.465 1.207,1.446 1.389,0.623 2.188,0.247 1.294,-3.075 1.072,-1.276 0.995,2.943 -0.741,1.318 0.544,0.834 1.405,0.6 3.217,-0.034 -0.583,-2.23 1.01,0.072 1.823,-0.683 2.32,-7.799 1.096,3.292 1.24,0.679 1.004,-4.373 1.943,-3.157 2.779,6.885 2.432,-8.167 3.741,-2.927 4.2,2.879 0.354,0.712 0.151,4.883 -2.487,2.206 2.869,10.308 1.338,-5.707 1.314,10.852 1.517,-2.085 -0.052,-0.864 0.372,-1.586 1.63,-1.666 1.409,-4.328 9.306,-2.317 6.842,1.331 1.49,12.843 -1.438,6.651 -6.604,1.378 7.196,1.839 -0.503,1.82 -2.215,3.411 -2.173,0.441 1.894,4.065 -2.119,1.435 -4.867,-1.003 -2.445,0.782 6.802,2.879 -0.985,3.736 -3.263,3.15 -2.958,0.678 -4.014,-0.523 -3.641,2.027 -3.145,-3.558 -1.811,-0.042 -2.407,5.162 -3.319,0.272 -3.085,1.5 -2.416,2.428 1.024,0.672 1.226,2.362 -1.071,1.757 -0.562,2.326 1.934,0.31 5.326,-6.284 4.328,0.121 3.971,2.152 0.141,2.127 2.931,-3.647 4.967,0.093 1.154,2.155 -4.866,10.479 -8.05,7.973 0.879,0.825 -0.399,1.645 -4.214,5.06 -7.763,5.211 -0.787,0.981 8.656,-2.048 26.651,-30.277 0.693,11.847 -13.05,24.917 -14.352,13.731 -6.743,26.471 -1.656,1.667 -7.268,-14.733 -0.01,0 0,0 0,0 z" />
      <path
         style="stroke:#ffffff;stroke-width:3;stroke-miterlimit:10"
         id="2024"
         inkscape:label="Berlev√•g"
         inkscape:connector-curvature="0"
         stroke-miterlimit="10"
         d="m 1863.113,154.177 -4.939,-6.762 -10.699,-5.891 -2.423,-4.314 -6.84,-2.546 0.645,-1.353 4.623,0.213 1.371,-0.623 1.021,-1.157 -6.104,-2.268 -2.767,-3.253 -0.027,-5.437 4.793,-9.324 -1.068,-4.099 1.831,-10.132 4.342,-7.585 9.095,-3.946 0.868,1.679 3.157,-1.51 2.939,-0.529 0.831,0.599 0.57,1.08 0.847,0.471 3.46,0.325 3.199,-1.292 1.147,-0.13 6.312,9.505 2.776,0.614 5.628,-0.67 -1.177,3.955 -4.735,7.278 0.846,0.087 0.64,0.336 -1.105,1.925 3.265,-0.867 2.73,0.507 0.364,-1.134 2.76,-2.486 1.188,-0.426 -0.182,0.636 -5.757,4.724 -0.313,1.096 0.674,1.423 1.392,0.357 3.698,-1.108 -5.82,7.986 1.29,0.766 1.791,-0.127 -1.865,2.158 0.799,0.698 2.105,-1.647 3.314,-8.893 10e-4,-0.851 0.556,0.387 1.944,0.016 0.528,-0.92 2.284,-2.25 5.186,-2.652 9.145,-8.833 1.114,0.06 -8.004,22.319 1.439,6.31 -11.972,27.001 1.931,3.635 -6.357,2.215 -8.951,-4.183 -14.084,5.487 -5.248,-6.649 0,0 v -0.001 l 0,0 0,0 z" />
      <path
         style="stroke:#ffffff;stroke-width:3;stroke-miterlimit:10"
         id="2025"
         inkscape:label="Tana"
         inkscape:connector-curvature="0"
         stroke-miterlimit="10"
         d="m 1729.428,347.05 -1.739,-2.746 -8.932,3.453 -2.976,-1.277 -5.257,-0.691 -2.28,0.587 v -5.808 l -4.829,-1.011 5.217,-13.95 3.592,-3.956 11.564,-1.967 7.886,-7.607 -5.665,-15.117 46.177,-30.936 -3.271,-10.55 18.849,-22.97 -2.959,-18.303 2.344,-5.261 1.844,-2.257 4.889,-24.159 14.421,-13.909 13.272,-25.433 -0.417,-11.276 2.448,4.054 1.507,15.139 -19.138,35.812 1.158,-0.387 2.354,7.255 1.524,1.292 2.206,0.417 -1.049,-3.478 0.046,-8.371 0.611,-2.057 2.301,-1.88 -1.909,6.586 0.503,2.298 8.66,-10.631 6.559,-3.591 -0.366,2.001 -3.676,4.286 -1.679,3.822 -0.369,5.603 0.66,2.285 0.866,1.093 1.149,-8.565 6.419,-9.289 0.653,-2.587 0.727,-0.621 1.168,-0.435 h 1.278 l 2.515,-2.453 1.653,-0.1 -2.171,17.945 2.695,0.761 2.847,-14.27 4.438,0.262 5.119,5.217 0.697,-2.204 -0.778,-1.449 -1.051,-0.843 -0.751,-1.554 1.27,-6.785 -1.312,0.093 -2.259,0.795 -6.659,-3.929 -1.131,-1.666 -1.606,-25.798 3.145,0.941 15.4,10.877 10.296,13.433 14.333,-5.387 8.923,4.266 5.662,-1.914 -5.489,8.824 -0.521,7.237 -4.221,2.038 -7.246,17.335 -17.393,5.552 -4.14,31.995 4.558,21.59 14.829,27.626 1.438,11.088 -14.459,-3.485 -18.47,-16.125 -6.389,-12.457 -12.55,9.706 -4.646,-1.138 -7.111,5.088 -0.403,0.849 0.082,6.708 -7.753,6.389 -1.11,3.026 -4.479,3.921 -0.498,2.806 2.857,2.786 -14.341,13.125 -0.634,1.206 -3.152,-2.562 -4.578,-1.615 -4.463,2.71 -2.934,-4.388 -2.996,0.688 -3.714,2.592 -4.048,0.509 -2.221,-1.071 -11.582,7.938 -2.49,10.387 0.822,1.456 -1.479,9.594 -4.57,6.627 -10.378,2.873 -1.748,-2.58 0,0.007 0,0 0,0 z" />
      <path
         style="stroke:#ffffff;stroke-width:3;stroke-miterlimit:10"
         id="2027"
         inkscape:label="Nesseby"
         inkscape:connector-curvature="0"
         stroke-miterlimit="10"
         d="m 1888.807,234.727 4.048,-2.479 -2.702,2.381 -1.346,0.098 0,0 0,0 0,0 z m -9.014,58.95 -1.938,-13.699 -14.81,-27.538 -4.478,-21.356 3.916,-30.925 17.535,-6.127 7.204,-17.238 8.438,3.008 12.24,-3.576 4.704,14 -0.575,16.355 7.127,13.61 -1.139,6.758 -4.1,-0.509 -6.213,3.433 -9.73,-1.913 -1.162,0.874 -13.344,-1.93 -7.256,1.96 -1.38,1.717 0.903,1.605 1.214,0.068 10.802,-3.131 -7.709,12.586 4.692,1.191 5.358,-3.226 5.08,-1.445 3.422,1.521 -2.463,1.478 -5.526,1.051 1.7,1.165 23.366,-0.671 0.956,-0.871 1.675,0.016 10.56,4.415 7.004,-1.668 3.155,7.957 -38.281,20.538 -20.283,24.667 -0.667,-4.145 0,0 v -0.005 l 0,0 0,0 z" />
      <path
         style="stroke:#ffffff;stroke-width:3;stroke-miterlimit:10"
         id="2028"
         inkscape:label="B√•tsfjord"
         inkscape:connector-curvature="0"
         stroke-miterlimit="10"
         d="m 1933.473,172.416 1.408,-3.148 -6.764,-0.398 -12.51,-7.148 -17.308,-4.461 -2.033,-3.509 11.938,-27.033 -1.464,-6.302 7.988,-22.281 0.785,-0.394 2.439,-0.015 2.45,5.805 0.738,0.522 -0.138,7.454 0.633,-0.09 0.252,0.803 -3.416,7.325 0.161,1.247 0.832,0.057 5.646,-6.074 4.896,-17.03 6.727,-2.483 9.948,2.429 1.225,0.868 -5.249,7.091 1.572,0.651 3.579,-1.894 3.527,-0.123 8.457,3.023 0.969,4.048 -4.274,8.248 -0.119,1.167 -7.413,4.434 2.427,1.303 1.89,0.075 -6.311,2.056 -1.701,-0.252 -1.312,0.212 -0.362,1.918 1.144,-0.243 8.56,1.25 0.676,0.596 17.189,-15.912 7.671,-0.484 3.451,-2.275 0.041,-0.725 0.745,-0.129 0.977,0.292 0.14,0.9 -0.613,0.854 0.779,3.104 -0.545,2.612 10.325,4.212 1.02,0.089 -29.259,47.846 -33.776,2.931 1.362,-3.019 0,0 0,0 0,0 z" />
      <path
         style="stroke:#ffffff;stroke-width:3;stroke-miterlimit:10"
         id="2030"
         inkscape:label="S√∏r-Varanger"
         inkscape:connector-curvature="0"
         stroke-miterlimit="10"
         d="m 1982.908,442.185 -18.631,-9.722 -7.518,-27.075 16.971,-58.509 -29.375,-37.052 -60.086,-9.449 -3.025,-2.22 20.104,-24.607 37.833,-19.995 -0.835,-9.795 2.399,-0.806 19.612,1.886 -0.615,4.837 -10.08,16.161 0.356,1.779 -0.459,1.785 0.237,3.86 4.035,-4.818 2.429,-8.917 0.844,-1.388 2.454,0.94 0.632,1.545 0.513,-1.826 3.221,-1.152 1.326,0.044 1.428,-0.333 2.932,-2.27 5.135,11.323 2.998,2.814 -0.856,0.877 0.328,3.917 -3.517,9.461 0.089,2.717 0.626,1.78 -3.229,10.563 -4.282,2.966 4.225,-0.469 0.732,0.968 -0.734,4.588 0.511,3.208 8.92,-21.47 2.284,-1.461 8.308,-1.252 2.258,-2.344 2.132,-5.226 3.874,-3.373 3.378,-1.103 -0.582,5.704 -4.254,10.854 6.747,-7.868 5.573,5.576 2.308,0.432 -5.027,-13.254 2.312,-2.269 -0.281,-5.178 -7.586,-13.721 0.021,-3.339 1.799,0.135 6.274,-2.229 2.389,1.959 -1.562,6.135 2.515,-0.653 3.416,-2.031 0.972,-1.46 5.916,13.581 1.159,-0.415 6.529,15.573 -2.57,3.343 -0.856,3.197 3.467,-0.66 1.399,-1.241 0.888,-1.829 0.313,-4.948 -2.149,-4.376 -0.275,-2.702 -3.357,-5.97 -0.212,-2.02 -3.14,-5.391 0.936,-2.049 2.082,-1.396 6.472,-0.035 3.624,-1.991 1.944,1.423 0.864,1.749 3.703,-3.334 1.143,1.271 -0.828,3.516 1.188,3.244 6.078,-7.868 11.422,14.05 2.32,1.481 9.507,23.625 -1.863,5.339 -23.141,8.271 -1.82,-0.21 -33.217,-15.036 -1.953,1.863 -0.888,4.379 2.318,0.658 9.328,11.499 1.68,7.535 -1.83,4.165 2.401,8.596 -5.005,15.553 -2.524,0.69 -3.617,-0.853 -4.095,2.237 -9.917,22.21 -3.785,2.899 -3.149,0.426 -5.83,2.811 -5.657,6.675 -0.735,3.372 5.951,10.684 2.474,22.906 -5.613,22.023 -1.985,1.298 0,0 -0.011,0.002 0,0 0,0 z m -4.367,-157.542 0.478,-9.703 0.984,-2.493 1.013,0.401 1.563,-0.25 -6.991,-17.562 -0.099,-1.25 0.59,-0.856 1.192,-0.856 2.457,-0.166 0.405,0.645 0.889,0.646 2.087,0.773 0.343,-0.422 -0.034,-1.186 -0.305,-0.366 2.254,0.037 2.794,1.961 -0.315,1.516 0.26,1.734 1.621,-1.236 0.538,1.144 0.441,0.46 0.511,1.555 2.409,0.856 0.271,0.657 -0.289,3.168 -4.776,1.479 0.026,2.565 2.306,-1.65 1.303,-0.236 2.936,0.264 1.235,-2.389 0.073,-1.47 1.07,-0.652 1.991,0.619 1.721,2.186 -12.488,13.585 -1.66,-0.597 -3.103,-3.138 -1.164,0.828 4.652,5.143 -0.682,1.129 -8.175,3.297 -0.335,-0.168 0,-0.002 0,0 z m 16.467,-26.752 -1.446,-1.301 -1.324,-3.171 3.689,-0.221 0.29,1.159 0.89,1.574 0.245,1.277 -1.311,0.896 -1.033,-0.213 0,0 0,0 0,0 0,0 z m 10.363,12.612 -1.024,-3.034 1.712,-0.432 2.573,1.915 -2.779,1.811 -0.482,-0.26 0,0 0,0 z" />
    </g>
  </g>
</svg>
