<!-- Created with Inkscape (http://www.inkscape.org/) -->
<svg id="nrga" xmlns:inkscape="http://www.inkscape.org/namespaces/inkscape" xmlns:rdf="http://www.w3.org/1999/02/22-rdf-syntax-ns#" xmlns="http://www.w3.org/2000/svg" sodipodi:docname="norge_alttest2b.svg" xml:space="preserve" viewBox="0 0 1000 750" version="1.1" xmlns:cc="http://creativecommons.org/ns#" xmlns:dc="http://purl.org/dc/elements/1.1/" inkscape:version="0.48.4 r9939" xmlns:sodipodi="http://sodipodi.sourceforge.net/DTD/sodipodi-0.dtd"><metadata id="metadata3037"><rdf:RDF><cc:Work rdf:about=""><dc:format>image/svg+xml</dc:format><dc:type rdf:resource="http://purl.org/dc/dcmitype/StillImage"/><dc:title/></cc:Work></rdf:RDF></metadata><defs id="defs3035"><clipPath id="clipPath3877" clipPathUnits="userSpaceOnUse"><path id="path3879" inkscape:connector-curvature="0" d="M0,600,800,600,800,0,0,0,0,600z"/></clipPath></defs><sodipodi:namedview id="namedview3033" bordercolor="#666666" inkscape:pageshadow="2" guidetolerance="10" pagecolor="#ffffff" gridtolerance="10" inkscape:window-maximized="0" inkscape:zoom="1" objecttolerance="10" borderopacity="1" inkscape:current-layer="NA" inkscape:cx="495.05405" inkscape:cy="388.38226" inkscape:window-y="55" inkscape:window-x="331" inkscape:window-width="887" showgrid="false" inkscape:pageopacity="0" inkscape:window-height="851"/><g id="NA" inkscape:transform-center-x="-16" inkscape:label="norgeskart alternavtivt" inkscape:groupmode="layer" transform="matrix(1.25,0,0,-1.25,0,750)"><path id="f01" fill-rule="nonzero" inkscape:connector-curvature="0" d="m525,116.08c-0.0287-2.2857-2.5767-2.1657-4.2165-2.085-3.7057,0.0283-7.4171-0.0566-11.119,0.0424-2.3496,0.61288-1.5108,3.3604-1.6643,5.1445,0.0283,3.382-0.0566,6.7697,0.0424,10.148,0.61188,2.3502,3.3595,1.5116,5.1435,1.665,3.3826-0.0283,6.7708,0.0566,10.15-0.0424,2.3496-0.61288,1.5108-3.3604,1.6643-5.1445v-9.7281zm-19-18.996c-0.0285-2.2858-2.5771-2.1642-4.2165-2.084-3.7058,0.02828-7.4172-0.05654-11.119,0.04234-2.3497,0.61203-1.5103,3.3598-1.664,5.1435,0.0283,3.3827-0.0565,6.771,0.0423,10.15,0.61203,2.3497,3.3598,1.5103,5.1435,1.664,3.3827-0.0283,6.771,0.0565,10.15-0.0423,2.3497-0.61202,1.5103-3.3598,1.664-5.1435v-9.7301zm0,19c-0.0285-2.2858-2.5771-2.1642-4.2165-2.084-3.7058,0.0283-7.4172-0.0565-11.119,0.0423-2.3497,0.61202-1.5103,3.3598-1.664,5.1435,0.0283,3.3827-0.0565,6.771,0.0423,10.15,0.61203,2.3497,3.3598,1.5103,5.1435,1.664,3.3827-0.0283,6.771,0.0565,10.15-0.0423,2.3497-0.61202,1.5103-3.3598,1.664-5.1435v-9.7301zm19,18.001c-0.0289-2.286-2.5775-2.1656-4.2175-2.085-3.7051,0.0283-7.416-0.0566-11.118,0.0424-2.3503,0.61225-1.5116,3.3602-1.665,5.1445,0.0283,3.382-0.0566,6.7697,0.0424,10.148,0.61225,2.3503,3.3602,1.5116,5.1445,1.665,3.382-0.0283,6.7697,0.0566,10.148-0.0424,2.3503-0.61225,1.5116-3.3602,1.665-5.1445v-9.7281zm0,17.999c-0.0295-2.2854-2.5778-2.1643-4.2175-2.084-3.7051,0.0283-7.416-0.0566-11.118,0.0424-2.3502,0.61188-1.5116,3.3595-1.665,5.1435,0.0283,3.3826-0.0566,6.7708,0.0424,10.15,0.61288,2.3496,3.3604,1.5108,5.1445,1.6643,3.382-0.0283,6.7697,0.0566,10.148-0.0424,2.3502-0.61188,1.5116-3.3595,1.665-5.1435v-9.7301zm0,18c-0.0295-2.2854-2.5778-2.1643-4.2175-2.084-3.7051,0.0283-7.416-0.0566-11.118,0.0424-2.3502,0.61188-1.5116,3.3595-1.665,5.1435,0.0283,3.3826-0.0566,6.7708,0.0424,10.15,0.61288,2.3496,3.3604,1.5108,5.1445,1.6643,3.382-0.0283,6.7697,0.0566,10.148-0.0424,2.3502-0.61188,1.5116-3.3595,1.665-5.1435v-9.7301zm-19-35.999c-0.0289-2.286-2.5775-2.1656-4.2175-2.085-3.7051,0.0283-7.416-0.0566-11.118,0.0424-2.3503,0.61225-1.5116,3.3602-1.665,5.1445,0.0283,3.382-0.0566,6.7697,0.0424,10.148,0.61225,2.3503,3.3602,1.5116,5.1445,1.665,3.382-0.0283,6.7697,0.0566,10.148-0.0424,2.3503-0.61225,1.5116-3.3602,1.665-5.1445v-9.7281zm0,17.999c-0.0295-2.2854-2.5778-2.1643-4.2175-2.084-3.7051,0.0283-7.416-0.0566-11.118,0.0424-2.3502,0.61188-1.5116,3.3595-1.665,5.1435,0.0283,3.3826-0.0566,6.7708,0.0424,10.15,0.61288,2.3496,3.3604,1.5108,5.1445,1.6643,3.382-0.0283,6.7697,0.0566,10.148-0.0424,2.3502-0.61188,1.5116-3.3595,1.665-5.1435v-9.7301zm0,18c-0.0295-2.2854-2.5778-2.1643-4.2175-2.084-3.7051,0.0283-7.416-0.0566-11.118,0.0424-2.3502,0.61188-1.5116,3.3595-1.665,5.1435,0.0283,3.3826-0.0566,6.7708,0.0424,10.15,0.61288,2.3496,3.3604,1.5108,5.1445,1.6643,3.382-0.0283,6.7697,0.0566,10.148-0.0424,2.3502-0.61188,1.5116-3.3595,1.665-5.1435v-9.7301z"/><path id="f02" fill-rule="nonzero" inkscape:connector-curvature="0" d="m506,206.04c-0.89205-3.4301-5.3064-1.5645-7.934-2.043-2.7998,0.27097-5.906-0.61592-8.4675,0.5985-1.2593,3.3537-0.29707,7.2753-0.5985,10.87-0.64603,3.1272,0.64909,6.5529,4.3994,5.5314,3.7797-0.0987,7.5994,0.20287,11.353-0.16059,2.306-1.92,0.82764-5.4802,1.2479-8.1662v-6.6303zm19-18c-0.8934-3.4299-5.3077-1.5646-7.936-2.043-2.799,0.27101-5.904-0.61601-8.4649,0.5985-1.2606,3.3532-0.29742,7.2754-0.59913,10.87-0.64681,3.1284,0.65109,6.5526,4.4014,5.5314,3.7786-0.0988,7.5973,0.203,11.349-0.16059,2.3081-1.9188,0.82867-5.4802,1.2492-8.1662v-6.6303zm0,18c-0.8934-3.4299-5.3077-1.5646-7.936-2.043-2.799,0.27101-5.904-0.61601-8.4649,0.5985-1.2606,3.3532-0.29742,7.2754-0.59913,10.87-0.64681,3.1284,0.65109,6.5526,4.4014,5.5314,3.7786-0.0988,7.5973,0.203,11.349-0.16059,2.3081-1.9188,0.82867-5.4802,1.2492-8.1662v-6.6303zm-19,36.001c-0.89138-3.4314-5.307-1.5655-7.935-2.044-2.7994,0.27103-5.9052-0.61606-8.4664,0.59862-1.2595,3.354-0.29721,7.2759-0.59862,10.871-0.64661,3.1276,0.65082,6.5516,4.4004,5.5304,3.7792-0.0988,7.5985,0.20295,11.351-0.16061,2.3066-1.9201,0.82805-5.4808,1.2483-8.1671v-6.6283zm-37,36.999c-0.89252-3.4301-5.3071-1.5645-7.935-2.043-2.7995,0.27098-5.9051-0.61593-8.4664,0.5985-1.2596,3.3535-0.29713,7.2753-0.59862,10.87-0.6464,3.1279,0.64998,6.5528,4.4004,5.5314,3.7792-0.0988,7.5985,0.20293,11.351-0.16059,2.3067-1.9195,0.82796-5.4802,1.2483-8.1662v-6.6303zm19-18.999c-0.89138-3.4314-5.307-1.5655-7.935-2.044-2.7994,0.27103-5.9052-0.61606-8.4664,0.59862-1.2595,3.354-0.29721,7.2759-0.59862,10.871-0.64661,3.1276,0.65082,6.5516,4.4004,5.5304,3.7792-0.0988,7.5985,0.20295,11.351-0.16061,2.3066-1.9201,0.82805-5.4808,1.2483-8.1671v-6.6283zm-19,0c-0.89138-3.4314-5.307-1.5655-7.935-2.044-2.7994,0.27103-5.9052-0.61606-8.4664,0.59862-1.2595,3.354-0.29721,7.2759-0.59862,10.871-0.64661,3.1276,0.65082,6.5516,4.4004,5.5304,3.7792-0.0988,7.5985,0.20295,11.351-0.16061,2.3066-1.9201,0.82805-5.4808,1.2483-8.1671v-6.6283zm-19,18.999c-0.89205-3.4301-5.3064-1.5645-7.934-2.043-2.7998,0.27097-5.906-0.61592-8.4675,0.5985-1.2593,3.3536-0.29707,7.2753-0.5985,10.87-0.64603,3.1272,0.64909,6.5529,4.3994,5.5314,3.7797-0.0987,7.5994,0.20287,11.353-0.16059,2.306-1.92,0.82764-5.4802,1.2479-8.1662v-6.6303zm0-18.999c-0.89091-3.4314-5.3062-1.5655-7.934-2.044-2.7998,0.27103-5.9061-0.61604-8.4675,0.59862-1.2592,3.3541-0.29715,7.2759-0.5985,10.871-0.64624,3.127,0.64993,6.5517,4.3994,5.5304,3.7797-0.0988,7.5995,0.20289,11.353-0.16061,2.3059-1.9206,0.82772-5.4808,1.2479-8.1671v-6.6283zm-18,18.999c-0.89116-3.4303-5.3057-1.5644-7.933-2.043-2.8003,0.27094-5.9071-0.61585-8.469,0.5985-1.2583,3.354-0.2968,7.2753-0.598,10.87-0.64563,3.1267,0.64799,6.553,4.3984,5.5314,3.7803-0.0987,7.6007,0.2028,11.355-0.16059,2.3047-1.9208,0.82692-5.4802,1.2471-8.1662v-6.6303zm-36,0c-0.89252-3.4301-5.3071-1.5645-7.935-2.043-2.7995,0.27098-5.9051-0.61593-8.4664,0.5985-1.2596,3.3535-0.29713,7.2753-0.59862,10.87-0.6464,3.1279,0.64998,6.5528,4.4004,5.5314,3.7792-0.0988,7.5985,0.20293,11.351-0.16059,2.3067-1.9195,0.82796-5.4802,1.2483-8.1662v-6.6303zm18,0c-0.89205-3.4301-5.3064-1.5645-7.934-2.043-2.7998,0.27097-5.906-0.61592-8.4675,0.5985-1.2593,3.3536-0.29707,7.2753-0.5985,10.87-0.64603,3.1272,0.64909,6.5529,4.3994,5.5314,3.7797-0.0987,7.5994,0.20287,11.353-0.16059,2.306-1.92,0.82764-5.4802,1.2479-8.1662v-6.6303zm-36-18.617c-0.91224-3.7912-5.4487-2.0187-8.265-2.426-2.6733,0.36137-5.8498-0.82165-8.134,0.78962-1.2544,3.7172-0.3054,7.9214-0.601,11.847-0.97489,3.4992,2.1265,5.0534,5.1899,4.3629,3.6554-0.30515,7.5897,0.65941,11.046-0.57563,1.5555-2.6836,0.41529-6.2202,0.76438-9.277v-4.7213zm18-0.3819c-0.89138-3.4314-5.307-1.5655-7.935-2.044-2.7994,0.27103-5.9052-0.61606-8.4664,0.59862-1.2595,3.354-0.29721,7.2759-0.59862,10.871-0.64661,3.1276,0.65082,6.5516,4.4004,5.5304,3.7792-0.0988,7.5985,0.20295,11.351-0.16061,2.3066-1.9201,0.82805-5.4808,1.2483-8.1671v-6.6283zm18,0c-0.89091-3.4314-5.3062-1.5655-7.934-2.044-2.7998,0.27103-5.9061-0.61604-8.4675,0.59862-1.2592,3.3541-0.29715,7.2759-0.5985,10.871-0.64624,3.127,0.64993,6.5517,4.3994,5.5304,3.7797-0.0988,7.5995,0.20289,11.353-0.16061,2.3059-1.9206,0.82772-5.4808,1.2479-8.1671v-6.6283zm92-36c-0.89138-3.4314-5.307-1.5655-7.935-2.044-2.7994,0.27103-5.9052-0.61606-8.4664,0.59862-1.2595,3.354-0.29721,7.2759-0.59862,10.871-0.64661,3.1276,0.65082,6.5516,4.4004,5.5304,3.7792-0.0988,7.5985,0.20295,11.351-0.16061,2.3066-1.9201,0.82805-5.4808,1.2483-8.1671v-6.6283z"/><path id="f301" fill-rule="nonzero" inkscape:connector-curvature="0" d="m432,260.04c0-1.129-0.916-2.044-2.045-2.044h-12.91c-1.129,0-2.045,0.915-2.045,2.044v12.912c0,1.129,0.916,2.044,2.045,2.044h12.91c1.129,0,2.045-0.915,2.045-2.044v-12.912zm-18-18c0-1.129-0.915-2.044-2.043-2.044h-12.914c-1.128,0-2.043,0.915-2.043,2.044v12.912c0,1.129,0.915,2.044,2.043,2.044h12.914c1.128,0,2.043-0.915,2.043-2.044v-12.912zm18-18c0-1.12-0.92-2.04-2.04-2.04h-12.91c-1.129,0-2.045,0.915-2.045,2.043v12.914c0,1.128,0.916,2.043,2.045,2.043h12.91c1.129,0,2.045-0.915,2.045-2.043v-12.914zm0,18.001c0-1.129-0.916-2.044-2.045-2.044h-12.91c-1.129,0-2.045,0.915-2.045,2.044v12.912c0,1.129,0.916,2.044,2.045,2.044h12.91c1.129,0,2.045-0.915,2.045-2.044v-12.912zm74-54c0-1.12-0.92-2.04-2.04-2.04h-12.914c-1.128,0-2.043,0.915-2.043,2.043v12.914c0,1.128,0.915,2.043,2.043,2.043h12.914c1.128,0,2.043-0.915,2.043-2.043v-12.914zm-18-18c0-1.12-0.92-2.04-2.04-2.04h-12.914c-1.128,0-2.043,0.915-2.043,2.043v12.914c0,1.128,0.915,2.043,2.043,2.043h12.914c1.128,0,2.043-0.915,2.043-2.043v-12.914zm-19,0c0-1.12-0.92-2.04-2.04-2.04h-12.912c-1.129,0-2.044,0.915-2.044,2.043v12.914c0,1.128,0.915,2.043,2.044,2.043h12.912c1.129,0,2.044-0.915,2.044-2.043v-12.914zm19,18c0-1.12-0.92-2.04-2.04-2.04h-12.914c-1.128,0-2.043,0.915-2.043,2.043v12.914c0,1.128,0.915,2.043,2.043,2.043h12.914c1.128,0,2.043-0.915,2.043-2.043v-12.914zm0,54c0-1.12-0.92-2.04-2.04-2.04h-12.914c-1.128,0-2.043,0.915-2.043,2.043v12.914c0,1.128,0.915,2.043,2.043,2.043h12.914c1.128,0,2.043-0.915,2.043-2.043v-12.914zm0-18c0-1.12-0.92-2.04-2.04-2.04h-12.914c-1.128,0-2.043,0.915-2.043,2.043v12.914c0,1.128,0.915,2.043,2.043,2.043h12.914c1.128,0,2.043-0.915,2.043-2.043v-12.914zm0-18c0-1.12-0.92-2.04-2.04-2.04h-12.914c-1.128,0-2.043,0.915-2.043,2.043v12.914c0,1.128,0.915,2.043,2.043,2.043h12.914c1.128,0,2.043-0.915,2.043-2.043v-12.914zm-19-18c0-1.12-0.92-2.04-2.04-2.04h-12.912c-1.129,0-2.044,0.915-2.044,2.043v12.914c0,1.128,0.915,2.043,2.044,2.043h12.912c1.129,0,2.044-0.915,2.044-2.043v-12.914zm0,18c0-1.12-0.92-2.04-2.04-2.04h-12.912c-1.129,0-2.044,0.915-2.044,2.043v12.914c0,1.128,0.915,2.043,2.044,2.043h12.912c1.129,0,2.044-0.915,2.044-2.043v-12.914zm0,18.001c0-1.129-0.915-2.044-2.044-2.044h-12.912c-1.129,0-2.044,0.915-2.044,2.044v12.912c0,1.129,0.915,2.044,2.044,2.044h12.912c1.129,0,2.044-0.915,2.044-2.044v-12.912zm0,18c0-1.129-0.915-2.044-2.044-2.044h-12.912c-1.129,0-2.044,0.915-2.044,2.044v12.912c0,1.129,0.915,2.044,2.044,2.044h12.912c1.129,0,2.044-0.915,2.044-2.044v-12.912zm-19-18c0-1.129-0.915-2.044-2.043-2.044h-12.914c-1.128,0-2.043,0.915-2.043,2.044v12.912c0,1.129,0.915,2.044,2.043,2.044h12.914c1.128,0,2.043-0.915,2.043-2.044v-12.912zm0,18c0-1.129-0.915-2.044-2.043-2.044h-12.914c-1.128,0-2.043,0.915-2.043,2.044v12.912c0,1.129,0.915,2.044,2.043,2.044h12.914c1.128,0,2.043-0.915,2.043-2.044v-12.912z"/><path id="f04" fill-rule="nonzero" inkscape:connector-curvature="0" d="M450,297.04c0-1.12-0.92-2.04-2.04-2.04h-12.914c-1.128,0-2.043,0.915-2.043,2.043v12.914c0,1.128,0.915,2.043,2.043,2.043h12.914c1.128,0,2.043-0.915,2.043-2.043v-12.914zm-72,19c0-1.12-0.92-2.04-2.04-2.04h-12.914c-1.128,0-2.043,0.915-2.043,2.043v12.914c0,1.128,0.915,2.043,2.043,2.043h12.914c1.128,0,2.043-0.915,2.043-2.043v-12.914zm36-19c0-1.12-0.92-2.04-2.04-2.04h-12.914c-1.128,0-2.043,0.915-2.043,2.043v12.914c0,1.128,0.915,2.043,2.043,2.043h12.914c1.128,0,2.043-0.915,2.043-2.043v-12.914zm0,19c0-1.12-0.92-2.04-2.04-2.04h-12.914c-1.128,0-2.043,0.915-2.043,2.043v12.914c0,1.128,0.915,2.043,2.043,2.043h12.914c1.128,0,2.043-0.915,2.043-2.043v-12.914zm18-19c0-1.12-0.92-2.04-2.04-2.04h-12.91c-1.129,0-2.045,0.915-2.045,2.043v12.914c0,1.128,0.916,2.043,2.045,2.043h12.91c1.129,0,2.045-0.915,2.045-2.043v-12.914zm0,19c0-1.12-0.92-2.04-2.04-2.04h-12.91c-1.129,0-2.045,0.915-2.045,2.043v12.914c0,1.128,0.916,2.043,2.045,2.043h12.91c1.129,0,2.045-0.915,2.045-2.043v-12.914zm-36-19c0-1.12-0.92-2.04-2.04-2.04h-12.912c-1.129,0-2.044,0.915-2.044,2.043v12.914c0,1.128,0.915,2.043,2.044,2.043h12.912c1.129,0,2.044-0.915,2.044-2.043v-12.914zm0,19c0-1.12-0.92-2.04-2.04-2.04h-12.912c-1.129,0-2.044,0.915-2.044,2.043v12.914c0,1.128,0.915,2.043,2.044,2.043h12.912c1.129,0,2.044-0.915,2.044-2.043v-12.914z"/><path id="f05" fill-rule="nonzero" inkscape:connector-curvature="0" d="M341,279.04c0-1.12-0.92-2.04-2.04-2.04h-12.912c-1.129,0-2.044,0.915-2.044,2.043v12.914c0,1.128,0.915,2.043,2.044,2.043h12.912c1.129,0,2.044-0.915,2.044-2.043v-12.914zm37,0c0-1.12-0.92-2.04-2.04-2.04h-12.914c-1.128,0-2.043,0.915-2.043,2.043v12.914c0,1.128,0.915,2.043,2.043,2.043h12.914c1.128,0,2.043-0.915,2.043-2.043v-12.914zm0,18c0-1.12-0.92-2.04-2.04-2.04h-12.914c-1.128,0-2.043,0.915-2.043,2.043v12.914c0,1.128,0.915,2.043,2.043,2.043h12.914c1.128,0,2.043-0.915,2.043-2.043v-12.914zm-19-36.617c0-1.129-0.984-2.426-2.111-2.426h-12.578c-1.128,0-2.311,1.297-2.311,2.426v12.576c0,1.129,1.183,1.998,2.311,1.998h12.578c1.127,0,2.111-0.869,2.111-1.998v-12.576zm0,18.617c0-1.12-0.92-2.04-2.04-2.04h-12.914c-1.128,0-2.043,0.915-2.043,2.043v12.914c0,1.128,0.915,2.043,2.043,2.043h12.914c1.128,0,2.043-0.915,2.043-2.043v-12.914zm0,18c0-1.12-0.92-2.04-2.04-2.04h-12.914c-1.128,0-2.043,0.915-2.043,2.043v12.914c0,1.128,0.915,2.043,2.043,2.043h12.914c1.128,0,2.043-0.915,2.043-2.043v-12.914zm0,19c0-1.12-0.92-2.04-2.04-2.04h-12.914c-1.128,0-2.043,0.915-2.043,2.043v12.914c0,1.128,0.915,2.043,2.043,2.043h12.914c1.128,0,2.043-0.915,2.043-2.043v-12.914z"/><path id="f06" fill-rule="nonzero" inkscape:connector-curvature="0" d="m396,206.6c0-1.127-0.736-2.604-1.865-2.604h-12.575c-1.129,0-1.56,1.477-1.56,2.604v12.578c0,1.128,0.431,1.818,1.56,1.818h12.575c1.129,0,1.865-0.69,1.865-1.818v-12.578zm36-0.5615c0-1.12-0.92-2.04-2.04-2.04h-12.914c-1.129,0-2.043,0.915-2.043,2.043v12.914c0,1.128,0.914,2.043,2.043,2.043h12.914c1.128,0,2.043-0.915,2.043-2.043v-12.914zm-18,0c0-1.12-0.92-2.04-2.04-2.04h-12.914c-1.128,0-2.043,0.915-2.043,2.043v12.914c0,1.128,0.915,2.043,2.043,2.043h12.914c1.128,0,2.043-0.915,2.043-2.043v-12.914zm-18,18c0-1.12-0.92-2.04-2.04-2.04h-12.912c-1.129,0-2.044,0.915-2.044,2.043v12.914c0,1.128,0.915,2.043,2.044,2.043h12.912c1.129,0,2.044-0.915,2.044-2.043v-12.914zm18-0.0713c0-1.128-1.841-1.972-2.97-1.972h-12.569c-1.128,0-1.461,0.844-1.461,1.972v12.568c0,1.128,0.333,2.46,1.461,2.46h12.569c1.129,0,2.97-1.332,2.97-2.46v-12.568zm-73,0.0722c0-1.129-0.914-2.044-2.042-2.044h-12.916c-1.128,0-2.042,0.915-2.042,2.044v12.912c0,1.129,0.914,2.044,2.042,2.044h12.916c1.128,0,2.042-0.915,2.042-2.044v-12.912zm18,18c0-1.129-0.914-2.044-2.042-2.044h-12.916c-1.128,0-2.042,0.915-2.042,2.044v12.912c0,1.129,0.914,2.044,2.042,2.044h12.916c1.128,0,2.042-0.915,2.042-2.044v-12.912zm19,0c0-1.129-0.915-2.044-2.043-2.044h-12.914c-1.128,0-2.043,0.915-2.043,2.044v12.912c0,1.129,0.915,2.044,2.043,2.044h12.914c1.128,0,2.043-0.915,2.043-2.044v-12.912zm18,0c0-1.129-0.915-2.044-2.044-2.044h-12.912c-1.129,0-2.044,0.915-2.044,2.044v12.912c0,1.129,0.915,2.044,2.044,2.044h12.912c1.129,0,2.044-0.915,2.044-2.044v-12.912z"/><path id="f07" fill-rule="nonzero" inkscape:connector-curvature="0" d="M396,151.04c0-1.13-0.92-2.04-2.04-2.04h-12.912c-1.129,0-2.044,0.914-2.044,2.042v12.916c0,1.128,0.915,2.042,2.044,2.042h12.912c1.129,0,2.044-0.914,2.044-2.042v-12.916zm-18,0c0-1.13-0.92-2.04-2.04-2.04h-12.912c-1.129,0-2.044,0.914-2.044,2.042v12.916c0,1.128,0.915,2.042,2.044,2.042h12.912c1.129,0,2.044-0.914,2.044-2.042v-12.916zm36,19.001c0-1.12-0.92-2.04-2.04-2.04h-12.914c-1.128,0-2.043,0.915-2.043,2.043v12.914c0,1.128,0.915,2.043,2.043,2.043h12.914c1.128,0,2.043-0.915,2.043-2.043v-12.914zm-18-0.001c0-1.13-0.92-2.04-2.04-2.04h-12.912c-1.129,0-2.044,0.914-2.044,2.042v12.916c0,1.128,0.915,2.042,2.044,2.042h12.912c1.129,0,2.044-0.914,2.044-2.042v-12.916zm0,18c0-1.13-0.92-2.04-2.04-2.04h-12.912c-1.129,0-2.044,0.914-2.044,2.042v12.916c0,1.128,0.915,2.042,2.044,2.042h12.912c1.129,0,2.044-0.914,2.044-2.042v-12.916zm36,0c0-1.13-0.91-2.04-2.04-2.04h-12.916c-1.128,0-2.042,0.914-2.042,2.042v12.916c0,1.128,0.914,2.042,2.042,2.042h12.916c1.128,0,2.042-0.914,2.042-2.042v-12.916zm-18,0c0-1.13-0.92-2.04-2.04-2.04h-12.914c-1.128,0-2.043,0.914-2.043,2.042v12.916c0,1.128,0.915,2.042,2.043,2.042h12.914c1.128,0,2.043-0.914,2.043-2.042v-12.916z"/><path id="f08" fill-rule="nonzero" inkscape:connector-curvature="0" d="M359,188.04c0-1.13-0.92-2.04-2.04-2.04h-12.914c-1.128,0-2.043,0.914-2.043,2.042v12.916c0,1.128,0.915,2.042,2.043,2.042h12.914c1.128,0,2.043-0.914,2.043-2.042v-12.916zm19,0c0-1.13-0.92-2.04-2.04-2.04h-12.912c-1.129,0-2.044,0.914-2.044,2.042v12.916c0,1.128,0.915,2.042,2.044,2.042h12.912c1.129,0,2.044-0.914,2.044-2.042v-12.916zm-19,18.001c0-1.12-0.92-2.04-2.04-2.04h-12.914c-1.128,0-2.043,0.915-2.043,2.043v12.914c0,1.128,0.915,2.043,2.043,2.043h12.914c1.128,0,2.043-0.915,2.043-2.043v-12.914zm19,0.4707c0-1.127-1.247-2.514-2.375-2.514h-12.576c-1.129,0-2.049,1.387-2.049,2.514v12.578c0,1.127,0.92,1.908,2.049,1.908h12.576c1.128,0,2.375-0.781,2.375-1.908v-12.578zm-19,17.322c0-1.271-0.371-1.836-1.397-1.836h-13.283c-1.027,0-2.32,0.565-2.32,1.836v12.395c0,1.271,1.293,2.769,2.32,2.769h13.283c1.026,0,1.397-1.498,1.397-2.769v-12.395zm19,0.2071c0-1.12-0.92-2.04-2.04-2.04h-12.912c-1.129,0-2.044,0.915-2.044,2.043v12.914c0,1.128,0.915,2.043,2.044,2.043h12.912c1.129,0,2.044-0.915,2.044-2.043v-12.914z"/><path id="f09" fill-rule="nonzero" inkscape:connector-curvature="0" d="M359,133.04c0-1.12-0.92-2.04-2.04-2.04h-12.914c-1.128,0-2.043,0.915-2.043,2.043v12.914c0,1.128,0.915,2.043,2.043,2.043h12.914c1.128,0,2.043-0.915,2.043-2.043v-12.914zm19,37c0-1.12-0.92-2.04-2.04-2.04h-12.914c-1.128,0-2.043,0.915-2.043,2.043v12.914c0,1.128,0.915,2.043,2.043,2.043h12.914c1.128,0,2.043-0.915,2.043-2.043v-12.914zm-19-19c0-1.13-0.92-2.04-2.04-2.04h-12.914c-1.128,0-2.043,0.914-2.043,2.042v12.916c0,1.128,0.915,2.042,2.043,2.042h12.914c1.128,0,2.043-0.914,2.043-2.042v-12.916zm0,19.001c0-1.12-0.92-2.04-2.04-2.04h-12.914c-1.128,0-2.043,0.915-2.043,2.043v12.914c0,1.128,0.915,2.043,2.043,2.043h12.914c1.128,0,2.043-0.915,2.043-2.043v-12.914z"/><path id="f10" fill-rule="nonzero" inkscape:connector-curvature="0" d="m341,132.98c0-1.127-1.183-1.979-2.312-1.979h-12.575c-1.129,0-2.113,0.852-2.113,1.979v12.578c0,1.127,0.984,2.443,2.113,2.443h12.575c1.129,0,2.312-1.316,2.312-2.443v-12.578zm0,18.064c0-1.13-0.92-2.04-2.04-2.04h-12.912c-1.129,0-2.044,0.914-2.044,2.042v12.916c0,1.128,0.915,2.042,2.044,2.042h12.912c1.129,0,2.044-0.914,2.044-2.042v-12.916zm-19-18.064c0-1.127-1.188-1.979-2.316-1.979h-12.576c-1.129,0-2.108,0.852-2.108,1.979v12.578c0,1.127,0.979,2.443,2.108,2.443h12.576c1.128,0,2.316-1.316,2.316-2.443v-12.578zm0,18.064c0-1.13-0.92-2.04-2.04-2.04h-12.914c-1.128,0-2.043,0.914-2.043,2.042v12.916c0,1.128,0.915,2.042,2.043,2.042h12.914c1.128,0,2.043-0.914,2.043-2.042v-12.916zm19-35.686c0-1.129-1.183-2.355-2.312-2.355h-12.575c-1.129,0-2.113,1.226-2.113,2.355v12.578c0,1.127,0.984,2.067,2.113,2.067h12.575c1.129,0,2.312-0.94,2.312-2.067v-12.578zm-38,35.69c0-1.13-0.92-2.04-2.04-2.04h-12.914c-1.128,0-2.043,0.914-2.043,2.042v12.916c0,1.128,0.915,2.042,2.043,2.042h12.914c1.128,0,2.043-0.914,2.043-2.042v-12.916z"/><path id="f11" fill-rule="nonzero" inkscape:connector-curvature="0" d="M341,170.04c0-1.12-0.92-2.04-2.04-2.04h-12.912c-1.129,0-2.044,0.915-2.044,2.043v12.914c0,1.128,0.915,2.043,2.044,2.043h12.912c1.129,0,2.044-0.915,2.044-2.043v-12.914zm0,36c0-1.12-0.92-2.04-2.04-2.04h-12.912c-1.129,0-2.044,0.915-2.044,2.043v12.914c0,1.128,0.915,2.043,2.044,2.043h12.912c1.129,0,2.044-0.915,2.044-2.043v-12.914zm0-18c0-1.12-0.92-2.04-2.04-2.04h-12.912c-1.129,0-2.044,0.915-2.044,2.043v12.914c0,1.128,0.915,2.043,2.044,2.043h12.912c1.129,0,2.044-0.915,2.044-2.043v-12.914zm-19-18c0-1.12-0.92-2.04-2.04-2.04h-12.914c-1.128,0-2.043,0.915-2.043,2.043v12.914c0,1.128,0.915,2.043,2.043,2.043h12.914c1.128,0,2.043-0.915,2.043-2.043v-12.914zm0,18c0-1.12-0.92-2.04-2.04-2.04h-12.914c-1.128,0-2.043,0.915-2.043,2.043v12.914c0,1.128,0.915,2.043,2.043,2.043h12.914c1.128,0,2.043-0.915,2.043-2.043v-12.914zm0,18.471c0-1.127-1.188-2.514-2.316-2.514h-12.576c-1.129,0-2.108,1.387-2.108,2.514v12.578c0,1.127,0.979,1.908,2.108,1.908h12.576c1.128,0,2.316-0.781,2.316-1.908v-12.578zm-19-36.47c0-1.12-0.92-2.04-2.04-2.04h-12.914c-1.128,0-2.043,0.915-2.043,2.043v12.914c0,1.128,0.915,2.043,2.043,2.043h12.914c1.128,0,2.043-0.915,2.043-2.043v-12.914zm0,18c0-1.12-0.92-2.04-2.04-2.04h-12.914c-1.128,0-2.043,0.915-2.043,2.043v12.914c0,1.128,0.915,2.043,2.043,2.043h12.914c1.128,0,2.043-0.915,2.043-2.043v-12.914zm0,18c0-1.12-0.92-2.04-2.04-2.04h-12.914c-1.128,0-2.043,0.915-2.043,2.043v12.914c0,1.128,0.915,2.043,2.043,2.043h12.914c1.128,0,2.043-0.915,2.043-2.043v-12.914zm-36-18c0-1.12-0.92-2.04-2.04-2.04h-12.912c-1.129,0-2.044,0.915-2.044,2.043v12.914c0,1.128,0.915,2.043,2.044,2.043h12.912c1.129,0,2.044-0.915,2.044-2.043v-12.914zm18,18c0-1.12-0.92-2.04-2.04-2.04h-12.912c-1.129,0-2.044,0.915-2.044,2.043v12.914c0,1.128,0.915,2.043,2.044,2.043h12.912c1.129,0,2.044-0.915,2.044-2.043v-12.914zm0-18c0-1.12-0.92-2.04-2.04-2.04h-12.912c-1.129,0-2.044,0.915-2.044,2.043v12.914c0,1.128,0.915,2.043,2.044,2.043h12.912c1.129,0,2.044-0.915,2.044-2.043v-12.914zm-18,18.471c0-1.127-0.743-2.514-1.872-2.514h-12.574c-1.13,0-2.554,1.387-2.554,2.514v12.578c0,1.127,1.424,1.908,2.554,1.908h12.574c1.129,0,1.872-0.781,1.872-1.908v-12.578z"/><path id="f12" fill-rule="nonzero" inkscape:connector-curvature="0" d="m341,242.04c0-1.129-0.915-2.044-2.043-2.044h-12.914c-1.128,0-2.043,0.915-2.043,2.044v12.912c0,1.129,0.915,2.044,2.043,2.044h12.914c1.128,0,2.043-0.915,2.043-2.044v-12.912zm0,18c0-1.129-0.915-2.044-2.043-2.044h-12.914c-1.128,0-2.043,0.915-2.043,2.044v12.912c0,1.129,0.915,2.044,2.043,2.044h12.914c1.128,0,2.043-0.915,2.043-2.044v-12.912zm-19-36c0-1.129-0.915-2.044-2.044-2.044h-12.912c-1.129,0-2.044,0.915-2.044,2.044v12.912c0,1.129,0.915,2.044,2.044,2.044h12.912c1.129,0,2.044-0.915,2.044-2.044v-12.912zm-19,18c0-1.129-0.915-2.044-2.044-2.044h-12.912c-1.129,0-2.044,0.915-2.044,2.044v12.912c0,1.129,0.915,2.044,2.044,2.044h12.912c1.129,0,2.044-0.915,2.044-2.044v-12.912zm19,0c0-1.129-0.915-2.044-2.044-2.044h-12.912c-1.129,0-2.044,0.915-2.044,2.044v12.912c0,1.129,0.915,2.044,2.044,2.044h12.912c1.129,0,2.044-0.915,2.044-2.044v-12.912zm0,18c0-1.129-0.915-2.044-2.044-2.044h-12.912c-1.129,0-2.044,0.915-2.044,2.044v12.912c0,1.129,0.915,2.044,2.044,2.044h12.912c1.129,0,2.044-0.915,2.044-2.044v-12.912zm-19-36.157c0-1.129-0.835-1.887-1.962-1.887h-12.57c-1.128,0-2.468,0.758-2.468,1.887v12.568c0,1.129,1.34,2.545,2.468,2.545h12.57c1.127,0,1.962-1.416,1.962-2.545v-12.568zm0,36.904c0-1.12-0.88-2.78-2-2.78h-12.579c-1.127,0-2.419,1.662-2.419,2.791v12.576c0,1.128,1.292,1.633,2.419,1.633h12.579c1.127,0,2.002-0.505,2.002-1.633v-12.576zm-18-36.747c0-1.129-0.915-2.044-2.043-2.044h-12.914c-1.128,0-2.043,0.915-2.043,2.044v12.912c0,1.129,0.915,2.044,2.043,2.044h12.914c1.128,0,2.043-0.915,2.043-2.044v-12.912zm0,18c0-1.129-0.915-2.044-2.043-2.044h-12.914c-1.128,0-2.043,0.915-2.043,2.044v12.912c0,1.129,0.915,2.044,2.043,2.044h12.914c1.128,0,2.043-0.915,2.043-2.044v-12.912zm0,18c0-1.129-0.915-2.044-2.043-2.044h-12.914c-1.128,0-2.043,0.915-2.043,2.044v12.912c0,1.129,0.915,2.044,2.043,2.044h12.914c1.128,0,2.043-0.915,2.043-2.044v-12.912zm-36-36.24c0-0.99-0.85-1.79-1.89-1.79h-13.218c-1.044,0-1.891,0.803-1.891,1.792v13.416c0,0.989,0.847,1.792,1.891,1.792h13.218c1.044,0,1.891-0.803,1.891-1.792v-13.416zm18,0.2519c0-1.129-0.916-2.044-2.045-2.044h-12.91c-1.129,0-2.045,0.915-2.045,2.044v12.912c0,1.129,0.916,2.044,2.045,2.044h12.91c1.129,0,2.045-0.915,2.045-2.044v-12.912zm0,18c0-1.129-0.916-2.044-2.045-2.044h-12.91c-1.129,0-2.045,0.915-2.045,2.044v12.912c0,1.129,0.916,2.044,2.045,2.044h12.91c1.129,0,2.045-0.915,2.045-2.044v-12.912zm0,18c0-1.129-0.916-2.044-2.045-2.044h-12.91c-1.129,0-2.045,0.915-2.045,2.044v12.912c0,1.129,0.916,2.044,2.045,2.044h12.91c1.129,0,2.045-0.915,2.045-2.044v-12.912z"/><path id="f14" fill-rule="nonzero" inkscape:connector-curvature="0" d="M322,279.04c0-1.12-0.92-2.04-2.04-2.04h-12.914c-1.128,0-2.043,0.915-2.043,2.043v12.914c0,1.128,0.915,2.043,2.043,2.043h12.914c1.128,0,2.043-0.915,2.043-2.043v-12.914zm-19,0c0-1.12-0.92-2.04-2.04-2.04h-12.914c-1.128,0-2.043,0.915-2.043,2.043v12.914c0,1.128,0.915,2.043,2.043,2.043h12.914c1.128,0,2.043-0.915,2.043-2.043v-12.914zm19,18c0-1.13-0.92-2.04-2.04-2.04h-12.914c-1.128,0-2.043,0.914-2.043,2.043v12.915c0,1.127,0.915,2.042,2.043,2.042h12.914c1.128,0,2.043-0.915,2.043-2.042v-12.915zm-19,0c0-1.13-0.92-2.04-2.04-2.04h-12.914c-1.128,0-2.043,0.914-2.043,2.043v12.915c0,1.127,0.915,2.042,2.043,2.042h12.914c1.128,0,2.043-0.915,2.043-2.042v-12.915zm38,0c0-1.12-0.92-2.04-2.04-2.04h-12.912c-1.129,0-2.044,0.915-2.044,2.043v12.914c0,1.128,0.915,2.043,2.044,2.043h12.912c1.129,0,2.044-0.915,2.044-2.043v-12.914z"/><path id="f15" fill-rule="nonzero" inkscape:connector-curvature="0" d="M341,316.04c0-1.12-0.92-2.04-2.04-2.04h-12.912c-1.129,0-2.044,0.915-2.044,2.043v12.914c0,1.128,0.915,2.043,2.044,2.043h12.912c1.129,0,2.044-0.915,2.044-2.043v-12.914zm0,18c0-1.128-0.915-2.043-2.044-2.043h-12.912c-1.129,0-2.044,0.915-2.044,2.043v12.913c0,1.129,0.915,2.044,2.044,2.044h12.912c1.129,0,2.044-0.915,2.044-2.044v-12.913zm-19-18c0-1.12-0.92-2.04-2.04-2.04h-12.914c-1.128,0-2.043,0.915-2.043,2.043v12.914c0,1.128,0.915,2.043,2.043,2.043h12.914c1.128,0,2.043-0.915,2.043-2.043v-12.914zm0,18c0-1.128-0.915-2.043-2.043-2.043h-12.914c-1.128,0-2.043,0.915-2.043,2.043v12.913c0,1.129,0.915,2.044,2.043,2.044h12.914c1.128,0,2.043-0.915,2.043-2.044v-12.913zm-19-18c0-1.12-0.92-2.04-2.04-2.04h-12.914c-1.128,0-2.043,0.915-2.043,2.043v12.914c0,1.128,0.915,2.043,2.043,2.043h12.914c1.128,0,2.043-0.915,2.043-2.043v-12.914zm-19-18.371c0-1.127-0.519-1.672-1.647-1.672h-12.576c-1.129,0-1.777,0.545-1.777,1.672v12.579c0,1.128,0.648,1.749,1.777,1.749h12.576c1.128,0,1.647-0.621,1.647-1.749v-12.579zm1,18.371c0-1.12-0.92-2.04-2.04-2.04h-12.912c-1.129,0-2.044,0.915-2.044,2.043v12.914c0,1.128,0.915,2.043,2.044,2.043h12.912c1.129,0,2.044-0.915,2.044-2.043v-12.914zm0,18c0-1.128-0.915-2.043-2.044-2.043h-12.912c-1.129,0-2.044,0.915-2.044,2.043v12.913c0,1.129,0.915,2.044,2.044,2.044h12.912c1.129,0,2.044-0.915,2.044-2.044v-12.913zm18,0c0-1.128-0.915-2.043-2.043-2.043h-12.914c-1.128,0-2.043,0.915-2.043,2.043v12.913c0,1.129,0.915,2.044,2.043,2.044h12.914c1.128,0,2.043-0.915,2.043-2.044v-12.913z"/><path id="f16" fill-rule="nonzero" inkscape:connector-curvature="0" d="m414,334.04c0-1.128-0.915-2.043-2.044-2.043h-12.912c-1.129,0-2.044,0.915-2.044,2.043v12.913c0,1.129,0.915,2.044,2.044,2.044h12.912c1.129,0,2.044-0.915,2.044-2.044v-12.913zm-18,0c0-1.128-0.915-2.043-2.043-2.043h-12.914c-1.128,0-2.043,0.915-2.043,2.043v12.913c0,1.129,0.915,2.044,2.043,2.044h12.914c1.128,0,2.043-0.915,2.043-2.044v-12.913zm-18,0c0-1.128-0.915-2.043-2.043-2.043h-12.914c-1.128,0-2.043,0.915-2.043,2.043v12.913c0,1.129,0.915,2.044,2.043,2.044h12.914c1.128,0,2.043-0.915,2.043-2.044v-12.913zm-19,0c0-1.128-0.915-2.043-2.044-2.043h-12.912c-1.129,0-2.044,0.915-2.044,2.043v12.913c0,1.129,0.915,2.044,2.044,2.044h12.912c1.129,0,2.044-0.915,2.044-2.044v-12.913zm19,18c0-1.129-0.915-2.044-2.044-2.044h-12.912c-1.129,0-2.044,0.915-2.044,2.044v12.912c0,1.129,0.915,2.044,2.044,2.044h12.912c1.129,0,2.044-0.915,2.044-2.044v-12.912zm18,0c0-1.129-0.915-2.044-2.044-2.044h-12.912c-1.129,0-2.044,0.915-2.044,2.044v12.912c0,1.129,0.915,2.044,2.044,2.044h12.912c1.129,0,2.044-0.915,2.044-2.044v-12.912zm18,0c0-1.129-0.915-2.044-2.044-2.044h-12.912c-1.129,0-2.044,0.915-2.044,2.044v12.912c0,1.129,0.915,2.044,2.044,2.044h12.912c1.129,0,2.044-0.915,2.044-2.044v-12.912zm-73,0c0-1.129-0.915-2.044-2.044-2.044h-12.912c-1.129,0-2.044,0.915-2.044,2.044v12.912c0,1.129,0.915,2.044,2.044,2.044h12.912c1.129,0,2.044-0.915,2.044-2.044v-12.912zm18,0c0-1.129-0.915-2.044-2.043-2.044h-12.914c-1.128,0-2.043,0.915-2.043,2.044v12.912c0,1.129,0.915,2.044,2.043,2.044h12.914c1.128,0,2.043-0.915,2.043-2.044v-12.912zm55,18c0-1.129-0.915-2.044-2.044-2.044h-12.912c-1.129,0-2.044,0.915-2.044,2.044v12.912c0,1.129,0.915,2.044,2.044,2.044h12.912c1.129,0,2.044-0.915,2.044-2.044v-12.912z"/><path id="f17" d="M432,388.04c0-1.12-0.92-2.04-2.04-2.04h-12.914c-1.128,0-2.043,0.915-2.043,2.043v12.914c0,1.128,0.915,2.043,2.043,2.043h12.914c1.128,0,2.043-0.915,2.043-2.043v-12.914zm-18,0c0-1.12-0.92-2.04-2.04-2.04h-12.912c-1.129,0-2.044,0.915-2.044,2.043v12.914c0,1.128,0.915,2.043,2.044,2.043h12.912c1.129,0,2.044-0.915,2.044-2.043v-12.914zm-18-17.999c0-1.129-0.915-2.044-2.043-2.044h-12.914c-1.128,0-2.043,0.915-2.043,2.044v12.912c0,1.129,0.915,2.044,2.043,2.044h12.914c1.128,0,2.043-0.915,2.043-2.044v-12.912zm-18,0c0-1.129-0.915-2.044-2.042-2.044h-12.916c-1.127,0-2.042,0.915-2.042,2.044v12.912c0,1.129,0.915,2.044,2.042,2.044h12.916c1.127,0,2.042-0.915,2.042-2.044v-12.912zm0,17.999c0-1.12-0.92-2.04-2.04-2.04h-12.916c-1.127,0-2.042,0.915-2.042,2.043v12.914c0,1.128,0.915,2.043,2.042,2.043h12.916c1.127,0,2.042-0.915,2.042-2.043v-12.914zm18,0c0-1.12-0.92-2.04-2.04-2.04h-12.914c-1.128,0-2.043,0.915-2.043,2.043v12.914c0,1.128,0.915,2.043,2.043,2.043h12.914c1.128,0,2.043-0.915,2.043-2.043v-12.914z" fill-rule="nonzero" inkscape:connector-curvature="0"/><path id="f18" fill-rule="nonzero" inkscape:connector-curvature="0" d="M396,406.04c0-1.12-0.92-2.04-2.04-2.04h-12.914c-1.128,0-2.043,0.915-2.043,2.043v12.914c0,1.128,0.915,2.043,2.043,2.043h12.914c1.128,0,2.043-0.915,2.043-2.043v-12.914zm18,0c0-1.12-0.92-2.04-2.04-2.04h-12.912c-1.129,0-2.044,0.915-2.044,2.043v12.914c0,1.128,0.915,2.043,2.044,2.043h12.912c1.129,0,2.044-0.915,2.044-2.043v-12.914zm-18,18c0-1.12-0.92-2.04-2.04-2.04h-12.914c-1.128,0-2.043,0.915-2.043,2.043v12.914c0,1.128,0.915,2.043,2.043,2.043h12.914c1.128,0,2.043-0.915,2.043-2.043v-12.914zm0,19c0-1.128-0.915-2.043-2.043-2.043h-12.914c-1.128,0-2.043,0.915-2.043,2.043v12.913c0,1.129,0.915,2.044,2.043,2.044h12.914c1.128,0,2.043-0.915,2.043-2.044v-12.913zm18,0c0-1.128-0.915-2.043-2.044-2.043h-12.912c-1.129,0-2.044,0.915-2.044,2.043v12.913c0,1.129,0.915,2.044,2.044,2.044h12.912c1.129,0,2.044-0.915,2.044-2.044v-12.913zm0-19c0-1.12-0.92-2.04-2.04-2.04h-12.912c-1.129,0-2.044,0.915-2.044,2.043v12.914c0,1.128,0.915,2.043,2.044,2.043h12.912c1.129,0,2.044-0.915,2.044-2.043v-12.914zm18,37c0-1.128-0.915-2.043-2.044-2.043h-12.912c-1.129,0-2.044,0.915-2.044,2.043v12.913c0,1.129,0.915,2.044,2.044,2.044h12.912c1.129,0,2.044-0.915,2.044-2.044v-12.913zm-54,0c0-1.128-0.915-2.043-2.043-2.043h-12.914c-1.128,0-2.043,0.915-2.043,2.043v12.913c0,1.129,0.915,2.044,2.043,2.044h12.914c1.128,0,2.043-0.915,2.043-2.044v-12.913zm18,0c0-1.128-0.915-2.043-2.042-2.043h-12.916c-1.127,0-2.042,0.915-2.042,2.043v12.913c0,1.129,0.915,2.044,2.042,2.044h12.916c1.127,0,2.042-0.915,2.042-2.044v-12.913zm18,0c0-1.128-0.915-2.043-2.044-2.043h-12.912c-1.129,0-2.044,0.915-2.044,2.043v12.913c0,1.129,0.915,2.044,2.044,2.044h12.912c1.129,0,2.044-0.915,2.044-2.044v-12.913z"/><path id="f19" fill-rule="nonzero" inkscape:connector-curvature="0" d="m450,461.04c0-1.128-0.915-2.043-2.043-2.043h-12.914c-1.128,0-2.043,0.915-2.043,2.043v12.913c0,1.129,0.915,2.044,2.043,2.044h12.914c1.128,0,2.043-0.915,2.043-2.044v-12.913zm0,18.93c0-1.129-1.063-1.973-2.19-1.973h-12.57c-1.128,0-2.24,0.844-2.24,1.973v12.568c0,1.129,1.112,2.459,2.24,2.459h12.57c1.127,0,2.19-1.33,2.19-2.459v-12.568zm0,36.07c0-1.128-0.915-2.043-2.043-2.043h-12.914c-1.128,0-2.043,0.915-2.043,2.043v12.913c0,1.129,0.915,2.044,2.043,2.044h12.914c1.128,0,2.043-0.915,2.043-2.044v-12.913zm0-18c0-1.129-0.915-2.044-2.043-2.044h-12.914c-1.128,0-2.043,0.915-2.043,2.044v12.912c0,1.129,0.915,2.044,2.043,2.044h12.914c1.128,0,2.043-0.915,2.043-2.044v-12.912zm-36-18c0-1.128-0.915-2.043-2.044-2.043h-12.912c-1.129,0-2.044,0.915-2.044,2.043v12.913c0,1.129,0.915,2.044,2.044,2.044h12.912c1.129,0,2.044-0.915,2.044-2.044v-12.913zm18,0c0-1.128-0.915-2.043-2.044-2.043h-12.912c-1.129,0-2.044,0.915-2.044,2.043v12.913c0,1.129,0.915,2.044,2.044,2.044h12.912c1.129,0,2.044-0.915,2.044-2.044v-12.913zm0,18c0-1.129-0.915-2.044-2.044-2.044h-12.912c-1.129,0-2.044,0.915-2.044,2.044v12.912c0,1.129,0.915,2.044,2.044,2.044h12.912c1.129,0,2.044-0.915,2.044-2.044v-12.912z"/><path id="f20" fill-rule="nonzero" inkscape:connector-curvature="0" d="M504,516.38c0-1.13-1.08-2.38-2.21-2.38h-12.578c-1.128,0-2.214,1.249-2.214,2.377v12.577c0,1.129,1.086,2.046,2.214,2.046h12.578c1.127,0,2.208-0.917,2.208-2.046v-12.577zm-18-0.3335c0-1.128-0.915-2.043-2.043-2.043h-12.914c-1.128,0-2.043,0.915-2.043,2.043v12.913c0,1.129,0.915,2.044,2.043,2.044h12.914c1.128,0,2.043-0.915,2.043-2.044v-12.913zm18-17.31c0-1.129-1.081-1.734-2.208-1.734h-12.578c-1.128,0-2.214,0.605-2.214,1.734v12.576c0,1.129,1.086,1.69,2.214,1.69h12.578c1.127,0,2.208-0.561,2.208-1.69v-12.576zm-36-0.69c0-1.129-0.915-2.044-2.044-2.044h-12.912c-1.129,0-2.044,0.915-2.044,2.044v12.912c0,1.129,0.915,2.044,2.044,2.044h12.912c1.129,0,2.044-0.915,2.044-2.044v-12.912zm0,18c0-1.128-0.915-2.043-2.044-2.043h-12.912c-1.129,0-2.044,0.915-2.044,2.043v12.913c0,1.129,0.915,2.044,2.044,2.044h12.912c1.129,0,2.044-0.915,2.044-2.044v-12.913z"/><g id="NorgeAlt" inkscape:label="NorgeAlt" transform="translate(0,-1.6)"><title id="title3636">NorgeAlt</title><g id="NABtns" transform="translate(-0.8,-1.6)" inkscape:label="Finnmark" clip-path="url(#clipPath3877)"><title id="title3675">Finnmark</title><path id="c301" d="m610,182.9c0-2.707-2.194-4.901-4.9-4.901h-23.2c-2.706,0-4.9,2.194-4.9,4.901v23.197c0,2.707,2.194,4.902,4.9,4.902h23.2c2.706,0,4.9-2.195,4.9-4.902v-23.197z" fill-rule="nonzero" inkscape:connector-curvature="0" fill="#808080"/><path id="c01" d="m611,139c0-2.762-2.238-5-5-5h-24c-2.762,0-5,2.238-5,5v24c0,2.762,2.238,5,5,5h24c2.762,0,5-2.238,5-5v-24z" fill-rule="nonzero" inkscape:connector-curvature="0" fill="#808080"/><path id="c02" d="m610,258.9c0-2.706-2.194-4.9-4.9-4.9h-23.2c-2.706,0-4.9,2.194-4.9,4.9v23.199c0,2.706,2.194,4.901,4.9,4.901h23.2c2.706,0,4.9-2.195,4.9-4.901v-23.199z" fill-rule="nonzero" inkscape:connector-curvature="0" fill="#808080"/><path id="c04" d="m509,300.9c0-2.707-2.194-4.901-4.9-4.901h-23.2c-2.706,0-4.9,2.194-4.9,4.901v23.198c0,2.707,2.194,4.901,4.9,4.901h23.2c2.706,0,4.9-2.194,4.9-4.901v-23.198z" fill-rule="nonzero" inkscape:connector-curvature="0" fill="#808080"/><path id="c05" d="m553,278.9c0-2.706-2.194-4.9-4.901-4.9h-23.198c-2.707,0-4.901,2.194-4.901,4.9v23.199c0,2.707,2.194,4.901,4.901,4.901h23.198c2.707,0,4.901-2.194,4.901-4.901v-23.199z" fill-rule="nonzero" inkscape:connector-curvature="0" fill="#808080"/><path id="c07" d="m465,111.5c0-2.707-2.194-4.902-4.9-4.902h-23.2c-2.706,0-4.9,2.195-4.9,4.902v23.195c0,2.707,2.194,4.903,4.9,4.903h23.2c2.706,0,4.9-2.196,4.9-4.903v-23.195z" fill-rule="nonzero" inkscape:connector-curvature="0" fill="#808080"/><path id="c06" d="m609,220.9c0-2.706-2.194-4.9-4.9-4.9h-23.2c-2.706,0-4.9,2.194-4.9,4.9v23.199c0,2.706,2.194,4.901,4.9,4.901h23.2c2.706,0,4.9-2.195,4.9-4.901v-23.199z" fill-rule="nonzero" inkscape:connector-curvature="0" fill="#808080"/><path id="c08" d="m410,109.9c0-2.707-2.194-4.902-4.901-4.902h-23.198c-2.707,0-4.901,2.195-4.901,4.902v23.195c0,2.707,2.194,4.903,4.901,4.903h23.198c2.707,0,4.901-2.196,4.901-4.903v-23.195z" fill-rule="nonzero" inkscape:connector-curvature="0" fill="#808080"/><path id="c10" d="m205,140.9c0-2.706-2.194-4.9-4.901-4.9h-23.198c-2.707,0-4.901,2.194-4.901,4.9v23.199c0,2.706,2.194,4.901,4.901,4.901h23.198c2.707,0,4.901-2.195,4.901-4.901v-23.199z" fill-rule="nonzero" inkscape:connector-curvature="0" fill="#808080"/><path id="c09" d="m278,112.9c0-2.706-2.194-4.9-4.901-4.9h-23.198c-2.707,0-4.901,2.194-4.901,4.9v23.199c0,2.706,2.194,4.901,4.901,4.901h23.198c2.707,0,4.901-2.195,4.901-4.901v-23.199z" fill-rule="nonzero" inkscape:connector-curvature="0" fill="#808080"/><path id="c11" d="m205,181.9c0-2.707-2.194-4.902-4.901-4.902h-23.198c-2.707,0-4.901,2.195-4.901,4.902v23.195c0,2.707,2.194,4.903,4.901,4.903h23.198c2.707,0,4.901-2.196,4.901-4.903v-23.195z" fill-rule="nonzero" inkscape:connector-curvature="0" fill="#808080"/><path id="c12" d="m204,232.9c0-2.707-2.194-4.901-4.901-4.901h-23.198c-2.707,0-4.901,2.194-4.901,4.901v23.197c0,2.707,2.194,4.902,4.901,4.902h23.198c2.707,0,4.901-2.195,4.901-4.902v-23.197z" fill-rule="nonzero" inkscape:connector-curvature="0" fill="#808080"/><path id="c14" d="m205,280.9c0-2.707-2.194-4.901-4.901-4.901h-23.198c-2.707,0-4.901,2.194-4.901,4.901v23.197c0,2.707,2.194,4.902,4.901,4.902h23.198c2.707,0,4.901-2.195,4.901-4.902v-23.197z" fill-rule="nonzero" inkscape:connector-curvature="0" fill="#808080"/><path id="c15" d="m284,361.9c0-2.707-2.194-4.901-4.901-4.901h-23.198c-2.707,0-4.901,2.194-4.901,4.901v23.198c0,2.707,2.194,4.901,4.901,4.901h23.198c2.707,0,4.901-2.194,4.901-4.901v-23.198z" fill-rule="nonzero" inkscape:connector-curvature="0" fill="#808080"/><path id="c16" d="m491,337.9c0-2.707-2.194-4.901-4.901-4.901h-23.198c-2.707,0-4.901,2.194-4.901,4.901v23.198c0,2.707,2.194,4.901,4.901,4.901h23.198c2.707,0,4.901-2.194,4.901-4.901v-23.198z" fill-rule="nonzero" inkscape:connector-curvature="0" fill="#808080"/><path id="c17" d="m474,382.9c0-2.707-2.194-4.901-4.901-4.901h-23.198c-2.707,0-4.901,2.194-4.901,4.901v23.198c0,2.707,2.194,4.901,4.901,4.901h23.198c2.707,0,4.901-2.194,4.901-4.901v-23.198z" fill-rule="nonzero" inkscape:connector-curvature="0" fill="#808080"/><path id="c18" d="m349,421.9c0-2.707-2.194-4.901-4.901-4.901h-23.198c-2.707,0-4.901,2.194-4.901,4.901v23.197c0,2.707,2.194,4.902,4.901,4.902h23.198c2.707,0,4.901-2.195,4.901-4.902v-23.197z" fill-rule="nonzero" inkscape:connector-curvature="0" fill="#808080"/><path id="c19" d="m395,493.9c0-2.707-2.194-4.901-4.901-4.901h-23.198c-2.707,0-4.901,2.194-4.901,4.901v23.198c0,2.707,2.194,4.901,4.901,4.901h23.198c2.707,0,4.901-2.194,4.901-4.901v-23.198z" fill-rule="nonzero" inkscape:connector-curvature="0" fill="#808080"/><path id="c20" d="m505,448.5c0-2.707-2.194-4.901-4.901-4.901h-23.198c-2.707,0-4.901,2.194-4.901,4.901v23.198c0,2.707,2.194,4.901,4.901,4.901h23.198c2.707,0,4.901-2.194,4.901-4.901v-23.198z" fill-rule="nonzero" inkscape:connector-curvature="0" fill="#808080"/><g id="g3953" transform="translate(476,192.6426)"><path id="path3955" stroke-linejoin="miter" d="m0,0c0-0.907-0.735-1.643-1.643-1.643h-7.714c-0.908,0-1.643,0.736-1.643,1.643v7.715c0,0.907,0.735,1.642,1.643,1.642h7.714c0.908,0,1.643-0.735,1.643-1.642v-7.715z" inkscape:connector-curvature="0" stroke="#808080" stroke-linecap="butt" stroke-miterlimit="10" stroke-dasharray="none" stroke-width="2" fill="none"/></g><g id="g3957" transform="translate(476,265.6426)"><path id="path3959" stroke-linejoin="miter" d="m0,0c0-0.907-0.735-1.643-1.643-1.643h-7.714c-0.908,0-1.643,0.736-1.643,1.643v7.715c0,0.907,0.735,1.642,1.643,1.642h7.714c0.908,0,1.643-0.735,1.643-1.642v-7.715z" inkscape:connector-curvature="0" stroke="#808080" stroke-linecap="butt" stroke-miterlimit="10" stroke-dasharray="none" stroke-width="2" fill="none"/></g><g id="g3961" transform="translate(475,268)"><path id="path3963" stroke-linejoin="miter" d="M0,0,103,0" inkscape:connector-curvature="0" stroke="#808080" stroke-linecap="butt" stroke-miterlimit="10" stroke-dasharray="none" stroke-width="2" fill="none"/></g><g id="g3965" transform="translate(475,195)"><path id="path3967" stroke-linejoin="miter" d="M0,0,103,0" inkscape:connector-curvature="0" stroke="#808080" stroke-linecap="butt" stroke-miterlimit="10" stroke-dasharray="none" stroke-width="2" fill="none"/></g><g id="g3969" transform="translate(522.2,152.8)"><path id="path3971" stroke-linejoin="miter" d="M0,0,55,0" inkscape:connector-curvature="0" stroke="#808080" stroke-linecap="butt" stroke-miterlimit="10" stroke-dasharray="none" stroke-width="2" fill="none"/></g><g id="g3973" transform="translate(427,306.6426)"><path id="path3975" stroke-linejoin="miter" d="m0,0c0-0.907-0.735-1.643-1.643-1.643h-7.714c-0.908,0-1.643,0.736-1.643,1.643v7.715c0,0.907,0.735,1.642,1.643,1.642h7.714c0.908,0,1.643-0.735,1.643-1.642v-7.715z" inkscape:connector-curvature="0" stroke="#808080" stroke-linecap="butt" stroke-miterlimit="10" stroke-dasharray="none" stroke-width="2" fill="none"/></g><g id="g3977" transform="translate(479,310)"><path id="path3979" stroke-linejoin="miter" d="M0,0-52,0" inkscape:connector-curvature="0" stroke="#808080" stroke-linecap="butt" stroke-miterlimit="10" stroke-dasharray="none" stroke-width="2" fill="none"/></g><g id="g3981" transform="translate(366,287.6426)"><path id="path3983" stroke-linejoin="miter" d="m0,0c0-0.907-0.735-1.643-1.643-1.643h-7.714c-0.908,0-1.643,0.736-1.643,1.643v7.715c0,0.907,0.735,1.642,1.643,1.642h7.714c0.908,0,1.643-0.735,1.643-1.642v-7.715z" inkscape:connector-curvature="0" stroke="#808080" stroke-linecap="butt" stroke-miterlimit="10" stroke-dasharray="none" stroke-width="2" fill="none"/></g><g id="g3985" transform="translate(521.3193,290.7881)"><path id="path3987" stroke-linejoin="miter" d="M0,0-154.71,0.046" inkscape:connector-curvature="0" stroke="#808080" stroke-linecap="butt" stroke-miterlimit="10" stroke-dasharray="none" stroke-width="1.96000004" fill="none"/></g><g id="g3989" transform="translate(402,192.3574)"><path id="path3991" stroke-linejoin="miter" d="m0,0c0,0.907-0.735,1.643-1.643,1.643h-7.714c-0.907,0-1.643-0.736-1.643-1.643v-7.715c0-0.907,0.736-1.642,1.643-1.642h7.714c0.908,0,1.643,0.735,1.643,1.642v7.715z" inkscape:connector-curvature="0" stroke="#808080" stroke-linecap="butt" stroke-miterlimit="10" stroke-dasharray="none" stroke-width="2" fill="none"/></g><g id="g3993" transform="translate(448.457,136.2793)"><path id="path3995" stroke-linejoin="miter" d="M0,0-50.686,46.976" inkscape:connector-curvature="0" stroke="#808080" stroke-linecap="butt" stroke-miterlimit="10" stroke-dasharray="none" stroke-width="1.96000004" fill="none"/></g><g id="g3997" transform="translate(404,239.3574)"><path id="path3999" stroke-linejoin="miter" d="m0,0c0,0.907-0.735,1.643-1.643,1.643h-7.714c-0.908,0-1.643-0.736-1.643-1.643v-7.715c0-0.907,0.735-1.642,1.643-1.642h7.714c0.908,0,1.643,0.735,1.643,1.642v7.715z" inkscape:connector-curvature="0" stroke="#808080" stroke-linecap="butt" stroke-miterlimit="10" stroke-dasharray="none" stroke-width="2" fill="none"/></g><g id="g4001" transform="translate(366,210.3574)"><path id="path4003" stroke-linejoin="miter" d="m0,0c0,0.907-0.735,1.643-1.643,1.643h-7.714c-0.908,0-1.643-0.736-1.643-1.643v-7.715c0-0.907,0.735-1.642,1.643-1.642h7.714c0.908,0,1.643,0.735,1.643,1.642v7.715z" inkscape:connector-curvature="0" stroke="#808080" stroke-linecap="butt" stroke-miterlimit="10" stroke-dasharray="none" stroke-width="2" fill="none"/></g><g id="g4005" transform="translate(392.5854,136.2793)"><path id="path4007" stroke-linejoin="miter" d="M0,0-31.694,65.311" inkscape:connector-curvature="0" stroke="#808080" stroke-linecap="butt" stroke-miterlimit="10" stroke-dasharray="none" stroke-width="1.96000004" fill="none"/></g><g id="g4009" transform="translate(317,153)"><path id="path4011" stroke-linejoin="miter" d="M0,0-112,0" inkscape:connector-curvature="0" stroke="#808080" stroke-linecap="butt" stroke-miterlimit="10" stroke-dasharray="none" stroke-width="2" fill="none"/></g><g id="g4013" transform="translate(329,156.3574)"><path id="path4015" stroke-linejoin="miter" d="m0,0c0,0.907-0.736,1.643-1.643,1.643h-7.714c-0.907,0-1.643-0.736-1.643-1.643v-7.715c0-0.907,0.736-1.642,1.643-1.642h7.714c0.907,0,1.643,0.735,1.643,1.642v7.715z" inkscape:connector-curvature="0" stroke="#808080" stroke-linecap="butt" stroke-miterlimit="10" stroke-dasharray="none" stroke-width="2" fill="none"/></g><g id="g4017" transform="translate(357,147.3574)"><path id="path4019" stroke-linejoin="miter" d="m0,0c0,0.907-0.735,1.643-1.643,1.643h-7.714c-0.908,0-1.643-0.736-1.643-1.643v-7.715c0-0.907,0.735-1.642,1.643-1.642h7.714c0.908,0,1.643,0.735,1.643,1.642v7.715z" inkscape:connector-curvature="0" stroke="#808080" stroke-linecap="butt" stroke-miterlimit="10" stroke-dasharray="none" stroke-width="2" fill="none"/></g><g id="g4021" transform="translate(277.5747,124.1543)"><path id="path4023" stroke-linejoin="miter" d="M0,0,68.94,13.068" inkscape:connector-curvature="0" stroke="#808080" stroke-linecap="butt" stroke-miterlimit="10" stroke-dasharray="none" stroke-width="1.96000004" fill="none"/></g><g id="g4025" transform="translate(300,198.3574)"><path id="path4027" stroke-linejoin="miter" d="m0,0c0,0.907-0.735,1.643-1.643,1.643h-7.714c-0.908,0-1.643-0.736-1.643-1.643v-7.715c0-0.907,0.735-1.642,1.643-1.642h7.714c0.908,0,1.643,0.735,1.643,1.642v7.715z" inkscape:connector-curvature="0" stroke="#808080" stroke-linecap="butt" stroke-miterlimit="10" stroke-dasharray="none" stroke-width="2" fill="none"/></g><g id="g4029" transform="translate(180,194)"><path id="path4031" stroke-linejoin="miter" d="M0,0,109,0" inkscape:connector-curvature="0" stroke="#808080" stroke-linecap="butt" stroke-miterlimit="10" stroke-dasharray="none" stroke-width="2" fill="none"/></g><g id="g4033" transform="translate(291,250.3574)"><path id="path4035" stroke-linejoin="miter" d="m0,0c0,0.907-0.735,1.643-1.643,1.643h-7.714c-0.908,0-1.643-0.736-1.643-1.643v-7.715c0-0.907,0.735-1.642,1.643-1.642h7.714c0.908,0,1.643,0.735,1.643,1.642v7.715z" inkscape:connector-curvature="0" stroke="#808080" stroke-linecap="butt" stroke-miterlimit="10" stroke-dasharray="none" stroke-width="2" fill="none"/></g><g id="g4037" transform="translate(184,246)"><path id="path4039" stroke-linejoin="miter" d="M0,0,96,0" inkscape:connector-curvature="0" stroke="#808080" stroke-linecap="butt" stroke-miterlimit="10" stroke-dasharray="none" stroke-width="2" fill="none"/></g><g id="g4041" transform="translate(303,292.3564)"><path id="path4043" stroke-linejoin="miter" d="m0,0c0,0.907-0.735,1.644-1.643,1.644h-7.714c-0.908,0-1.643-0.737-1.643-1.644v-7.713c0-0.907,0.735-1.643,1.643-1.643h7.714c0.908,0,1.643,0.736,1.643,1.643v7.713z" inkscape:connector-curvature="0" stroke="#808080" stroke-linecap="butt" stroke-miterlimit="10" stroke-dasharray="none" stroke-width="2" fill="none"/></g><g id="g4045" transform="translate(204,288)"><path id="path4047" stroke-linejoin="miter" d="M0,0,88,0" inkscape:connector-curvature="0" stroke="#808080" stroke-linecap="butt" stroke-miterlimit="10" stroke-dasharray="none" stroke-width="2" fill="none"/></g><g id="g4049" transform="translate(312,336.3574)"><path id="path4051" stroke-linejoin="miter" d="m0,0c0,0.907-0.735,1.643-1.643,1.643h-7.714c-0.908,0-1.643-0.736-1.643-1.643v-7.715c0-0.907,0.735-1.642,1.643-1.642h7.714c0.908,0,1.643,0.735,1.643,1.642v7.715z" inkscape:connector-curvature="0" stroke="#808080" stroke-linecap="butt" stroke-miterlimit="10" stroke-dasharray="none" stroke-width="2" fill="none"/></g><g id="g4053" transform="translate(270.541,367.9043)"><path id="path4055" stroke-linejoin="miter" d="M0,0,33.27-33.27" inkscape:connector-curvature="0" stroke="#808080" stroke-linecap="butt" stroke-miterlimit="10" stroke-dasharray="none" stroke-width="1.96000004" fill="none"/></g><g id="g4057" transform="translate(462,351)"><path id="path4059" stroke-linejoin="miter" d="M0,0-72,0" inkscape:connector-curvature="0" stroke="#808080" stroke-linecap="butt" stroke-miterlimit="10" stroke-dasharray="none" stroke-width="2" fill="none"/></g><g id="g4061" transform="translate(391,346.6426)"><path id="path4063" stroke-linejoin="miter" d="m0,0c0-0.907-0.735-1.643-1.643-1.643h-7.714c-0.908,0-1.643,0.736-1.643,1.643v7.715c0,0.907,0.735,1.642,1.643,1.642h7.714c0.908,0,1.643-0.735,1.643-1.642v-7.715z" inkscape:connector-curvature="0" stroke="#808080" stroke-linecap="butt" stroke-miterlimit="10" stroke-dasharray="none" stroke-width="2" fill="none"/></g><g id="g4065" transform="translate(398,390.6426)"><path id="path4067" stroke-linejoin="miter" d="m0,0c0-0.907-0.735-1.643-1.643-1.643h-7.714c-0.908,0-1.643,0.736-1.643,1.643v7.715c0,0.907,0.735,1.642,1.643,1.642h7.714c0.908,0,1.643-0.735,1.643-1.642v-7.715z" inkscape:connector-curvature="0" stroke="#808080" stroke-linecap="butt" stroke-miterlimit="10" stroke-dasharray="none" stroke-width="2" fill="none"/></g><g id="g4069" transform="translate(444,394)"><path id="path4071" stroke-linejoin="miter" d="M0,0-46,0" inkscape:connector-curvature="0" stroke="#808080" stroke-linecap="butt" stroke-miterlimit="10" stroke-dasharray="none" stroke-width="2" fill="none"/></g><g id="g4073" transform="translate(402,437.3574)"><path id="path4075" stroke-linejoin="miter" d="m0,0c0,0.907-0.735,1.643-1.643,1.643h-7.714c-0.908,0-1.643-0.736-1.643-1.643v-7.715c0-0.907,0.735-1.642,1.643-1.642h7.714c0.908,0,1.643,0.735,1.643,1.642v7.715z" inkscape:connector-curvature="0" stroke="#808080" stroke-linecap="butt" stroke-miterlimit="10" stroke-dasharray="none" stroke-width="2" fill="none"/></g><g id="g4077" transform="translate(345,433)"><path id="path4079" stroke-linejoin="miter" d="M0,0,46,0" inkscape:connector-curvature="0" stroke="#808080" stroke-linecap="butt" stroke-miterlimit="10" stroke-dasharray="none" stroke-width="2" fill="none"/></g><g id="g4081" transform="translate(436,508.3574)"><path id="path4083" stroke-linejoin="miter" d="m0,0c0,0.907-0.735,1.643-1.643,1.643h-7.714c-0.908,0-1.643-0.736-1.643-1.643v-7.715c0-0.907,0.735-1.642,1.643-1.642h7.714c0.908,0,1.643,0.735,1.643,1.642v7.715z" inkscape:connector-curvature="0" stroke="#808080" stroke-linecap="butt" stroke-miterlimit="10" stroke-dasharray="none" stroke-width="2" fill="none"/></g><g id="g4085" transform="translate(379,504)"><path id="path4087" stroke-linejoin="miter" d="M0,0,46,0" inkscape:connector-curvature="0" stroke="#808080" stroke-linecap="butt" stroke-miterlimit="10" stroke-dasharray="none" stroke-width="2" fill="none"/></g><g id="g4093" transform="translate(488,465)"><path id="path4095" stroke-linejoin="miter" d="m0,0,0,46m6,1.6426c0-0.907-0.735-1.643-1.643-1.643h-7.714c-0.908,0-1.643,0.736-1.643,1.643v7.715c0,0.907,0.735,1.642,1.643,1.642h7.714c0.908,0,1.643-0.735,1.643-1.642v-7.715z" stroke="#808080" stroke-linecap="butt" stroke-miterlimit="10" stroke-dasharray="none" stroke-width="2" fill="none"/></g><g id="g3985-1" transform="matrix(1.1174552,0,0,1,578.03963,235.977)"><path id="path3987-7" stroke-linejoin="miter" d="M0,0-154.71,0.046" inkscape:connector-curvature="0" stroke="#808080" stroke-linecap="butt" stroke-miterlimit="10" stroke-dasharray="none" stroke-width="1.96000004" fill="none"/></g><g id="g4073-1" transform="translate(523.1,157.457)"><path id="path4075-7" stroke-linejoin="miter" d="m0,0c0,0.907-0.735,1.643-1.643,1.643h-7.714c-0.908,0-1.643-0.736-1.643-1.643v-7.715c0-0.907,0.735-1.642,1.643-1.642h7.714c0.908,0,1.643,0.735,1.643,1.642v7.715z" inkscape:connector-curvature="0" stroke="#808080" stroke-linecap="butt" stroke-miterlimit="10" stroke-dasharray="none" stroke-width="2" fill="none"/></g></g></g><g id="text4097" fill-rule="nonzero" fill="#FFF" transform="matrix(1,0,0,-1,0,-1.6)"><path id="path3548" d="m462.06-385.61,3.2277,0,0-11.518,3.8816,0,0-2.7003-10.928,0,0,2.7003,3.8184,0zm-14.345,0,0-4.2825c0-1.1563-0.0106-2.2454-0.0316-3.2672-0.0211-1.0218-0.0527-2.0002-0.0949-2.935l0.0633-0.0211c0.35467,0.84341,0.74758,1.6987,1.1787,2.5658,0.43114,0.86714,0.86097,1.6855,1.2895,2.455l3.0378,5.4849h3.3754v-14.219h-2.9534v4.1559c-0.002,1.0618,0.0176,2.0815,0.058,3.0589,0.0404,0.97745,0.1125,1.9338,0.21623,2.869h-0.0633c-0.32084-0.81087-0.68123-1.6362-1.0812-2.4761-0.39996-0.83988-0.81309-1.6389-1.2394-2.397l-2.9534-5.2107h-3.7551v14.219z" inkscape:connector-curvature="0"/><path id="path3552" d="m502.57-313.6-5.2318,0,0-2.9534,5.5482,0,0-2.637-8.7759,0,0,14.219,9.0712,0,0-2.637-5.8436,0,0-3.3754,5.2318,0zm-22.995-5.5904,0,14.219,3.2277,0,0-5.949,5.2951,0,0,5.949,3.2066,0,0-14.219-3.2066,0,0,5.4638-5.2951,0,0-5.4638z" inkscape:connector-curvature="0"/><path id="path3556" d="m195.26-147.79,1.097,3.6496,3.4597,0-4.409-14.219-4.2192,0-4.3458,14.219,3.3332,0,1.0126-3.6496zm-3.6074-2.4049,0.84384-3.0167c0.11558-0.42147,0.22721-0.87591,0.33489-1.3633,0.10767-0.48739,0.21403-0.9471,0.31908-1.3791h0.0422c0.10635,0.43072,0.22062,0.8878,0.34281,1.3712,0.12217,0.48346,0.24699,0.94054,0.37445,1.3712l0.88603,3.0167zm-8.9448,6.0545,4.7888-14.219-3.4175,0-1.8142,6.0756c-0.24349,0.81308-0.47379,1.6393-0.6909,2.4788-0.21712,0.83945-0.41577,1.6868-0.59596,2.5421h-0.0633c-0.1701-0.88163-0.3626-1.7395-0.5775-2.5737-0.21493-0.83416-0.44434-1.671-0.68826-2.5104l-1.7299-6.0123h-3.523l4.5567,14.219z" inkscape:connector-curvature="0"/><path id="path3560" d="m593.04-238.48,0,7.9321c0.0132,2.256,0.51421,3.9093,1.5031,4.9602,0.98886,1.0508,2.3865,1.5703,4.1928,1.5585,1.8714,0.004,3.3235-0.52652,4.3563-1.5927s1.5567-2.6941,1.5716-4.8837v-7.9743h-3.2066v8.1852c-0.004,1.2521-0.22855,2.1812-0.67507,2.7873-0.44654,0.60607-1.0935,0.90757-1.9408,0.90449-0.82714-0.00088-1.4618-0.31028-1.9039-0.92822-0.44214-0.61793-0.6654-1.5391-0.66979-2.7636v-8.1852zm-12.721,14.155c0.35995,0.0549,0.83197,0.10328,1.4161,0.14503,0.58409,0.0418,1.2723,0.0637,2.0648,0.0659,1.4051-0.002,2.561-0.11383,3.4676-0.3349,0.90668-0.22107,1.6143-0.53838,2.1228-0.95195,0.44916-0.35907,0.80603-0.79066,1.0706-1.2948,0.26457-0.5041,0.39993-1.0781,0.4061-1.722-0.0163-0.92118-0.28437-1.6789-0.80429-2.2731-0.51993-0.59419-1.1941-1.0038-2.0226-1.2288v-0.0422c0.799-0.30588,1.3897-0.7278,1.7721-1.2658,0.38235-0.53794,0.57221-1.1286,0.56959-1.7721-0.009-0.64605-0.1701-1.2051-0.48257-1.6771-0.31249-0.47201-0.72123-0.84118-1.2262-1.1075-0.50455-0.30105-1.0882-0.51113-1.751-0.63024-0.66277-0.11909-1.4785-0.17623-2.4471-0.17141-0.82187,0.002-1.6094,0.0299-2.3628,0.0844-0.7533,0.0545-1.351,0.12483-1.7932,0.21095zm3.1855-11.835c0.1336-0.022,0.3094-0.0413,0.52739-0.058s0.49927-0.0255,0.84384-0.0264c0.73176,0.001,1.2934,0.14109,1.685,0.41928,0.39158,0.27822,0.58936,0.68695,0.59332,1.2262-0.003,0.53444-0.22415,0.95812-0.66452,1.271-0.44039,0.31293-1.0838,0.47291-1.9303,0.47993h-1.0548zm0,5.6115,1.097,0c0.82186-0.006,1.504,0.14856,2.0463,0.46411,0.54233,0.31557,0.82361,0.8289,0.84384,1.54-0.0233,0.74056-0.29843,1.2688-0.82538,1.5848-0.52697,0.316-1.166,0.46982-1.9171,0.46147-0.27206,0.00088-0.50851-0.00088-0.70935-0.005-0.20086-0.004-0.3793-0.0167-0.53531-0.0369z"/><path id="path3564" d="m595.77-187.79c0.41709,0.22986,0.9858,0.42939,1.7061,0.5986,0.72033,0.16921,1.4947,0.25798,2.3232,0.26634,1.9465-0.0347,3.3907-0.47159,4.3326-1.3106,0.94184-0.839,1.4103-1.8718,1.4055-3.0985,0.003-0.99546-0.29843-1.8367-0.90449-2.5236-0.60608-0.68693-1.5352-1.2592-2.7873-1.7167-0.91284-0.33137-1.5818-0.63902-2.0068-0.92294-0.425-0.28391-0.63508-0.6443-0.63024-1.0812-0.00088-0.38015,0.16964-0.70099,0.51158-0.9625,0.34192-0.26149,0.86053-0.39774,1.5558-0.40873,0.69748,0.011,1.2961,0.0892,1.7958,0.23469,0.4997,0.14548,0.89261,0.29228,1.1787,0.44038l0.71726-2.5948c-0.42017-0.19601-0.92999-0.36302-1.5295-0.50103-0.59948-0.13799-1.2992-0.21007-2.099-0.21624-1.6916,0.0268-3.0075,0.43732-3.9476,1.2315-0.94009,0.79419-1.4174,1.8112-1.4319,3.051,0.0149,1.028,0.37005,1.8833,1.0653,2.5658,0.69528,0.68255,1.6411,1.2266,2.8374,1.6323,0.84691,0.29579,1.4578,0.59552,1.8327,0.89921,0.37489,0.3037,0.5586,0.672,0.55113,1.1049-0.002,0.47027-0.19338,0.84296-0.57486,1.1181-0.38149,0.27512-0.94229,0.41576-1.6824,0.42191-0.69441-0.009-1.3519-0.10152-1.9725-0.27688-0.62058-0.17536-1.1515-0.37841-1.5927-0.60914zm-8.312-13.797c-2.125,0.044-3.803,0.75244-5.034,2.1254s-1.8595,3.1468-1.8854,5.3214c0.0149,2.0736,0.60211,3.7858,1.7615,5.1369,1.1594,1.351,2.8014,2.0507,4.9259,2.099,2.1091-0.0207,3.7924-0.68606,5.0498-1.9962s1.9017-3.1411,1.9329-5.4928c-0.008-2.0164-0.58763-3.7058-1.7378-5.0683-1.1502-1.3624-2.8212-2.0709-5.0129-2.1254zm-0.0844,2.5526c1.1124,0.0382,1.9624,0.51027,2.55,1.4161,0.5876,0.90581,0.88382,2.016,0.88866,3.3305-0.007,1.4104-0.30458,2.561-0.89394,3.4518-0.58937,0.89086-1.4306,1.3506-2.5236,1.3791-1.0856-0.0237-1.9312-0.46674-2.5368-1.329-0.60564-0.86229-0.91328-2.0015-0.92295-3.4175,0.007-1.4103,0.30896-2.561,0.90449-3.4518,0.59551-0.89085,1.4402-1.3506,2.5342-1.3792z"/><path id="path3568" d="m594.5-262.97,3.1855,0,0-4.6411,1.2236-1.4978,3.4808,6.1389,3.7551,0-4.9575-8.1641,4.7044-6.0545-3.9449,0-3.2277,4.7255c-0.1591,0.25228-0.32084,0.50719-0.4852,0.76473-0.16438,0.25755-0.32612,0.52301-0.48521,0.79637h-0.0633v-6.2866h-3.1855zm-6.4555-3.6496,1.097,3.6496,3.4597,0-4.409-14.219-4.2192,0-4.3458,14.219,3.3332,0,1.0126-3.6496zm-3.6074-2.4049,0.84383-3.0167c0.11559-0.42147,0.22722-0.87591,0.3349-1.3633,0.10767-0.4874,0.21403-0.94711,0.31908-1.3792h0.0422c0.10635,0.43072,0.22062,0.8878,0.34281,1.3712,0.12217,0.48345,0.24699,0.94053,0.37445,1.3712l0.88603,3.0167z"/><path id="path3572" d="m538.49-281.5,3.1855,0,0-5.0841c0.14854,0.0211,0.31555,0.0369,0.50103,0.0475,0.18546,0.0105,0.38411,0.0158,0.59596,0.0158,0.95458,0.002,1.8248-0.11822,2.6106-0.36127,0.78581-0.24304,1.4556-0.62188,2.0094-1.1365,0.42367-0.40433,0.74714-0.89305,0.97042-1.4662,0.22325-0.5731,0.33576-1.2095,0.33753-1.9092-0.007-0.70143-0.14636-1.3343-0.41928-1.8986-0.27294-0.56431-0.63948-1.0284-1.0996-1.3923-0.47248-0.37972-1.0676-0.66451-1.7852-0.85439-0.71771-0.18985-1.5712-0.28478-2.5605-0.28479-0.97745,0.002-1.823,0.0299-2.5368,0.0844-0.71375,0.0545-1.3167,0.12483-1.809,0.21096zm3.1855-11.772c0.11602-0.0329,0.28479-0.0619,0.5063-0.087,0.2215-0.025,0.49575-0.0382,0.82274-0.0395,0.80603,0.005,1.4248,0.18987,1.8564,0.55377,0.43158,0.36391,0.64957,0.87549,0.65398,1.5347-0.008,0.73354-0.25536,1.3022-0.741,1.7061-0.48565,0.4039-1.1598,0.60871-2.0226,0.61442-0.23074,0.00044-0.43379-0.006-0.60915-0.0185-0.17536-0.0127-0.33094-0.0347-0.46674-0.0659zm-12.046-2.6792c-2.125,0.044-3.803,0.75244-5.034,2.1254s-1.8595,3.1468-1.8854,5.3214c0.0149,2.0736,0.60211,3.7858,1.7615,5.1369,1.1594,1.351,2.8014,2.0507,4.9259,2.099,2.1092-0.0207,3.7924-0.68606,5.0498-1.9962s1.9017-3.1411,1.9329-5.4928c-0.008-2.0164-0.58762-3.7058-1.7378-5.0683-1.1502-1.3624-2.8212-2.0709-5.0129-2.1254zm-0.0844,2.5526c1.1124,0.0383,1.9624,0.51027,2.55,1.4161,0.5876,0.90582,0.88382,2.016,0.88867,3.3305-0.007,1.4104-0.30458,2.561-0.89394,3.4518-0.58938,0.89087-1.4306,1.3506-2.5236,1.3792-1.0856-0.0237-1.9312-0.46675-2.5368-1.329-0.60563-0.8623-0.91328-2.0015-0.92294-3.4176,0.007-1.4103,0.30896-2.5609,0.90448-3.4518,0.59552-0.89085,1.4402-1.3506,2.5342-1.3791z" inkscape:connector-curvature="0"/><path id="path3576" d="m450.77-113.53,3.2277,0,0-5.717,5.1052,0,0-2.6159-5.1052,0,0-3.2488,5.4638,0,0-2.637-8.6915,0zm-6.3078,0,4.7888-14.219-3.4175,0-1.8142,6.0756c-0.24349,0.81308-0.47379,1.6393-0.69089,2.4788-0.21712,0.83944-0.41578,1.6868-0.59596,2.5421h-0.0633c-0.17009-0.88163-0.3626-1.7395-0.5775-2.5737-0.21492-0.83416-0.44434-1.671-0.68826-2.5104l-1.7299-6.0123h-3.523l4.5567,14.219z" inkscape:connector-curvature="0"/><path id="path3580" d="m402.36-121.36-5.2318,0,0-2.9534,5.5482,0,0-2.637-8.7759,0,0,14.219,9.0712,0,0-2.637-5.8436,0,0-3.3754,5.2318,0zm-17.278,8.6282,3.2277,0,0-11.518,3.8816,0,0-2.7003-10.928,0,0,2.7003,3.8184,0z"/><path id="path3584" d="m268.86-120.11,1.097,3.6496,3.4597,0-4.409-14.219-4.2192,0-4.3458,14.219,3.3332,0,1.0126-3.6496zm-3.6074-2.4049,0.84384-3.0167c0.11558-0.42147,0.22721-0.87591,0.3349-1.3633,0.10767-0.48739,0.21403-0.94711,0.31907-1.3792h0.0422c0.10635,0.43072,0.22062,0.8878,0.3428,1.3712,0.12218,0.48346,0.247,0.94053,0.37446,1.3712l0.88603,3.0167zm-10.232,2.4049,1.097,3.6496,3.4597,0-4.409-14.219-4.2192,0-4.3458,14.219,3.3332,0,1.0126-3.6496zm-3.6074-2.4049,0.84384-3.0167c0.11558-0.42147,0.22721-0.87591,0.3349-1.3633,0.10767-0.48739,0.21403-0.94711,0.31907-1.3792h0.0422c0.10636,0.43072,0.22063,0.8878,0.34281,1.3712,0.12218,0.48346,0.24699,0.94053,0.37446,1.3712l0.88602,3.0167z" inkscape:connector-curvature="0"/><path id="path3588" d="m194.33-200.17c-2.125,0.044-3.803,0.75243-5.034,2.1254s-1.8595,3.1468-1.8854,5.3214c0.0149,2.0736,0.60211,3.7858,1.7615,5.1369,1.1594,1.351,2.8014,2.0507,4.9259,2.099,2.1091-0.0207,3.7924-0.68605,5.0498-1.9962,1.2574-1.3101,1.9017-3.1411,1.9329-5.4928-0.008-2.0164-0.58762-3.7058-1.7378-5.0683-1.1502-1.3624-2.8212-2.0709-5.0129-2.1254zm-0.0844,2.5526c1.1124,0.0383,1.9624,0.51027,2.55,1.4161,0.5876,0.90581,0.88382,2.016,0.88867,3.3305-0.007,1.4104-0.30459,2.561-0.89394,3.4518-0.58938,0.89087-1.4306,1.3506-2.5236,1.3792-1.0856-0.0237-1.9312-0.46675-2.5368-1.329-0.60563-0.86229-0.91328-2.0015-0.92294-3.4175,0.007-1.4103,0.30896-2.561,0.90448-3.4518,0.59552-0.89085,1.4402-1.3506,2.5342-1.3792zm-18.607,11.898,3.1855,0,0-5.5904,0.97041,0c0.6443-0.007,1.1436,0.15427,1.4978,0.48257,0.35423,0.32831,0.62145,0.9269,0.80165,1.7958,0.21139,0.879,0.40037,1.5998,0.56695,2.1623,0.16656,0.56256,0.30808,0.9458,0.42456,1.1497h3.291c-0.14065-0.30677-0.31293-0.84296-0.51685-1.6086-0.20394-0.7656-0.41841-1.5655-0.64342-2.3997-0.17405-0.65792-0.41138-1.2143-0.71199-1.6692-0.30063-0.45488-0.69618-0.7845-1.1866-0.98888v-0.0633c0.6399-0.22634,1.2112-0.63859,1.714-1.2368,0.50277-0.59815,0.76823-1.3532,0.79637-2.2652-0.002-0.65396-0.11428-1.2288-0.33754-1.7246-0.22327-0.49574-0.54674-0.91239-0.97041-1.2499-0.50279-0.3973-1.1322-0.68385-1.8881-0.85966-0.75595-0.17579-1.6596-0.26193-2.7108-0.25843-0.86142,0.002-1.6596,0.0299-2.3944,0.0844-0.73484,0.0545-1.3642,0.12483-1.8881,0.21096zm3.1855-11.835c0.11339-0.0228,0.28743-0.0457,0.52213-0.0686,0.23468-0.0228,0.54585-0.0351,0.93349-0.0369,0.7445,0.0101,1.3229,0.17977,1.7351,0.50894,0.41224,0.3292,0.62144,0.82056,0.6276,1.4741-0.006,0.62981-0.23118,1.1264-0.67507,1.4899-0.4439,0.36347-1.0697,0.54894-1.8775,0.5564h-1.2658z"/><path id="path3592" d="m194.41-250.51c-2.125,0.044-3.803,0.75243-5.034,2.1254s-1.8595,3.1468-1.8854,5.3214c0.0149,2.0736,0.60211,3.7858,1.7615,5.1369,1.1594,1.351,2.8014,2.0507,4.9259,2.099,2.1092-0.0207,3.7924-0.68605,5.0498-1.9962,1.2574-1.3101,1.9017-3.1411,1.9329-5.4928-0.008-2.0164-0.58762-3.7058-1.7378-5.0683-1.1502-1.3624-2.8212-2.0709-5.0129-2.1254zm-0.0844,2.5526c1.1124,0.0383,1.9624,0.51027,2.55,1.4161,0.5876,0.90581,0.88382,2.016,0.88867,3.3305-0.007,1.4104-0.30458,2.561-0.89394,3.4518-0.58938,0.89086-1.4306,1.3506-2.5236,1.3792-1.0856-0.0237-1.9312-0.46675-2.5368-1.329-0.60563-0.86229-0.91328-2.0015-0.92294-3.4175,0.007-1.4103,0.30896-2.561,0.90448-3.4518,0.59552-0.89085,1.4402-1.3506,2.5342-1.3792zm-20.716-2.3206,0,14.219,3.2277,0,0-5.949,5.2951,0,0,5.949,3.2066,0,0-14.219-3.2066,0,0,5.4638-5.2951,0,0-5.4638z"/><path id="path3596" d="m189.56-284.22,3.2277,0,0-5.717,5.1052,0,0-2.6159-5.1052,0,0-3.2488,5.4638,0,0-2.637-8.6915,0zm-11.94-0.65397c0.41708,0.22986,0.98579,0.42939,1.7061,0.5986,0.72033,0.1692,1.4947,0.25798,2.3232,0.26633,1.9465-0.0347,3.3907-0.47158,4.3326-1.3106,0.94184-0.839,1.4104-1.8718,1.4055-3.0985,0.003-0.99546-0.29843-1.8366-0.90449-2.5236-0.60607-0.68693-1.5352-1.2592-2.7873-1.7167-0.91284-0.33137-1.5818-0.63902-2.0068-0.92294-0.425-0.28391-0.63508-0.6443-0.63024-1.0812-0.00088-0.38016,0.16964-0.70099,0.51158-0.9625,0.34192-0.26149,0.86053-0.39774,1.5558-0.40874,0.69748,0.011,1.2961,0.0892,1.7958,0.2347,0.49971,0.14548,0.89262,0.29227,1.1787,0.44037l0.71726-2.5948c-0.42017-0.196-0.92999-0.36301-1.5294-0.50102-0.59949-0.13799-1.2992-0.21007-2.099-0.21624-1.6916,0.0268-3.0075,0.43732-3.9476,1.2315-0.94009,0.79418-1.4174,1.8112-1.4319,3.051,0.0149,1.028,0.37006,1.8833,1.0653,2.5658,0.69529,0.68255,1.6411,1.2266,2.8374,1.6323,0.8469,0.29578,1.4578,0.59552,1.8327,0.89921,0.37488,0.3037,0.55859,0.672,0.55113,1.1049-0.002,0.47027-0.19339,0.84296-0.57487,1.1181-0.38149,0.27513-0.94229,0.41577-1.6824,0.42192-0.69441-0.009-1.3519-0.10152-1.9725-0.27688-0.62057-0.17536-1.1515-0.37841-1.5927-0.60915z"/><path id="path3600" d="m271.62-365,3.1855,0,0-5.5904,0.97041,0c0.6443-0.007,1.1436,0.15427,1.4978,0.48257,0.35422,0.32831,0.62144,0.9269,0.80164,1.7958,0.21139,0.879,0.40038,1.5998,0.56695,2.1623,0.16657,0.56256,0.30808,0.9458,0.42456,1.1497h3.291c-0.14065-0.30677-0.31293-0.84296-0.51685-1.6086-0.20393-0.7656-0.41841-1.5655-0.64342-2.3997-0.17405-0.65792-0.41138-1.2143-0.71199-1.6692-0.30063-0.45488-0.69617-0.7845-1.1866-0.98887v-0.0633c0.6399-0.22634,1.2112-0.63859,1.714-1.2368,0.50277-0.59815,0.76823-1.3532,0.79637-2.2652-0.002-0.65396-0.11428-1.2288-0.33753-1.7246-0.22328-0.49574-0.54675-0.91238-0.97042-1.2499-0.50279-0.39729-1.1322-0.68385-1.8881-0.85966-0.75595-0.17579-1.6596-0.26193-2.7108-0.25843-0.86142,0.002-1.6596,0.0299-2.3944,0.0844-0.73484,0.0545-1.3642,0.12483-1.8881,0.21096zm3.1855-11.835c0.11339-0.0228,0.28743-0.0457,0.52213-0.0686,0.23468-0.0228,0.54585-0.0352,0.93349-0.0369,0.7445,0.0101,1.3229,0.17977,1.7351,0.50894,0.41224,0.3292,0.62144,0.82056,0.62761,1.4741-0.006,0.62981-0.23119,1.1264-0.67507,1.4899-0.44391,0.36347-1.0698,0.54894-1.8775,0.55641h-1.2658zm-8.7972,11.835,3.1433,0-0.78055-14.219-4.1981,0-1.5189,4.7255c-0.23427,0.8021-0.4672,1.645-0.69881,2.5289-0.23162,0.88383-0.44873,1.7426-0.65133,2.5763h-0.0633c-0.16087-0.83812-0.34546-1.6881-0.55377-2.55-0.20833-0.86185-0.42456-1.7066-0.6487-2.5342l-1.3923-4.7466h-4.2825l-0.90713,14.219h2.9745l0.25315-5.4006c0.0514-0.90052,0.0962-1.863,0.13448-2.8875,0.0382-1.0245,0.0778-2.0239,0.11867-2.9983h0.0422c0.17228,0.93922,0.37093,1.8876,0.59596,2.8453,0.22502,0.95768,0.45532,1.8586,0.69089,2.7029l1.5189,5.506h2.5104l1.7299-5.5482c0.27819-0.84515,0.55508-1.7444,0.83065-2.6976,0.27556-0.95326,0.52607-1.8894,0.75155-2.8084h0.0633c0.001,1.0412,0.0145,2.0599,0.0396,3.0563,0.025,0.99635,0.054,1.9254,0.087,2.7873z"/><path id="path3602" d="m463.83-343.06c0.41709,0.22986,0.9858,0.42939,1.7061,0.5986,0.72033,0.16921,1.4947,0.25798,2.3232,0.26633,1.9465-0.0347,3.3907-0.47158,4.3326-1.3106,0.94184-0.839,1.4103-1.8718,1.4055-3.0985,0.003-0.99546-0.29843-1.8367-0.90449-2.5236-0.60608-0.68692-1.5352-1.2592-2.7873-1.7167-0.91284-0.33137-1.5818-0.63902-2.0068-0.92294-0.425-0.28391-0.63508-0.6443-0.63024-1.0812-0.00088-0.38016,0.16964-0.70099,0.51158-0.9625,0.34192-0.26149,0.86053-0.39774,1.5558-0.40874,0.69748,0.011,1.2961,0.0892,1.7958,0.2347,0.4997,0.14548,0.89262,0.29228,1.1787,0.44037l0.71726-2.5948c-0.42017-0.19601-0.92999-0.36302-1.5295-0.50103-0.59948-0.13799-1.2992-0.21007-2.099-0.21624-1.6916,0.0268-3.0075,0.43732-3.9476,1.2315-0.94009,0.79418-1.4174,1.8112-1.4319,3.051,0.0149,1.028,0.37005,1.8833,1.0653,2.5658,0.69529,0.68255,1.6411,1.2266,2.8374,1.6323,0.84691,0.29578,1.4578,0.59552,1.8327,0.89921,0.37489,0.3037,0.5586,0.672,0.55113,1.1049-0.002,0.47027-0.19338,0.84296-0.57486,1.1181-0.38149,0.27513-0.94229,0.41577-1.6824,0.42192-0.69441-0.009-1.3519-0.10152-1.9725-0.27688-0.62057-0.17536-1.1515-0.37841-1.5927-0.60915z" inkscape:connector-curvature="0"/><path id="path3604" d="m478.51-342.4,3.2277,0,0-11.518,3.8817,0,0-2.7003-10.928,0,0,2.7003,3.8184,0z" inkscape:connector-curvature="0"/><path id="path3608" d="m339.51-439.45c-2.125,0.044-3.803,0.75243-5.034,2.1254s-1.8595,3.1468-1.8854,5.3214c0.0149,2.0736,0.60211,3.7858,1.7615,5.1369,1.1594,1.351,2.8014,2.0507,4.9259,2.099,2.1092-0.0207,3.7924-0.68605,5.0498-1.9962,1.2574-1.3101,1.9017-3.1411,1.9329-5.4928-0.008-2.0164-0.58762-3.7058-1.7378-5.0683-1.1502-1.3624-2.8212-2.0709-5.0129-2.1254zm-0.0844,2.5526c1.1124,0.0382,1.9624,0.51027,2.55,1.4161,0.5876,0.90582,0.88382,2.016,0.88867,3.3305-0.007,1.4104-0.30458,2.561-0.89394,3.4518-0.58938,0.89087-1.4306,1.3506-2.5236,1.3792-1.0856-0.0237-1.9312-0.46675-2.5368-1.329-0.60563-0.86229-0.91328-2.0015-0.92294-3.4175,0.007-1.4103,0.30896-2.561,0.90449-3.4518,0.59551-0.89085,1.4402-1.3506,2.5341-1.3792zm-17.784,11.898,0-4.2825c0-1.1563-0.0106-2.2454-0.0316-3.2672-0.0211-1.0218-0.0528-2.0002-0.0949-2.935l0.0633-0.0211c0.35467,0.8434,0.74758,1.6987,1.1787,2.5658,0.43114,0.86714,0.86097,1.6855,1.2895,2.455l3.0378,5.4849h3.3754v-14.219h-2.9534v4.1559c-0.002,1.0618,0.0176,2.0815,0.058,3.0589,0.0404,0.97745,0.1125,1.9338,0.21624,2.869h-0.0633c-0.32085-0.81087-0.68123-1.6362-1.0812-2.4761-0.39995-0.83987-0.81308-1.6389-1.2394-2.397l-2.9534-5.2107h-3.7551v14.219z" inkscape:connector-curvature="0"/><path id="path3612" d="m378.77-496.47,3.1855,0,0-5.5904,0.97041,0c0.6443-0.007,1.1436,0.15427,1.4978,0.48257,0.35423,0.32831,0.62144,0.92691,0.80164,1.7958,0.2114,0.879,0.40038,1.5998,0.56696,2.1623,0.16656,0.56256,0.30808,0.9458,0.42455,1.1497h3.291c-0.14065-0.30677-0.31294-0.84296-0.51685-1.6086-0.20394-0.76561-0.41842-1.5655-0.64343-2.3997-0.17405-0.65792-0.41138-1.2143-0.71199-1.6692-0.30062-0.45488-0.69617-0.7845-1.1866-0.98887v-0.0633c0.6399-0.22634,1.2112-0.63858,1.714-1.2368,0.50278-0.59815,0.76823-1.3532,0.79637-2.2652-0.002-0.65397-0.11428-1.2288-0.33753-1.7246-0.22328-0.49574-0.54675-0.91238-0.97041-1.2499-0.5028-0.39729-1.1322-0.68385-1.8881-0.85966-0.75594-0.17579-1.6596-0.26193-2.7108-0.25842-0.86142,0.002-1.6596,0.0299-2.3944,0.0844-0.73485,0.0545-1.3642,0.12483-1.8881,0.21096zm3.1855-11.835c0.11338-0.0228,0.28742-0.0457,0.52212-0.0686,0.23469-0.0228,0.54585-0.0351,0.93349-0.0369,0.74451,0.0101,1.3229,0.17976,1.7351,0.50893,0.41225,0.3292,0.62145,0.82056,0.62761,1.4741-0.006,0.62981-0.23119,1.1264-0.67507,1.4899-0.4439,0.36348-1.0698,0.54894-1.8775,0.55641h-1.2658zm-12.004,11.835,3.2277,0,0-11.518,3.8816,0,0-2.7003-10.928,0,0,2.7003,3.8184,0z" inkscape:connector-curvature="0"/><path id="path3616" d="m491.55-465.46,0,14.219,3.2277,0,0-14.219zm-11.118,14.219,3.2277,0,0-5.717,5.1052,0,0-2.6159-5.1052,0,0-3.2488,5.4638,0,0-2.637-8.6915,0z" inkscape:connector-curvature="0"/><path id="path3692" d="m583.07-140.39,1.2868-1.8775c0.44433,0.23293,0.92162,0.41049,1.4319,0.53267,0.51025,0.12218,1.0456,0.18371,1.6059,0.18459,2.0107-0.0193,3.643-0.67683,4.8969-1.9725,1.2539-1.2956,1.8999-3.1134,1.9382-5.4533-0.00046-1.0117-0.1578-1.9681-0.47203-2.869-0.31425-0.90096-0.78276-1.6886-1.4055-2.3628l1.2025-1.7721-1.8354-1.2236-1.1603,1.7088c-0.45533-0.24303-0.94756-0.42674-1.4767-0.55113-0.52917-0.12436-1.0847-0.18677-1.6666-0.18723-2.0854,0.0457-3.7423,0.75068-4.9707,2.1149s-1.8569,3.1134-1.8854,5.2476c0.003,1.0623,0.17141,2.0494,0.50631,2.9613,0.33489,0.91197,0.8201,1.7039,1.4556,2.3759l-1.1814,1.7932zm1.2868-5.9069-0.0211,0c-0.18898-0.41664-0.32787-0.83329-0.41664-1.2499-0.0888-0.41664-0.13273-0.86493-0.13185-1.3449,0.009-1.4288,0.32874-2.5847,0.95987-3.4676,0.63111-0.88294,1.5206-1.3374,2.6686-1.3633,0.31643,0.001,0.61177,0.0462,0.88603,0.13448,0.27424,0.0883,0.52739,0.21229,0.75945,0.37182zm6.1178-5.063,0.0633,0.0211c0.31291,0.82275,0.46761,1.6244,0.46411,2.4049-0.0106,1.4675-0.33227,2.641-0.96514,3.5204-0.63289,0.87944-1.5136,1.3304-2.6423,1.3528-0.31556-0.00043-0.60212-0.0417-0.85966-0.12393-0.25755-0.0822-0.49136-0.20261-0.70143-0.36127zm6.6649,8.9674,3.2277,0,0-5.717,5.1052,0,0-2.6159-5.1052,0,0-3.2488,5.4638,0,0-2.637-8.6915,0z"/></g>
</g></svg>
