{
  "CandidateId": 162,
  "FirstName": "Morten",
  "LastName": "Stordalen",
  "DateOfBirth": "1968-10-05T00:00:00",
  "Picture": "Frp_07_MortenStordalen",
  "CountyId": 7,
  "CountyName": "Vestfold",
  "CountyPosition": 2,
  "ElectionYear": 2013,
  "PoliticalPartyCode": "Frp",
  "PartiSortOrder": 8,
  "PartiId": 53,
  "PartiOrganizationId": 8,
  "BirthTown": null,
  "HomeTown": "",
  "GenderId": 2,
  "GenderName": "Mann",
  "Age": 0,
  "Email": "",
  "SocialConnections": null,
  "CandidateText": "",
  "Description": "Vararepresentant til Stortinget siden 2005. Gruppeleder for Frp i kommunestyret.",
  "Education": "",
  "Occupation": "",
  "ParliamentPeriods": [],
  "Municipality": "Re"
}