{
  "CandidateId": 24,
  "FirstName": "Pål",
  "LastName": "Farstad",
  "DateOfBirth": "1959-04-01T00:00:00",
  "Picture": "V_15_PaalFarstad",
  "CountyId": 15,
  "CountyName": "Møre og Romsdal",
  "CountyPosition": 1,
  "ElectionYear": 2013,
  "PoliticalPartyCode": "V",
  "PartiSortOrder": 5,
  "PartiId": 147,
  "PartiOrganizationId": 5,
  "BirthTown": null,
  "HomeTown": "",
  "GenderId": 2,
  "GenderName": "Mann",
  "Age": 0,
  "Email": "",
  "SocialConnections": null,
  "CandidateText": "",
  "Description": "Fylkestingsrepresentant og medlem av bystyret i Kristiansund. Jobber som bedriftsrådgiver.",
  "Education": "",
  "Occupation": "Rådgiver",
  "ParliamentPeriods": [],
  "Municipality": "Kristiansund"
}