{
  "CandidateId": 277,
  "FirstName": "Tor",
  "LastName": "Bremer",
  "DateOfBirth": "1955-02-09T00:00:00",
  "Picture": "A_14_TorBremer",
  "CountyId": 14,
  "CountyName": "Sogn og Fjordane",
  "CountyPosition": 2,
  "ElectionYear": 2013,
  "PoliticalPartyCode": "Ap",
  "PartiSortOrder": 3,
  "PartiId": 1,
  "PartiOrganizationId": 3,
  "BirthTown": null,
  "HomeTown": "",
  "GenderId": 2,
  "GenderName": "Mann",
  "Age": 0,
  "Email": "",
  "SocialConnections": [
    {
      "Id": 2,
      "Name": "Twitter",
      "UserName": "@TorBremer ",
      "FormFieldName": null
    }
  ],
  "CandidateText": "",
  "Description": "Stortingsrepresentant siden 2009. Varaordfører i Nordland fylkeskommune 2003-2007.",
  "Education": "",
  "Occupation": "Bonde",
  "ParliamentPeriods": [
    {
      "DateFrom": "2009-10-01T00:00:00",
      "DateTo": "2013-09-30T23:59:59",
      "ParliamentPeriodId": "2009-2013"
    }
  ],
  "Municipality": "Luster"
}