{
  "CandidateId": 333,
  "FirstName": "Ove Bernt",
  "LastName": "Trellevik",
  "DateOfBirth": "1965-08-15T00:00:00",
  "Picture": "H_12_OveBerntTrellevik",
  "CountyId": 12,
  "CountyName": "Hordaland",
  "CountyPosition": 6,
  "ElectionYear": 2013,
  "PoliticalPartyCode": "H",
  "PartiSortOrder": 7,
  "PartiId": 60,
  "PartiOrganizationId": 7,
  "BirthTown": null,
  "HomeTown": "",
  "GenderId": 2,
  "GenderName": "Mann",
  "Age": 0,
  "Email": "",
  "SocialConnections": [
    {
      "Id": 2,
      "Name": "Twitter",
      "UserName": "@ovetrellevik",
      "FormFieldName": null
    }
  ],
  "CandidateText": "",
  "Description": "Ordfører i Sund siden 2010.",
  "Education": "",
  "Occupation": "Politiker",
  "ParliamentPeriods": [],
  "Municipality": "Sund"
}