{
  "CandidateId": 316,
  "FirstName": "Maiken",
  "LastName": "Messel",
  "DateOfBirth": "1954-10-23T00:00:00",
  "Picture": "H_09_MaikenMessel",
  "CountyId": 9,
  "CountyName": "Aust-Agder",
  "CountyPosition": 3,
  "ElectionYear": 2013,
  "PoliticalPartyCode": "H",
  "PartiSortOrder": 7,
  "PartiId": 60,
  "PartiOrganizationId": 7,
  "BirthTown": null,
  "HomeTown": "",
  "GenderId": 1,
  "GenderName": "Kvinne",
  "Age": 0,
  "Email": "",
  "SocialConnections": [
    {
      "Id": 2,
      "Name": "Twitter",
      "UserName": "@maikenmessel",
      "FormFieldName": null
    }
  ],
  "CandidateText": "",
  "Description": "Gruppeleder for Høyre på fylkestinget siden 2011.",
  "Education": "",
  "Occupation": "Jurist",
  "ParliamentPeriods": [],
  "Municipality": "Arendal"
}