{
  "CandidateId": 235,
  "FirstName": "Per Rune",
  "LastName": "Henriksen",
  "DateOfBirth": "1960-03-14T00:00:00",
  "Picture": "A_12_PerRuneHenriksen",
  "CountyId": 12,
  "CountyName": "Hordaland",
  "CountyPosition": 1,
  "ElectionYear": 2013,
  "PoliticalPartyCode": "Ap",
  "PartiSortOrder": 3,
  "PartiId": 1,
  "PartiOrganizationId": 3,
  "BirthTown": null,
  "HomeTown": "",
  "GenderId": 2,
  "GenderName": "Mann",
  "Age": 0,
  "Email": "",
  "SocialConnections": [
    {
      "Id": 2,
      "Name": "Twitter",
      "UserName": "@perrune",
      "FormFieldName": null
    }
  ],
  "CandidateText": "",
  "Description": "Stortingsrepresentant siden 2005. Statssekretær siden 2010. Leder i Hordaland Arbeiderparti 2003-2009.",
  "Education": "",
  "Occupation": "Politiker",
  "ParliamentPeriods": [
    {
      "DateFrom": "2009-10-01T00:00:00",
      "DateTo": "2013-09-30T23:59:59",
      "ParliamentPeriodId": "2009-2013"
    },
    {
      "DateFrom": "2005-10-01T00:00:00",
      "DateTo": "2009-09-30T23:59:59",
      "ParliamentPeriodId": "2005-2009"
    }
  ],
  "Municipality": "Bergen"
}