{
  "CandidateId": 84,
  "FirstName": "Einar",
  "LastName": "Horvei",
  "DateOfBirth": "1955-01-03T00:00:00",
  "Picture": "SV_12_EinarHorvei",
  "CountyId": 12,
  "CountyName": "Hordaland",
  "CountyPosition": 3,
  "ElectionYear": 2013,
  "PoliticalPartyCode": "SV",
  "PartiSortOrder": 2,
  "PartiId": 120,
  "PartiOrganizationId": 2,
  "BirthTown": null,
  "HomeTown": "",
  "GenderId": 2,
  "GenderName": "Mann",
  "Age": 0,
  "Email": "",
  "SocialConnections": null,
  "CandidateText": "",
  "Description": "Styremedlem i Hordaland SV.",
  "Education": "",
  "Occupation": "Lærer",
  "ParliamentPeriods": [],
  "Municipality": "Voss"
}