{
  "CandidateId": 347,
  "FirstName": "Olemic",
  "LastName": "Thommessen",
  "DateOfBirth": "1956-04-18T00:00:00",
  "Picture": "H_05_OlemicThommessen",
  "CountyId": 5,
  "CountyName": "Oppland",
  "CountyPosition": 1,
  "ElectionYear": 2013,
  "PoliticalPartyCode": "H",
  "PartiSortOrder": 7,
  "PartiId": 60,
  "PartiOrganizationId": 7,
  "BirthTown": null,
  "HomeTown": "",
  "GenderId": 2,
  "GenderName": "Mann",
  "Age": 0,
  "Email": "",
  "SocialConnections": null,
  "CandidateText": "",
  "Description": "Stortingsrepresentant siden 2001. Vararepresentant til Stortinget 1993-1997. Tidligere advokat.",
  "Education": "",
  "Occupation": "Politiker",
  "ParliamentPeriods": [
    {
      "DateFrom": "2009-10-01T00:00:00",
      "DateTo": "2013-09-30T23:59:59",
      "ParliamentPeriodId": "2009-2013"
    },
    {
      "DateFrom": "2005-10-01T00:00:00",
      "DateTo": "2009-09-30T23:59:59",
      "ParliamentPeriodId": "2005-2009"
    },
    {
      "DateFrom": "2001-10-01T00:00:00",
      "DateTo": "2005-09-30T23:59:59",
      "ParliamentPeriodId": "2001-2005"
    }
  ],
  "Municipality": "Lillehammer"
}