{
  "CandidateId": 386,
  "FirstName": "Eirik",
  "LastName": "Milde",
  "DateOfBirth": "1958-05-20T00:00:00",
  "Picture": "H_01_EirikMilde",
  "CountyId": 1,
  "CountyName": "Østfold",
  "CountyPosition": 3,
  "ElectionYear": 2013,
  "PoliticalPartyCode": "H",
  "PartiSortOrder": 7,
  "PartiId": 60,
  "PartiOrganizationId": 7,
  "BirthTown": null,
  "HomeTown": "",
  "GenderId": 2,
  "GenderName": "Mann",
  "Age": 0,
  "Email": "",
  "SocialConnections": [
    {
      "Id": 2,
      "Name": "Twitter",
      "UserName": "@Eirik_Milde",
      "FormFieldName": null
    }
  ],
  "CandidateText": "",
  "Description": "Nestleder i Østfold Høyre siden 2008. Kommunestyrerepresentant siden 1999. Gruppeleder for Høyre på fylkestinget siden 2009, representant siden 2007.",
  "Education": "",
  "Occupation": "Sivilingeniør",
  "ParliamentPeriods": [],
  "Municipality": "Halden"
}