{
  "CandidateId": 87,
  "FirstName": "Aud Herbjørg",
  "LastName": "Kvalvik",
  "DateOfBirth": "1956-12-18T00:00:00",
  "Picture": "SV_16_AudHerbjoergKvalvik",
  "CountyId": 16,
  "CountyName": "Sør-Trøndelag",
  "CountyPosition": 2,
  "ElectionYear": 2013,
  "PoliticalPartyCode": "SV",
  "PartiSortOrder": 2,
  "PartiId": 120,
  "PartiOrganizationId": 2,
  "BirthTown": null,
  "HomeTown": "",
  "GenderId": 1,
  "GenderName": "Kvinne",
  "Age": 0,
  "Email": "",
  "SocialConnections": [
    {
      "Id": 2,
      "Name": "Twitter",
      "UserName": "@AudKvalvik",
      "FormFieldName": null
    }
  ],
  "CandidateText": "",
  "Description": "Vararepresentant til Stortinget siden 2005. Jobber som seniorrådgiver.",
  "Education": "",
  "Occupation": "Rådgiver",
  "ParliamentPeriods": [],
  "Municipality": "Melhus"
}