{
  "CandidateId": 216,
  "FirstName": "Åsmund",
  "LastName": "Grøver Aukrust",
  "DateOfBirth": "1985-02-28T00:00:00",
  "Picture": "A_02_AAsmundGroeverAukrust",
  "CountyId": 2,
  "CountyName": "Akershus",
  "CountyPosition": 4,
  "ElectionYear": 2013,
  "PoliticalPartyCode": "Ap",
  "PartiSortOrder": 3,
  "PartiId": 1,
  "PartiOrganizationId": 3,
  "BirthTown": null,
  "HomeTown": "",
  "GenderId": 2,
  "GenderName": "Mann",
  "Age": 0,
  "Email": "",
  "SocialConnections": [
    {
      "Id": 2,
      "Name": "Twitter",
      "UserName": "@AsmundAukrust",
      "FormFieldName": null
    }
  ],
  "CandidateText": "",
  "Description": "Nestleder i AUF siden 2010. Vararepresentant til Stortinget siden 2009. Visepresident i International Union of Socialist Youth.",
  "Education": "",
  "Occupation": "Politiker",
  "ParliamentPeriods": [],
  "Municipality": "Bærum"
}