{
  "CandidateId": 56,
  "FirstName": "Geir",
  "LastName": "Byberg",
  "DateOfBirth": "1967-06-23T00:00:00",
  "Picture": "Krf_04_GeirByberg",
  "CountyId": 4,
  "CountyName": "Hedmark",
  "CountyPosition": 1,
  "ElectionYear": 2013,
  "PoliticalPartyCode": "Krf",
  "PartiSortOrder": 6,
  "PartiId": 69,
  "PartiOrganizationId": 6,
  "BirthTown": null,
  "HomeTown": "",
  "GenderId": 2,
  "GenderName": "Mann",
  "Age": 0,
  "Email": "",
  "SocialConnections": [
    {
      "Id": 2,
      "Name": "Twitter",
      "UserName": "@geirbyberg",
      "FormFieldName": null
    }
  ],
  "CandidateText": "",
  "Description": "Varaordfører i Hamar siden 2011. Jobber som inspektør ved Hedmarktoppen folkehøyskole.",
  "Education": "",
  "Occupation": "Lærer",
  "ParliamentPeriods": [],
  "Municipality": "Hamar"
}