{
  "CandidateId": 263,
  "FirstName": "Jens",
  "LastName": "Stoltenberg",
  "DateOfBirth": "1959-03-16T00:00:00",
  "Picture": "A_03_JensStoltenberg",
  "CountyId": 3,
  "CountyName": "Oslo",
  "CountyPosition": 1,
  "ElectionYear": 2013,
  "PoliticalPartyCode": "Ap",
  "PartiSortOrder": 3,
  "PartiId": 1,
  "PartiOrganizationId": 3,
  "BirthTown": null,
  "HomeTown": "",
  "GenderId": 2,
  "GenderName": "Mann",
  "Age": 0,
  "Email": "",
  "SocialConnections": [
    {
      "Id": 2,
      "Name": "Twitter",
      "UserName": "@jensstoltenberg ",
      "FormFieldName": null
    }
  ],
  "CandidateText": "",
  "Description": "Statsminister siden 2005 og 2000-2001. Leder i Arbeiderpartiet siden 2002. Stortingsrepresentant siden 1993. Finansminister 1996-1997, nærings- og energiminister 1993-1996 og statssekretær i Miljøverndepartementet 1990-1991.",
  "Education": "",
  "Occupation": "Politiker",
  "ParliamentPeriods": [
    {
      "DateFrom": "2009-10-01T00:00:00",
      "DateTo": "2013-09-30T23:59:59",
      "ParliamentPeriodId": "2009-2013"
    },
    {
      "DateFrom": "2005-10-01T00:00:00",
      "DateTo": "2009-09-30T23:59:59",
      "ParliamentPeriodId": "2005-2009"
    }
  ],
  "Municipality": "Oslo"
}