{
  "CandidateId": 168,
  "FirstName": "Ingebjørg Amanda",
  "LastName": "Godskesen",
  "DateOfBirth": "1957-05-26T00:00:00",
  "Picture": "Frp_09_IngebjoergAmandaGodskesen",
  "CountyId": 9,
  "CountyName": "Aust-Agder",
  "CountyPosition": 1,
  "ElectionYear": 2013,
  "PoliticalPartyCode": "Frp",
  "PartiSortOrder": 8,
  "PartiId": 53,
  "PartiOrganizationId": 8,
  "BirthTown": null,
  "HomeTown": "",
  "GenderId": 1,
  "GenderName": "Kvinne",
  "Age": 0,
  "Email": "",
  "SocialConnections": null,
  "CandidateText": "",
  "Description": "Stortingsrepresentant siden 2009. Medlem i Arendal bystyre 2003-2009. Medlem i Arendal formannskap 2007-2009.",
  "Education": "",
  "Occupation": "",
  "ParliamentPeriods": [
    {
      "DateFrom": "2009-10-01T00:00:00",
      "DateTo": "2013-09-30T23:59:59",
      "ParliamentPeriodId": "2009-2013"
    }
  ],
  "Municipality": "Arendal"
}