{
  "CandidateId": 225,
  "FirstName": "Martin",
  "LastName": "Kolberg",
  "DateOfBirth": "1949-02-24T00:00:00",
  "Picture": "A_06_MartinKolberg",
  "CountyId": 6,
  "CountyName": "Buskerud",
  "CountyPosition": 1,
  "ElectionYear": 2013,
  "PoliticalPartyCode": "Ap",
  "PartiSortOrder": 3,
  "PartiId": 1,
  "PartiOrganizationId": 3,
  "BirthTown": null,
  "HomeTown": "",
  "GenderId": 2,
  "GenderName": "Mann",
  "Age": 0,
  "Email": "",
  "SocialConnections": null,
  "CandidateText": "",
  "Description": "Stortingsrepresentant og nestleder i  gruppestyret siden 2009.",
  "Education": "",
  "Occupation": "Politiker",
  "ParliamentPeriods": [
    {
      "DateFrom": "2009-10-01T00:00:00",
      "DateTo": "2013-09-30T23:59:59",
      "ParliamentPeriodId": "2009-2013"
    }
  ],
  "Municipality": "Lier"
}