{
  "CandidateId": 310,
  "FirstName": "Nils Aage",
  "LastName": "Jegstad",
  "DateOfBirth": "1950-12-12T00:00:00",
  "Picture": "H_02_NilsAageJegstad",
  "CountyId": 2,
  "CountyName": "Akershus",
  "CountyPosition": 6,
  "ElectionYear": 2013,
  "PoliticalPartyCode": "H",
  "PartiSortOrder": 7,
  "PartiId": 60,
  "PartiOrganizationId": 7,
  "BirthTown": null,
  "HomeTown": "",
  "GenderId": 2,
  "GenderName": "Mann",
  "Age": 0,
  "Email": "",
  "SocialConnections": null,
  "CandidateText": "",
  "Description": "Fylkesordfører i Akershus siden 2007. Ordfører i Vestby 1988-1999. ",
  "Education": "",
  "Occupation": "Politiker",
  "ParliamentPeriods": [],
  "Municipality": "Vestby"
}