{
  "CandidateId": 159,
  "FirstName": "Tone",
  "LastName": "Heimdal Brataas",
  "DateOfBirth": "1970-07-24T00:00:00",
  "Picture": "Frp_06_ToneHeimdalBrataas",
  "CountyId": 6,
  "CountyName": "Buskerud",
  "CountyPosition": 3,
  "ElectionYear": 2013,
  "PoliticalPartyCode": "Frp",
  "PartiSortOrder": 8,
  "PartiId": 53,
  "PartiOrganizationId": 8,
  "BirthTown": null,
  "HomeTown": "",
  "GenderId": 1,
  "GenderName": "Kvinne",
  "Age": 0,
  "Email": "",
  "SocialConnections": null,
  "CandidateText": "",
  "Description": "Kommunestyre- og fylkesstyremedlem. Jobber som daglig leder.",
  "Education": "",
  "Occupation": "Leder",
  "ParliamentPeriods": [],
  "Municipality": "Røyken"
}