{
  "CandidateId": 257,
  "FirstName": "Jorid",
  "LastName": "Nordmelan",
  "DateOfBirth": "1991-01-17T00:00:00",
  "Picture": "A_17_JoridNordmelan",
  "CountyId": 17,
  "CountyName": "Nord-Trøndelag",
  "CountyPosition": 3,
  "ElectionYear": 2013,
  "PoliticalPartyCode": "Ap",
  "PartiSortOrder": 3,
  "PartiId": 1,
  "PartiOrganizationId": 3,
  "BirthTown": null,
  "HomeTown": "",
  "GenderId": 1,
  "GenderName": "Kvinne",
  "Age": 0,
  "Email": "",
  "SocialConnections": [
    {
      "Id": 2,
      "Name": "Twitter",
      "UserName": "@Nordmelan",
      "FormFieldName": null
    }
  ],
  "CandidateText": "",
  "Description": "Kommunestyremedlem i Namsos siden 2011.",
  "Education": "",
  "Occupation": "Student",
  "ParliamentPeriods": [],
  "Municipality": "Namsos"
}