{
  "CandidateId": 161,
  "FirstName": "Anders",
  "LastName": "Anundsen",
  "DateOfBirth": "1975-11-17T00:00:00",
  "Picture": "Frp_07_AndersAnundsen",
  "CountyId": 7,
  "CountyName": "Vestfold",
  "CountyPosition": 1,
  "ElectionYear": 2013,
  "PoliticalPartyCode": "Frp",
  "PartiSortOrder": 8,
  "PartiId": 53,
  "PartiOrganizationId": 8,
  "BirthTown": null,
  "HomeTown": "",
  "GenderId": 2,
  "GenderName": "Mann",
  "Age": 0,
  "Email": "",
  "SocialConnections": [
    {
      "Id": 2,
      "Name": "Twitter",
      "UserName": "@AndersAnundsen",
      "FormFieldName": null
    }
  ],
  "CandidateText": "",
  "Description": "Stortingsrepresentant siden 2005. Leder i Kontroll- og konstitusjonskomiteen siden 2009. Vararepresentant til Stortinget 1997-2001. Utdannet jurist.",
  "Education": "",
  "Occupation": "Politiker",
  "ParliamentPeriods": [
    {
      "DateFrom": "2009-10-01T00:00:00",
      "DateTo": "2013-09-30T23:59:59",
      "ParliamentPeriodId": "2009-2013"
    },
    {
      "DateFrom": "2005-10-01T00:00:00",
      "DateTo": "2009-09-30T23:59:59",
      "ParliamentPeriodId": "2005-2009"
    }
  ],
  "Municipality": "Larvik"
}