{
  "CandidateId": 128,
  "FirstName": "Sandra",
  "LastName": "Borch",
  "DateOfBirth": "1988-04-23T00:00:00",
  "Picture": "SP_19_SandraBorch",
  "CountyId": 19,
  "CountyName": "Troms",
  "CountyPosition": 2,
  "ElectionYear": 2013,
  "PoliticalPartyCode": "SP",
  "PartiSortOrder": 4,
  "PartiId": 119,
  "PartiOrganizationId": 4,
  "BirthTown": null,
  "HomeTown": "",
  "GenderId": 1,
  "GenderName": "Kvinne",
  "Age": 0,
  "Email": "",
  "SocialConnections": [
    {
      "Id": 2,
      "Name": "Twitter",
      "UserName": "@SandraNBorch",
      "FormFieldName": null
    }
  ],
  "CandidateText": "",
  "Description": "Leder av Senterungdommen siden 2011 og  fylkestingsrepresentant i Troms.",
  "Education": "",
  "Occupation": "Politiker",
  "ParliamentPeriods": [],
  "Municipality": "Tromsø"
}