{
  "CandidateId": 304,
  "FirstName": "Tellef Inge",
  "LastName": "Mørland",
  "DateOfBirth": "1980-04-21T00:00:00",
  "Picture": "A_09_TellefIngeMoerland",
  "CountyId": 9,
  "CountyName": "Aust-Agder",
  "CountyPosition": 3,
  "ElectionYear": 2013,
  "PoliticalPartyCode": "Ap",
  "PartiSortOrder": 3,
  "PartiId": 1,
  "PartiOrganizationId": 3,
  "BirthTown": null,
  "HomeTown": "",
  "GenderId": 2,
  "GenderName": "Mann",
  "Age": 0,
  "Email": "",
  "SocialConnections": [
    {
      "Id": 2,
      "Name": "Twitter",
      "UserName": "@tellefinge",
      "FormFieldName": null
    }
  ],
  "CandidateText": "",
  "Description": "Opposisjonsleder for Aust-Agder Arbeiderparti på fylkestinget.",
  "Education": "",
  "Occupation": "Politiker",
  "ParliamentPeriods": [],
  "Municipality": "Arendal"
}