{
  "CandidateId": 46,
  "FirstName": "Anders",
  "LastName": "Tyvand",
  "DateOfBirth": "1980-05-19T00:00:00",
  "Picture": "Krf_07_AndersTyvand",
  "CountyId": 7,
  "CountyName": "Vestfold",
  "CountyPosition": 1,
  "ElectionYear": 2013,
  "PoliticalPartyCode": "Krf",
  "PartiSortOrder": 6,
  "PartiId": 69,
  "PartiOrganizationId": 6,
  "BirthTown": null,
  "HomeTown": "",
  "GenderId": 2,
  "GenderName": "Mann",
  "Age": 0,
  "Email": "",
  "SocialConnections": [
    {
      "Id": 2,
      "Name": "Twitter",
      "UserName": "@anderstyvand",
      "FormFieldName": null
    }
  ],
  "CandidateText": "",
  "Description": "Representant i Tønsberg bystyre. Tidligere politisk rådgiver for KrF på Stortinget.",
  "Education": "",
  "Occupation": "Informasjonskonsulent",
  "ParliamentPeriods": [],
  "Municipality": "Tønsberg"
}