{
  "CandidateId": 173,
  "FirstName": "Øyvind",
  "LastName": "Berntsen",
  "DateOfBirth": "1959-06-22T00:00:00",
  "Picture": "Frp_10_OEyvindBerntsen",
  "CountyId": 10,
  "CountyName": "Vest-Agder",
  "CountyPosition": 3,
  "ElectionYear": 2013,
  "PoliticalPartyCode": "Frp",
  "PartiSortOrder": 8,
  "PartiId": 53,
  "PartiOrganizationId": 8,
  "BirthTown": null,
  "HomeTown": "",
  "GenderId": 2,
  "GenderName": "Mann",
  "Age": 0,
  "Email": "",
  "SocialConnections": null,
  "CandidateText": "",
  "Description": "Medlem i lokallagsstyret og bystyret i Kristiansand. Jobber som økonomisjef.",
  "Education": "",
  "Occupation": "Leder",
  "ParliamentPeriods": [],
  "Municipality": "Kristiansand"
}