{
  "CandidateId": 220,
  "FirstName": "Geir",
  "LastName": "Finne",
  "DateOfBirth": "1948-05-10T00:00:00",
  "Picture": "KYST_19_GeirFinne",
  "CountyId": 19,
  "CountyName": "Troms",
  "CountyPosition": 1,
  "ElectionYear": 2013,
  "PoliticalPartyCode": "KYST",
  "PartiSortOrder": 11,
  "PartiId": 73,
  "PartiOrganizationId": 11,
  "BirthTown": null,
  "HomeTown": "",
  "GenderId": 2,
  "GenderName": "Mann",
  "Age": 0,
  "Email": "",
  "SocialConnections": null,
  "CandidateText": "",
  "Description": "Nestleder i Tromsø Kystparti og medlem i fylkesstyret. Jobber ved Universitetet i Tromsø.",
  "Education": "",
  "Occupation": "Førsteamanuensis",
  "ParliamentPeriods": [],
  "Municipality": "Tromsø"
}