{
  "CandidateId": 22,
  "FirstName": "Erik",
  "LastName": "Ringnes",
  "DateOfBirth": "1955-07-04T00:00:00",
  "Picture": "V_04_ErikRingnes",
  "CountyId": 4,
  "CountyName": "Hedmark",
  "CountyPosition": 1,
  "ElectionYear": 2013,
  "PoliticalPartyCode": "V",
  "PartiSortOrder": 5,
  "PartiId": 147,
  "PartiOrganizationId": 5,
  "BirthTown": null,
  "HomeTown": "",
  "GenderId": 2,
  "GenderName": "Mann",
  "Age": 0,
  "Email": "",
  "SocialConnections": [
    {
      "Id": 2,
      "Name": "Twitter",
      "UserName": "@VenstreErik",
      "FormFieldName": null
    }
  ],
  "CandidateText": "",
  "Description": "Leder for Hedmark Venstre. Driver Ringnes gård.",
  "Education": "",
  "Occupation": "Bonde",
  "ParliamentPeriods": [],
  "Municipality": "Stange"
}