{
  "CandidateId": 99,
  "FirstName": "Andre N.",
  "LastName": "Skjelstad",
  "DateOfBirth": "1965-08-27T00:00:00",
  "Picture": "V_17_AndreN.Skjelstad",
  "CountyId": 17,
  "CountyName": "Nord-Trøndelag",
  "CountyPosition": 1,
  "ElectionYear": 2013,
  "PoliticalPartyCode": "V",
  "PartiSortOrder": 5,
  "PartiId": 147,
  "PartiOrganizationId": 5,
  "BirthTown": null,
  "HomeTown": "",
  "GenderId": 2,
  "GenderName": "Mann",
  "Age": 0,
  "Email": "",
  "SocialConnections": [
    {
      "Id": 2,
      "Name": "Twitter",
      "UserName": "@AndreNSkjelstad",
      "FormFieldName": null
    }
  ],
  "CandidateText": "",
  "Description": "Varaordfører i Verran kommune siden 2011. Medlem av fylkestinget i Nord-Trøndelag. Stortingsrepresentant 2005-2009. ",
  "Education": "",
  "Occupation": "Bonde",
  "ParliamentPeriods": [],
  "Municipality": "Verran"
}