{
  "CandidateId": 131,
  "FirstName": "Per Inge",
  "LastName": "Bjerknes",
  "DateOfBirth": "1979-04-12T00:00:00",
  "Picture": "SP_01_PerIngeBjerknes",
  "CountyId": 1,
  "CountyName": "Østfold",
  "CountyPosition": 1,
  "ElectionYear": 2013,
  "PoliticalPartyCode": "SP",
  "PartiSortOrder": 4,
  "PartiId": 119,
  "PartiOrganizationId": 4,
  "BirthTown": null,
  "HomeTown": "",
  "GenderId": 2,
  "GenderName": "Mann",
  "Age": 0,
  "Email": "",
  "SocialConnections": [
    {
      "Id": 2,
      "Name": "Twitter",
      "UserName": "@SpPerInge",
      "FormFieldName": null
    }
  ],
  "CandidateText": "",
  "Description": "Fylkesvaraordfører i Østfold siden 2011.",
  "Education": "",
  "Occupation": "Politiker",
  "ParliamentPeriods": [],
  "Municipality": "Sarpsborg"
}