{
  "CandidateId": 135,
  "FirstName": "Erlend",
  "LastName": "Wiborg",
  "DateOfBirth": "1984-01-20T00:00:00",
  "Picture": "Frp_01_ErlendWiborg",
  "CountyId": 1,
  "CountyName": "Østfold",
  "CountyPosition": 2,
  "ElectionYear": 2013,
  "PoliticalPartyCode": "Frp",
  "PartiSortOrder": 8,
  "PartiId": 53,
  "PartiOrganizationId": 8,
  "BirthTown": null,
  "HomeTown": "",
  "GenderId": 2,
  "GenderName": "Mann",
  "Age": 0,
  "Email": "",
  "SocialConnections": [
    {
      "Id": 2,
      "Name": "Twitter",
      "UserName": "@erlendwiborg",
      "FormFieldName": null
    }
  ],
  "CandidateText": "",
  "Description": "Varaordfører i Moss og Frps gruppeleder på fylkestinget i Østfold. Vararepresentant til Stortinget siden 2009.",
  "Education": "",
  "Occupation": "Politiker",
  "ParliamentPeriods": [],
  "Municipality": "Moss"
}