{
  "CandidateId": 217,
  "FirstName": "Gunvor",
  "LastName": "Eldegard",
  "DateOfBirth": "1963-04-14T00:00:00",
  "Picture": "A_02_GunvorEldegard",
  "CountyId": 2,
  "CountyName": "Akershus",
  "CountyPosition": 5,
  "ElectionYear": 2013,
  "PoliticalPartyCode": "Ap",
  "PartiSortOrder": 3,
  "PartiId": 1,
  "PartiOrganizationId": 3,
  "BirthTown": null,
  "HomeTown": "",
  "GenderId": 1,
  "GenderName": "Kvinne",
  "Age": 0,
  "Email": "",
  "SocialConnections": [
    {
      "Id": 2,
      "Name": "Twitter",
      "UserName": "@gunvoreldegard",
      "FormFieldName": null
    }
  ],
  "CandidateText": "",
  "Description": "Stortingsrepresentant siden 2005. Leder for Stortingets delegasjon til Den vesteuropeiske unions parlamentariske forsamling siden 2009. Ordfører i Ski 2003-2005.",
  "Education": "",
  "Occupation": "Politiker",
  "ParliamentPeriods": [
    {
      "DateFrom": "2009-10-01T00:00:00",
      "DateTo": "2013-09-30T23:59:59",
      "ParliamentPeriodId": "2009-2013"
    },
    {
      "DateFrom": "2005-10-01T00:00:00",
      "DateTo": "2009-09-30T23:59:59",
      "ParliamentPeriodId": "2005-2009"
    }
  ],
  "Municipality": "Ski"
}