{
  "CandidateId": 299,
  "FirstName": "Svein Roald",
  "LastName": "Hansen",
  "DateOfBirth": "1949-08-20T00:00:00",
  "Picture": "A_01_SveinRoaldHansen",
  "CountyId": 1,
  "CountyName": "Østfold",
  "CountyPosition": 1,
  "ElectionYear": 2013,
  "PoliticalPartyCode": "Ap",
  "PartiSortOrder": 3,
  "PartiId": 1,
  "PartiOrganizationId": 3,
  "BirthTown": null,
  "HomeTown": "",
  "GenderId": 2,
  "GenderName": "Mann",
  "Age": 0,
  "Email": "",
  "SocialConnections": null,
  "CandidateText": "",
  "Description": "Stortingsrepresentant siden 2001. Første nestleder i Utenriks- og forsvarskomiteen og Den utvidede utenriks- og forsvarskomité siden 2009. ",
  "Education": "",
  "Occupation": "Politiker",
  "ParliamentPeriods": [
    {
      "DateFrom": "2009-10-01T00:00:00",
      "DateTo": "2013-09-30T23:59:59",
      "ParliamentPeriodId": "2009-2013"
    },
    {
      "DateFrom": "2005-10-01T00:00:00",
      "DateTo": "2009-09-30T23:59:59",
      "ParliamentPeriodId": "2005-2009"
    },
    {
      "DateFrom": "2001-10-01T00:00:00",
      "DateTo": "2005-09-30T23:59:59",
      "ParliamentPeriodId": "2001-2005"
    }
  ],
  "Municipality": "Fredrikstad"
}