{
  "CandidateId": 237,
  "FirstName": "Magne",
  "LastName": "Rommetveit",
  "DateOfBirth": "1956-04-27T00:00:00",
  "Picture": "A_12_MagneRommetveit",
  "CountyId": 12,
  "CountyName": "Hordaland",
  "CountyPosition": 3,
  "ElectionYear": 2013,
  "PoliticalPartyCode": "Ap",
  "PartiSortOrder": 3,
  "PartiId": 1,
  "PartiOrganizationId": 3,
  "BirthTown": null,
  "HomeTown": "",
  "GenderId": 2,
  "GenderName": "Mann",
  "Age": 0,
  "Email": "",
  "SocialConnections": null,
  "CandidateText": "",
  "Description": "Stortingsrepresentant siden 2009. Kommunalsjef i Stord 2007-2009.",
  "Education": "",
  "Occupation": "Politiker",
  "ParliamentPeriods": [
    {
      "DateFrom": "2009-10-01T00:00:00",
      "DateTo": "2013-09-30T23:59:59",
      "ParliamentPeriodId": "2009-2013"
    }
  ],
  "Municipality": "Stord"
}