[
  {
    "Code": "RØDT",
    "Name": "Rød Valgallianse",
    "PartiId": 102,
    "Id": 1,
    "SortOrder": 1
  },
  {
    "Code": "SV",
    "Name": "Sosialistisk Venstreparti",
    "PartiId": 120,
    "Id": 2,
    "SortOrder": 2
  },
  {
    "Code": "A",
    "Name": "Det norske Arbeiderparti",
    "PartiId": 1,
    "Id": 3,
    "SortOrder": 3
  },
  {
    "Code": "SP",
    "Name": "Senterpartiet",
    "PartiId": 119,
    "Id": 4,
    "SortOrder": 4
  },
  {
    "Code": "V",
    "Name": "Venstre",
    "PartiId": 147,
    "Id": 5,
    "SortOrder": 5
  },
  {
    "Code": "Krf",
    "Name": "Kristelig Folkeparti",
    "PartiId": 69,
    "Id": 6,
    "SortOrder": 6
  },
  {
    "Code": "H",
    "Name": "Høyre",
    "PartiId": 60,
    "Id": 7,
    "SortOrder": 7
  },
  {
    "Code": "Frp",
    "Name": "Fremskrittspartiet",
    "PartiId": 53,
    "Id": 8,
    "SortOrder": 8
  },
  {
    "Code": "MDG",
    "Name": "Miljøpartiet De Grønne",
    "PartiId": 78,
    "Id": 10,
    "SortOrder": 10
  },
  {
    "Code": "KYST",
    "Name": "Kystpartiet",
    "PartiId": 73,
    "Id": 11,
    "SortOrder": 11
  }
]